<?xml version="1.0" encoding="UTF-8" standalone="no"?>
<!-- Created with Inkscape (http://www.inkscape.org/) -->
<svg
   xmlns:svg="http://www.w3.org/2000/svg"
   xmlns="http://www.w3.org/2000/svg"
   xmlns:xlink="http://www.w3.org/1999/xlink"
   version="1.0"
   width="142.39999"
   height="166.10001"
   id="svg2">
  <defs
     id="defs4">
    <linearGradient
       id="linearGradient3671">
      <stop
         style="stop-color:blue;stop-opacity:1"
         offset="0"
         id="stop3673" />
      <stop
         style="stop-color:navy;stop-opacity:1"
         offset="1"
         id="stop3675" />
    </linearGradient>
    <radialGradient
       cx="72.457542"
       cy="68.890488"
       r="5.4515262"
       fx="72.457542"
       fy="68.890488"
       id="radialGradient3677"
       xlink:href="#linearGradient3671"
       gradientUnits="userSpaceOnUse"
       gradientTransform="matrix(1,0,0,0.946434,-34.7768,3.591704)" />
    <radialGradient
       cx="25.125376"
       cy="100.81071"
       r="4.0000129"
       fx="25.125376"
       fy="100.81071"
       id="radialGradient6350"
       xlink:href="#linearGradient3671"
       gradientUnits="userSpaceOnUse"
       gradientTransform="matrix(1,0,0,1.045121,13.2054,14.06966)" />
    <radialGradient
       cx="48.609802"
       cy="133.75121"
       r="4.0000129"
       fx="48.609802"
       fy="133.75121"
       id="radialGradient7243"
       xlink:href="#linearGradient3671"
       gradientUnits="userSpaceOnUse"
       gradientTransform="matrix(1,0,0,1.045122,0,-5.98726)" />
    <radialGradient
       cx="72.457542"
       cy="68.890488"
       r="5.4515262"
       fx="72.457542"
       fy="68.890488"
       id="radialGradient18063"
       xlink:href="#linearGradient3671"
       gradientUnits="userSpaceOnUse"
       gradientTransform="matrix(1,0,0,0.946434,35.37293,3.67685)" />
    <radialGradient
       cx="72.457542"
       cy="68.890488"
       r="5.4515262"
       fx="72.457542"
       fy="68.890488"
       id="radialGradient18954"
       xlink:href="#linearGradient3671"
       gradientUnits="userSpaceOnUse"
       gradientTransform="matrix(1,0,0,0.946434,0.404031,36.31349)" />
    <radialGradient
       cx="72.457542"
       cy="68.890488"
       r="5.4515262"
       fx="72.457542"
       fy="68.890488"
       id="radialGradient18958"
       xlink:href="#linearGradient3671"
       gradientUnits="userSpaceOnUse"
       gradientTransform="matrix(1,0,0,0.946434,0.371855,-29.72717)" />
    <radialGradient
       cx="72.457542"
       cy="68.890488"
       r="5.4515262"
       fx="72.457542"
       fy="68.890488"
       id="radialGradient18966"
       xlink:href="#linearGradient3671"
       gradientUnits="userSpaceOnUse"
       gradientTransform="matrix(1,0,0,0.946434,0.513882,3.221397)" />
  </defs>
  <path
     d="M 71.2,133.40001 L 0.5,67.000059 L 71.2,0.5000594 L 141.9,67.000059 L 71.2,133.40001 z "
     style="fill:white;fill-opacity:1;fill-rule:evenodd;stroke:black;stroke-width:1px;stroke-linecap:butt;stroke-linejoin:miter;stroke-opacity:1"
     id="path3692" />
  <path
     d="M 71.2,133.40001 L 141.9,67.000059 L 141.9,101.20006 L 71.2,165.60001 L 71.2,133.40001 L 71.2,133.40001 z "
     style="opacity:0.9;fill:#aaa;fill-opacity:1;stroke:black;stroke-width:1;stroke-miterlimit:4;stroke-dasharray:none;stroke-opacity:1"
     id="path1889" />
  <path
     d="M 71.200003,133.40001 L 0.5,67.00006 L 0.5,101.20006 L 71.200003,165.60001 L 71.200003,133.40001 L 71.200003,133.40001 z "
     style="opacity:0.9;fill:white;fill-opacity:1;stroke:black;stroke-width:1;stroke-miterlimit:4;stroke-dasharray:none;stroke-opacity:1"
     id="path2783" />
  <path
     d="M 39.666582,63.739013 C 41.532752,65.575053 41.532893,68.521403 39.666582,70.378633 C 37.672518,72.155853 34.543024,72.155723 32.597624,70.378633 C 30.682644,68.521263 30.682494,65.574913 32.612684,63.757693 C 34.542874,61.940463 37.672372,61.940603 39.666582,63.739013 L 39.666582,63.739013 L 39.666582,63.739013 L 39.666582,63.739013 L 39.666582,63.739013 L 39.666582,63.709053 L 39.666582,63.739013 z "
     style="opacity:0.9;fill:url(#radialGradient3677);fill-opacity:1;stroke:black;stroke-width:1;stroke-miterlimit:4;stroke-dasharray:none;stroke-opacity:1"
     id="path1874" />
  <path
     d="M 33.600391,114.89667 C 33.600391,115.88433 35.19388,118.10038 37.129442,119.89532 C 39.039643,121.69886 40.668491,122.39985 40.598225,121.46528 C 40.598398,120.53104 39.039643,118.31499 37.129442,116.54623 C 35.19388,114.71651 33.600391,114.01552 33.600391,114.89667 L 33.600391,114.89667 L 33.600391,114.89667 z "
     style="opacity:0.9;fill:url(#radialGradient6350);fill-opacity:1;stroke:black;stroke-width:1;stroke-miterlimit:4;stroke-dasharray:none;stroke-opacity:1"
     id="path3679" />
  <path
     d="M 108.32819,114.56719 C 108.32819,115.55485 106.7347,117.7709 104.79914,119.56584 C 102.88894,121.36938 101.26009,122.07037 101.33036,121.1358 C 101.33019,120.20156 102.88894,117.98551 104.79914,116.21675 C 106.7347,114.38703 108.32819,113.68604 108.32819,114.56719 L 108.32819,114.56719 L 108.32819,114.56719 z "
     style="opacity:0.9;fill:navy;fill-opacity:1;stroke:black;stroke-width:1;stroke-miterlimit:4;stroke-dasharray:none;stroke-opacity:1"
     id="path5457" />
  <path
     d="M 109.81632,63.824159 C 111.68249,65.660199 111.68263,68.606549 109.81632,70.463779 C 107.82225,72.240999 104.69276,72.240869 102.74736,70.463779 C 100.83238,68.606409 100.83223,65.660059 102.76242,63.842839 C 104.69261,62.025609 107.82211,62.025749 109.81632,63.824159 L 109.81632,63.824159 L 109.81632,63.824159 L 109.81632,63.824159 L 109.81632,63.824159 L 109.81632,63.794199 L 109.81632,63.824159 z "
     style="opacity:0.9;fill:url(#radialGradient18063);fill-opacity:1;stroke:black;stroke-width:1;stroke-miterlimit:4;stroke-dasharray:none;stroke-opacity:1"
     id="path18061" />
  <path
     d="M 74.847417,96.460767 C 76.713591,98.296807 76.713731,101.24319 74.847417,103.10042 C 72.853353,104.87764 69.723859,104.87751 67.778459,103.10042 C 65.863479,101.24305 65.863329,98.296667 67.793519,96.479447 C 69.723709,94.662217 72.853207,94.662357 74.847417,96.460767 L 74.847417,96.460767 L 74.847417,96.460767 L 74.847417,96.460767 L 74.847417,96.460767 L 74.847417,96.430807 L 74.847417,96.460767 z "
     style="opacity:0.9;fill:url(#radialGradient18954);fill-opacity:1;stroke:black;stroke-width:1;stroke-miterlimit:4;stroke-dasharray:none;stroke-opacity:1"
     id="path18952" />
  <path
     d="M 74.815241,30.420154 C 76.681415,32.256194 76.681555,35.202544 74.815241,37.059774 C 72.821177,38.836994 69.691683,38.836864 67.746283,37.059774 C 65.831303,35.202404 65.831153,32.256054 67.761343,30.438834 C 69.691533,28.621604 72.821031,28.621744 74.815241,30.420154 L 74.815241,30.420154 L 74.815241,30.420154 L 74.815241,30.420154 L 74.815241,30.420154 L 74.815241,30.390194 L 74.815241,30.420154 z "
     style="opacity:0.9;fill:url(#radialGradient18958);fill-opacity:1;stroke:black;stroke-width:1;stroke-miterlimit:4;stroke-dasharray:none;stroke-opacity:1"
     id="path18956" />
  <path
     d="M 74.957272,63.368706 C 76.823442,65.204746 76.823583,68.151096 74.957272,70.008326 C 72.963208,71.785546 69.833714,71.785416 67.888314,70.008326 C 65.973334,68.150956 65.973184,65.204606 67.903374,63.387386 C 69.833564,61.570156 72.963062,61.570296 74.957272,63.368706 L 74.957272,63.368706 L 74.957272,63.368706 L 74.957272,63.368706 L 74.957272,63.368706 L 74.957272,63.338746 L 74.957272,63.368706 z "
     style="opacity:0.9;fill:url(#radialGradient18966);fill-opacity:1;stroke:black;stroke-width:1;stroke-miterlimit:4;stroke-dasharray:none;stroke-opacity:1"
     id="path18964" />
  <path
     d="M 92.045284,137.07791 C 92.045284,138.06557 90.451794,140.28162 88.516234,142.07656 C 86.606034,143.8801 84.977184,144.58109 85.047454,143.64652 C 85.047284,142.71228 86.606034,140.49623 88.516234,138.72747 C 90.451794,136.89775 92.045284,136.19676 92.045284,137.07791 L 92.045284,137.07791 L 92.045284,137.07791 z "
     style="opacity:0.9;fill:navy;fill-opacity:1;stroke:black;stroke-width:1;stroke-miterlimit:4;stroke-dasharray:none;stroke-opacity:1"
     id="path9021" />
  <path
     d="M 127.19363,88.35744 C 127.19363,89.3451 125.60014,91.56115 123.66458,93.35609 C 121.75438,95.15963 120.12553,95.86062 120.1958,94.92605 C 120.19563,93.99181 121.75438,91.77576 123.66458,90.007 C 125.60014,88.17728 127.19363,87.47629 127.19363,88.35744 L 127.19363,88.35744 L 127.19363,88.35744 z "
     style="opacity:0.9;fill:navy;fill-opacity:1;stroke:black;stroke-width:1;stroke-miterlimit:4;stroke-dasharray:none;stroke-opacity:1"
     id="path9023" />
</svg>
