<?xml version="1.0" encoding="UTF-8" standalone="no"?>
<svg
   xmlns:dc="http://purl.org/dc/elements/1.1/"
   xmlns:cc="http://creativecommons.org/ns#"
   xmlns:rdf="http://www.w3.org/1999/02/22-rdf-syntax-ns#"
   xmlns:svg="http://www.w3.org/2000/svg"
   xmlns="http://www.w3.org/2000/svg"
   xmlns:sodipodi="http://sodipodi.sourceforge.net/DTD/sodipodi-0.dtd"
   xmlns:inkscape="http://www.inkscape.org/namespaces/inkscape"
   id="svg2985"
   height="1867.0146"
   width="1498.7063"
   version="1.1"
   inkscape:version="0.91pre3 r13670"
   sodipodi:docname="cars.svg">
  <metadata
     id="metadata8">
    <rdf:RDF>
      <cc:Work
         rdf:about="">
        <dc:format>image/svg+xml</dc:format>
        <dc:type
           rdf:resource="http://purl.org/dc/dcmitype/StillImage" />
        <dc:title></dc:title>
      </cc:Work>
    </rdf:RDF>
  </metadata>
  <defs
     id="defs6" />
  <sodipodi:namedview
     pagecolor="#ffffff"
     bordercolor="#666666"
     borderopacity="1"
     objecttolerance="10"
     gridtolerance="10"
     guidetolerance="10"
     inkscape:pageopacity="0"
     inkscape:pageshadow="2"
     inkscape:window-width="1600"
     inkscape:window-height="838"
     id="namedview4"
     showgrid="false"
     inkscape:zoom="0.19683069"
     inkscape:cx="124.94371"
     inkscape:cy="735.18266"
     inkscape:window-x="-8"
     inkscape:window-y="-8"
     inkscape:window-maximized="1"
     inkscape:current-layer="svg2985"
     fit-margin-top="0"
     fit-margin-left="0"
     fit-margin-right="0"
     fit-margin-bottom="0" />
  <g
     id="g4238"
     transform="translate(-99.627453,-157.69154)">
    <path
       id="path4236"
       d="m 656.76,736.17 c -0.825,-0.19632 -6.225,-0.77895 -12,-1.2948 -12.513,-1.1176 -23.142,-4.7033 -27.947,-9.4272 -4.5858,-4.509 -10.053,-11.65 -10.053,-13.13 0,-0.68846 -0.68175,-2.6184 -1.515,-4.2886 -5.6793,-11.384 -8.8468,-26.522 -10.31,-49.27 l -0.67525,-10.5 -3,-0.34674 c -10.142,1.4393 -17.185,1.8316 -25.755,0.35357 -2.3346,-0.36696 -10.77,-2.1954 -18.745,-4.0632 -28.032,-6.5783 -58.585,-10.477 -87,-6.964 l -5.5,0.70945 -7,-6.8854 c -3.85,-3.787 -10.825,-10.357 -15.5,-14.601 l -8.5,-7.7153 24.5,0.75608 c 44.024,1.3586 111.59,0.79005 128.59,-1.082 16.989,-1.8712 27.93,-4.3666 35.064,-7.9976 5.7799,-2.9418 8.5885,-5.7794 11.051,-11.164 1.0059,-2.2 2.589,-5.1283 3.5181,-6.5073 0.92907,-1.379 4.4341,-9.254 7.7889,-17.5 3.3548,-8.246 9.6675,-22.254 14.028,-31.128 7.5158,-15.296 8.0984,-16.165 11.194,-16.697 20.285,-3.4852 41.995,-3.337 52.588,0.35892 17.133,5.9779 31.454,21.233 40.15,42.769 4.3303,10.724 11.858,35.206 12.67,41.205 1.2255,9.053 1.4734,32.114 0.4569,42.5 -2.2626,23.119 -9.1097,48.513 -16.835,62.438 -6.9855,12.591 -20.049,23.84 -30.763,26.491 -10.501,2.5976 -53.259,4.7052 -60.5,2.9821 z"
       inkscape:connector-curvature="0" />
    <path
       id="path4234"
       d="m 717.563,709.17 c 12.928,-6.4422 24.724,-27.196 30.22,-53.167 2.6601,-12.571 3.7007,-38.288 2.0533,-50.744 -3.5849,-27.106 -13.569,-47.095 -26.539,-53.134 -9.5503,-4.4472 -17.631,-2.3098 -27.112,7.1712 -15.023,15.023 -24.432,45.494 -24.422,79.092 0.005,16.283 1.9009,29.301 6.0949,41.844 3.6092,10.794 6.7109,16.332 12.831,22.909 8.2477,8.8636 17.168,10.865 26.873,6.0289 z"
       inkscape:connector-curvature="0" />
    <path
       id="path4232"
       d="m 195.933,704.6849 c -9.9036,-1.2852 -21.354,-4.4819 -27.912,-7.7922 -7.6476,-3.8605 -16.261,-13.19 -19.35,-20.96 -10.681,-19.251 -12.368,-35.794 -14.293,-56.526 0.7458,-7.9913 -3.7812,-47.636 5.0109,-47.647 3.5048,0 4.5775,0.4865 6.249,2.834 3.0772,4.3215 12.939,9.0057 25.798,12.253 24.245,6.123 67.003,10.833 151.42,16.679 l 10.601,0.73414 10.554,11.5 c 5.9517,7.4248 9.007,7.4388 8.29,14.075 0.35092,0.5678 -2.1627,0.94304 -6.229,0.92986 -8.674,0.48175 -32.786,-2.1316 -36.114,3.2488 -10.69,8.4388 -7.3744,-0.11659 -12.662,9.5576 -7.1657,16.032 -11.169,33.38 -24.047,45.06 -5.5664,4.8874 -24.835,13.794 -33.701,15.578 -8.3486,1.6797 -32.326,1.9417 -43.616,0.47654 z"
       inkscape:connector-curvature="0" />
    <path
       id="path4230"
       d="m 1079.303,665.0849 c -7.7318,-0.99216 -16.963,-3.583 -20.311,-5.7004 -7.7484,-4.9008 -13.958,-12.402 -15.306,-18.49 -0.4415,-1.9937 -1.903,-6.9999 -3.248,-11.125 -5.0376,-15.45 -7.3929,-30.324 -5.8592,-37 0.7633,-3.3226 1.2075,-3.6311 8.7641,-6.086 14.366,-4.6671 18.586,-7.5573 25.346,-17.36 7.5338,-10.924 14.146,-25.112 22.63,-48.554 15.77,-43.577 22.104,-52.424 39.431,-55.076 9.388,-1.4366 16.636,-0.8549 21.644,1.7373 6.8398,3.5403 10.517,13.719 13.85,38.338 5.0969,37.647 4.5614,76.886 -1.372,100.55 -1.1099,4.4262 -2.4783,11.293 -3.0409,15.26 -3.2281,19.731 -12.42,31.547 -28.476,37.709 -13.361,5.0289 -21.867,6.4813 -37.052,6.3264 -7.7,-0.0786 -15.35,-0.31606 -17,-0.52779 z"
       inkscape:connector-curvature="0" />
    <path
       id="path4228"
       d="m 1135.746,638.7989 c 23.208,-11.84 32.001,-82.369 15.37,-123.3 -5.5221,-13.59 -14.39,-22.733 -22.049,-22.733 -12.54,0 -23.622,17.455 -28.887,45.5 -1.4085,7.5024 -1.8774,14.621 -1.8774,28.5 0,20.848 1.6731,32.542 6.7243,47 7.7048,22.054 18.812,31.103 30.719,25.029 z"
       inkscape:connector-curvature="0" />
    <path
       id="path4226"
       d="m 428.806,638.12297 c -22.135,-2.7339 -38.805,-1.1779 -58.161,-3.6495 l -13.343,-14.594 c -7.3389,-8.0269 -13.249,-14.688 -13.134,-14.803 0.1149,-0.1149 15.493,0.51135 34.174,1.3917 l 33.965,1.6006 6.5,6.1695 c 3.575,3.3932 10.898,10.141 16.273,14.995 5.375,4.854 9.5899,9.0082 9.3664,9.2317 -0.99014,0.99013 -11.553,0.7597 -15.639,-0.34116 z"
       inkscape:connector-curvature="0" />
    <path
       id="path4224"
       d="m 770.346,617.95197 c -0.3402,-1.5491 0.539,-9.0846 1.954,-16.746 5.5522,-30.062 5.5533,-51.349 0,-75.865 -1.3606,-6.0108 -2.3128,-11.09 -2.1159,-11.287 0.7774,-0.77745 45.657,-4.5794 46.313,-3.9234 1.044,1.044 -1.35,25.052 -4.1967,42.086 -2.9044,17.38 -3.0055,19.67 -1.0364,23.478 2.1948,4.2442 7.8745,6.0759 18.809,6.0656 10.142,-0.01 18.652,-0.93441 63.23,-6.8719 16.5,-2.1977 36.525,-4.7157 44.5,-5.5957 15.734,-1.736 123.1,-15.378 126.71,-16.101 4.6989,-0.93901 8.349,-9.9497 18.322,-45.229 3.4166,-12.087 6.4938,-22.42 6.8383,-22.962 0.3445,-0.54257 2.5377,-1.306 4.8738,-1.6964 l 4.2474,-0.70992 -3.0304,6.7543 c -1.6668,3.7149 -6.5597,16.474 -10.873,28.354 -9.2333,25.43 -12.997,33.658 -20.899,45.692 -5.1024,7.7705 -6.6184,9.3224 -11.808,12.089 -8.8686,4.7269 -21.049,7.8096 -52.884,13.384 -9.35,1.6372 -19.25,3.4111 -22,3.942 -2.75,0.53087 -9.05,0.92564 -14,0.87727 -4.95,-0.0484 -11.025,0.37633 -13.5,0.94379 -2.475,0.56745 -8.775,1.3343 -14,1.7041 -5.225,0.36979 -13.775,1.5328 -19,2.5845 -5.225,1.0517 -15.125,2.1608 -22,2.4648 -6.9412,0.30687 -14.501,1.2221 -17,2.058 -2.475,0.82793 -8.775,1.8622 -14,2.2985 -30.597,2.5544 -37.896,3.3645 -41.5,4.6058 -4.7663,1.6415 -13.974,3.1629 -31.777,5.2505 -4.2776,0.50159 -8.5526,1.5857 -9.5,2.4091 -0.9474,0.82344 -3.5994,1.7816 -5.8933,2.1293 -3.9635,0.60072 -4.2015,0.49218 -4.7894,-2.1845 z"
       style="fill:#000052;fill-opacity:1"
       inkscape:connector-curvature="0" />
    <path
       id="path4222"
       d="m 475.806,603.10197 c -41.792,-0.99289 -110.68,-4.0674 -154,-6.8734 -97.911,-6.3417 -146.5,-13.805 -164.35,-21.638 -2.1948,-0.96355 -3.3409,-1.579 -3.9514,-2.1239 -10.535,-4.6413 91.023,3.7633 201.3,8.9253 122.2,5.7204 211.72,9.4822 229.23,9.6332 27.22,0.23471 28.616,0.33683 26.504,1.938 -11.123,8.4307 -58.036,11.961 -134.74,10.139 z"
       style="fill:#000052;fill-opacity:1"
       inkscape:connector-curvature="0" />
    <path
       id="path4220"
       d="m 762.966,580.56497 c -11.303,-39.115 -25.515,-58.359 -49.921,-67.598 -6.1638,-2.3332 -8.1129,-2.558 -22.742,-2.6228 -8.8,-0.039 -19.038,0.27915 -22.75,0.70697 -3.7125,0.42782 -6.75,0.39502 -6.75,-0.0729 0,-1.5595 11.611,-16.632 16.973,-22.032 6.6915,-6.7394 13.871,-11.511 21.527,-14.307 5.0017,-1.8266 8.2462,-2.2057 19.5,-2.2788 15.645,-0.10154 19.906,1.2223 26.801,8.3271 10.782,11.11 20.582,40.059 23.254,68.691 1.0839,11.616 -0.049,35.502 -1.9251,40.573 -0.4967,1.3426 -1.6671,-1.4266 -3.9674,-9.3868 z"
       style="fill:#000052;fill-opacity:1"
       inkscape:connector-curvature="0" />
    <path
       id="path4218"
       d="m 568.806,582.09777 c -4.675,-0.20624 -100.51,-4.6386 -212.98,-9.8496 -125.09,-5.7961 -213.45,-9.4746 -227.6,-9.4746 -25.683,0 -24.858,0.20934 -27.718,-7.0366 -1.0152,-2.5716 -1.1325,-4.8257 -0.45541,-8.754 1.2354,-7.1676 5.6244,-10.252 15.474,-10.873 3.7246,-0.23508 99.472,3.8576 212.77,9.0948 113.298,5.2372 218.38,9.784 233.5,10.104 56.237,1.1897 62.501,3.3204 57.948,19.714 -1.7546,6.3179 -4.5473,7.1357 -24.948,7.3053 -9.625,0.08 -21.325,-0.0233 -26,-0.22952 z"
       style="fill:#000052;fill-opacity:1"
       inkscape:connector-curvature="0" />
    <path
       id="path4216"
       d="m 818.906,575.58617 c -4.5694,-2.497 -4.6529,-3.5325 -1.7314,-21.472 3.0367,-18.647 4.5885,-32.126 4.6154,-40.09 0.01,-2.8875 0.219,-5.25 0.465,-5.25 1.0553,0 149.55,-13.992 154.3,-14.539 l 5.25,-0.60446 0,4.5376 c 0,9.2254 -5.6967,42.625 -9.9891,58.566 -1.1261,4.182 0.01,3.8398 -18.511,5.5877 -9.318,0.87948 -51.259,6.1478 -80,10.049 -29.699,4.0313 -50.644,5.2696 -54.402,3.2164 z"
       style="fill:#000052;fill-opacity:1"
       inkscape:connector-curvature="0" />
    <path
       id="path4214"
       d="m 1177.406,561.52317 c -0.2713,-1.7875 -0.721,-10.225 -0.9994,-18.75 -0.7661,-23.464 -4.8315,-55.808 -8.0492,-64.041 -0.5236,-1.3397 4.0907,-1.9117 35.358,-4.3826 19.778,-1.563 36.691,-2.5613 37.585,-2.2184 -1.019,2.8963 -2.8666,12.265 -4.6189,16.427 -2.9964,6.9712 -9.6585,26.572 -11.418,33.593 -1.9054,7.6046 -3.453,11.616 -4.3729,11.337 -6.7081,5.5994 -36.192,30.534 -42.374,31.286 -0.3393,0 -0.8388,-1.4625 -1.1101,-3.25 z"
       style="fill:#000052;fill-opacity:1"
       inkscape:connector-curvature="0" />
    <path
       id="path4212"
       d="m 624.796,556.25577 c -4.0675,-4.1966 -11.995,-7.343 -20.342,-8.0735 -11.422,-0.99958 -10.347,0.46945 -11.09,-15.152 -0.36026,-7.5662 -1.0858,-20.802 -1.6124,-29.413 -1.3047,-21.335 -1.2964,-56.133 0.0149,-62.843 1.6835,-8.6145 5.6032,-15.649 10.904,-19.57 10.484,-7.7537 57.84,-19.875 103.14,-26.4 27.316,-3.9344 78.057,-9.1726 99.211,-10.242 l 5.7108,-0.28868 0.5288,5 c 1.7237,16.298 4.8242,74.171 4.9277,91.979 l 0.1219,20.979 -23,2.2019 c -12.65,1.211 -23.739,2.2331 -24.642,2.2713 -0.9878,0.0417 -1.9142,-1.026 -2.3259,-2.6806 -1.2636,-5.0784 -8.5038,-19.494 -12.273,-24.437 -4.933,-6.4685 -12.132,-11.2 -20.949,-13.768 -6.5603,-1.9108 -8.1521,-2.0033 -18.185,-1.0572 -20.244,1.909 -29.672,6.467 -43.656,21.105 -13.185,13.802 -26.599,35.827 -38.006,62.406 -2.5966,6.05 -4.8063,11.106 -4.9103,11.235 -0.10405,0.12926 -1.7102,-1.3343 -3.5693,-3.2524 z"
       style="fill:#000052;fill-opacity:1"
       inkscape:connector-curvature="0" />
    <path
       id="path4210"
       d="m 976.816,558.78747 c 0,-0.51463 1.3869,-7.1385 3.0819,-14.72 3.2365,-14.475 6.8961,-37.348 6.9271,-43.294 0.043,-8.1787 -4.0862,-7.1236 46.307,-11.834 44.783,-4.1857 50.684,-4.6149 50.684,-3.6863 0,1.2148 -11.411,41.029 -14.117,49.255 -3.3913,10.31 -5.5924,13.696 -9.0443,13.912 -2.6279,0.16454 -76.807,10.06 -81.089,10.817 -1.5125,0.26748 -2.75,0.0653 -2.75,-0.44936 z"
       style="fill:#000052;fill-opacity:1"
       inkscape:connector-curvature="0" />
    <path
       id="path4208"
       d="m 570.176,543.69747 c 2.1513,-2.5567 2.5889,-4.0839 2.5889,-9.0352 0,-6.7398 -1.6665,-10.119 -5.7988,-11.757 -1.4857,-0.5889 -10.04,-1.5607 -19.009,-2.1595 -15.234,-1.0171 -16.518,-0.9661 -19.498,0.77434 -4.2607,2.4884 -5.6622,5.5926 -5.6798,12.581 -0.0127,5.0388 0.35723,6.1961 2.7353,8.5562 l 2.75,2.7292 -5.5,-0.33943 c -3.025,-0.18669 -79.525,-3.6897 -170,-7.7844 -90.475,-4.0947 -168.18,-7.7177 -172.68,-8.051 l -8.184,-0.60602 1.9303,-3.1657 c 1.3605,-2.2313 1.9314,-5.0059 1.934,-9.3999 0.003,-5.4761 -0.35081,-6.6314 -2.9117,-9.5 l -3.2347,-2.6274 -14.438,-0.96502 c -16.116,-1.0772 -18.523,0.20722 -20.997,4.9916 -2.1306,4.1201 -1.8456,14.017 0.48899,16.985 l 1.9037,2.4201 -4.6246,-0.53528 c -4.5762,-0.52969 -4.6334,-0.58231 -5.4644,-5.0353 -0.46192,-2.475 -1.5808,-6.075 -2.4864,-8 -0.90561,-1.925 -1.5424,-4.0241 -1.415,-4.6646 0.12736,-0.64053 -0.24521,-3.1155 -0.82793,-5.5 -0.58271,-2.3845 -1.2162,-5.4604 -1.4077,-6.8354 -0.19151,-1.375 -1.7868,-10.15 -3.545,-19.5 -2.7266,-14.499 -3.2549,-19.868 -3.5913,-36.5 -0.21694,-10.725 -0.46745,-21.075 -0.55668,-23 -0.0892,-1.925 0.35702,-4.85 0.99168,-6.5 3.7747,-9.8134 4.4212,-10.628 12.751,-16.057 4.5346,-2.9556 9.5101,-5.6765 11.057,-6.0464 1.5467,-0.3699 3.2622,-1.006 3.8122,-1.4134 3.1567,-2.3388 57.638,-17.539 58.765,-16.413 0.2136,0.2136 2.596,-0.42121 -3.9626,1.4807 -11.391,3.3033 -29.256,8.8956 -35.802,12.057 -9.3293,4.5052 -16.742,11.825 -18.319,18.089 -1.6019,6.3618 -1.4989,7.5623 0.7527,8.7673 2.1335,1.1418 406.87,14.553 410.64,13.607 1.3531,-0.3396 3.417,-2.6634 5.2496,-5.9105 4.8446,-8.5841 14.458,-13.808 41.486,-22.544 34.97,-11.303 88.612,-24.437 133.11,-32.592 10.407,-1.9071 19.362,-3.9073 19.899,-4.445 0.5963,-0.59627 6.0876,-0.75818 14.078,-0.41508 11.844,0.50853 13.65,0.35357 18.831,-1.6153 10.233,-3.8889 13.587,-10.075 16.294,-30.049 0.8571,-6.325 3.5625,-22.975 6.012,-37 7.4687,-42.763 9.0367,-62.515 5.9174,-74.54 -3.4444,-13.278 -12.402,-20.132 -28.597,-21.878 -2.9462,-0.31768 -13.457,-1.4733 -23.357,-2.568 -50.483,-5.5824 -140.29,-8.6863 -242.06,-8.3663 -72.634,0.22842 -81.051,1.5437 -97.227,15.193 -8.951,7.5531 -19.405,21.891 -32.396,44.429 -6.9453,12.05 -41.906,77.333 -46.802,87.395 -2.1005,4.3168 -3.1463,5.3553 -6.3638,6.3193 -2.1176,0.63446 -4.0758,0.92799 -4.3515,0.6523 -0.48173,-0.48174 4.9344,-9.4459 8.8438,-14.637 1.0354,-1.375 4.2727,-7.225 7.194,-13 5.9372,-11.737 13.926,-26.066 16.874,-30.265 1.0678,-1.5208 3.6525,-6.0916 5.744,-10.158 3.2981,-6.4117 7.0692,-12.971 24.393,-42.428 13.887,-23.613 25.398,-36.675 37.753,-42.84 21.463,-7.3817 51.188,-13.627 68.894,-14.825 5.775,-0.32359 13.2,-0.99756 16.5,-1.4977 116.6,-9.731 357.93,-21.919 494.46004,14.492 1.6324,0.84416 7.631,3.0623 13.33,4.9293 13.671,4.4784 25.141,10.401 30.818,15.915 26.976,39.779 50.823,96.598 79.979,136.62 l -2.7934,0.74844 c -1.5363,0.41164 -10.601,0.7626 -20.144,0.77993 l -17.35,0.0315 -14.756,-37 c -29.227,-73.284 -36.53,-87.317 -50.189,-96.438 -9.7479,-6.5094 -24.467,-10.057 -47.85504,-11.533 -13.609,-0.85887 -124.34,1.23 -131.5,2.4806 -13.759,2.4032 -19.02,5.2258 -22.543,12.093 -4.254,8.2939 -9.6836,35.369 -20.935,104.4 -3.855,23.65 -7.5241,44.925 -8.1536,47.279 -1.1322,4.2325 -1.0948,4.343 3.4499,10.195 l 4.5945,5.9164 -4.2065,0.53464 c -2.3135,0.29405 -10.731,1.017 -18.706,1.6065 -67.938,5.0222 -125.44,14.581 -168.06,27.937 -24.671,7.7307 -30.606,15.051 -32.993,40.693 -1.0948,11.763 -0.93882,17.465 2.088,76.338 0.52312,10.175 0.95521,19.062 0.9602,19.75 0.007,0.92187 -2.7706,1.25 -10.58,1.25 l -10.589,0 2.5889,-3.0767 z"
       style="fill:#000052;fill-opacity:1"
       inkscape:connector-curvature="0" />
    <path
       id="path4206"
       d="m 559.552,505.88247 c 5.0477,-2.5752 12.772,-10.993 15.462,-16.85 1.7966,-3.9122 2.1913,-6.6271 2.2183,-15.259 0.0305,-9.7309 -0.19696,-10.985 -3.1053,-17.123 -3.917,-8.2671 -8.7196,-13.65 -15.558,-17.438 -4.5631,-2.5277 -6.3507,-2.9347 -12.804,-2.9149 -5.7263,0.0176 -8.446,0.53013 -11.5,2.1673 -5.8319,3.1263 -12,9.9525 -15.189,16.809 -2.4556,5.28 -2.7842,7.14 -2.7384,15.5 0.0724,13.223 2.5197,19.271 11.397,28.165 4.9496,4.9586 7.917,7.068 11.591,8.2402 6.1051,1.9476 14.983,1.3786 20.226,-1.2962 z"
       style="fill:#000052;fill-opacity:1"
       inkscape:connector-curvature="0" />
    <path
       id="path4204"
       d="m 164.602,490.17247 c 6.1764,-3.0778 11.161,-9.1226 14.217,-17.24 1.7802,-4.7286 2.0677,-7.2872 1.7591,-15.653 -0.31843,-8.6317 -0.78985,-10.896 -3.4453,-16.547 -9.5933,-20.417 -27.536,-25.882 -40.967,-12.477 -17.177,17.144 -11.506,52.062 10.096,62.166 6.5567,3.0668 11.829,2.9952 18.34,-0.24929 z"
       style="fill:#000052;fill-opacity:1"
       inkscape:connector-curvature="0" />
    <path
       id="path4202"
       d="m 1230.202,522.87447 c 0.2693,-0.87681 1.4444,-4.7442 2.6114,-8.5942 2.5414,-8.3842 9.8691,-27.645 10.983,-28.87 0.4353,-0.47844 2.7322,0.43348 5.1041,2.0265 6.0623,4.4042 7.3994,12.233 4.9491,17.847 -4,7.7565 -11.648,17.124 -19.72,18.515 -3.7614,0.57083 -4.3443,0.43371 -3.9274,-0.92386 z"
       inkscape:connector-curvature="0" />
    <path
       id="path4200"
       d="m 821.402,477.06747 c -0.3661,-13.633 -1.735,-40.088 -3.042,-58.788 -1.3071,-18.7 -2.2408,-34.15 -2.075,-34.334 1.0424,-1.155 126.66,-11.124 144.12,-11.438 l 12.73,-0.22836 1.7615,8.5 c 2.2216,10.719 2.2296,10.376 -0.1868,7.9601 -3.4407,-3.4407 -6.8606,-4.1611 -16.46,-3.4674 -11.49,0.83031 -12.221,1.0664 -14.011,4.5286 -2.0903,4.0422 -1.8617,6.4339 0.9243,9.673 2.3639,2.7484 2.6451,2.8087 13.75,2.9478 12.638,0.15834 15.105,-0.67275 17.268,-5.8154 1.269,-3.0181 1.2718,-3.014 1.9753,2.8255 2.5469,21.141 3.7351,38.116 4.277,61.098 0.5793,24.573 0.507,26.25 -1.1319,26.25 -2.2973,0 -149.82,13.813 -155.14,14.527 l -4.092,0.54865 z"
       style="fill:#000052;fill-opacity:1"
       inkscape:connector-curvature="0" />
    <path
       id="path4198"
       d="m 987.432,459.02947 c -0.7817,-33.991 -3.1826,-58.412 -8.0016,-81.389 l -1.3924,-6.6392 11.105,-0.64984 c 24.122,-1.4116 54.699,-2.521 87.946,-3.1909 29.449,-0.59335 34.98,-0.48367 35.735,0.70855 0.4912,0.77581 0.8999,4.4266 0.9083,8.1128 l 0.015,6.7022 -2.646,-2.4522 c -2.4381,-2.2598 -3.4229,-2.4522 -12.549,-2.4522 -13.61,0 -16.744,1.8364 -16.791,9.8397 -0.028,4.7838 3.3677,6.0905 15.922,6.127 10.39,0.0302 11.647,-0.16551 13.75,-2.141 l 2.3145,-2.1743 -0.027,7.9243 c -0.015,4.3584 -0.4352,14.585 -0.9337,22.726 l -0.9064,14.802 -5.9955,6.4092 c -6.7065,7.1692 -11.465,15.12 -16.152,26.987 -1.7377,4.4 -3.2597,8.1019 -3.3822,8.2264 -0.2376,0.2414 -94.664,9.2736 -96.95,9.2736 -1.0891,0 -1.4739,-5.2274 -1.9689,-26.75 z"
       style="fill:#000052;fill-opacity:1"
       inkscape:connector-curvature="0" />
    <path
       id="path4196"
       d="m 1093.302,473.52947 c 3.4482,-11.278 12.005,-25.556 18.597,-31.032 3.0981,-2.5735 4.2648,-4.4106 4.9487,-7.7928 0.4922,-2.434 1.192,-18.746 1.555,-36.248 l 0.6601,-31.823 19.593,0.60754 c 38.399,1.1907 97.662,3.5877 101.84,4.1191 5.9652,0.75875 6.5188,2.2691 5.3759,14.667 -3.0595,24.289 -0.7949,53.615 -5.6174,77.293 -0.2421,0.89142 -63.957,6.5683 -72.786,6.4851 -1.9148,-0.018 -3.7534,-1.1343 -5.9053,-3.5851 -6.4639,-7.362 -17.286,-9.9252 -32.142,-7.6124 -9.3086,1.4492 -15.152,4.4918 -21.813,11.357 -5.2897,5.4525 -5.931,5.8139 -10.317,5.8139 -4.3875,0 -4.6345,-0.13932 -3.9891,-2.25 z"
       style="fill:#000052;fill-opacity:1"
       inkscape:connector-curvature="0" />
    <path
       id="path4194"
       d="m 344.402,412.22947 c -106.07,-3.48 -193.14,-6.6022 -193.47,-6.9381 -0.33596,-0.33596 0.0603,-1.8066 0.88068,-3.2682 5.0006,-8.9091 28.37,-17 91.736,-31.762 51.885,-12.087 81.661,-19.813 96.219,-24.967 2.6874,-0.95137 9.1322,-1.771 16,-2.0347 6.325,-0.2429 17.8,-0.89893 25.5,-1.4579 24.343,-1.767 96.589,-2.3548 136.5,-1.1105 87.208,2.7188 171.6,8.0105 204.5,12.823 l 11,1.609 -14.5,2.7299 c -42.729,8.0446 -108.49,25.127 -134.85,35.027 -18.103,6.7999 -27.973,13.335 -32.215,21.331 l -2.4313,4.583 -6.0017,-0.11857 c -3.301,-0.0652 -92.79,-2.9659 -198.86,-6.4459 z"
       style="fill:#000052;fill-opacity:1"
       inkscape:connector-curvature="0" />
    <path
       id="path4192"
       d="m 811.412,372.78047 c -2.6957,-3.4713 -4.6509,-7.0394 -4.6509,-8.4877 0,-2.3465 0.3197,-2.4992 5.25,-2.5074 2.8875,-0.005 7.725,-0.30379 10.75,-0.66445 5.0518,-0.60232 5.3882,-0.52012 4.1276,1.0087 -0.7549,0.91545 -2.5814,1.6644 -4.0589,1.6644 -4.0518,0 -6.2978,2.0988 -5.9045,5.5178 0.7076,6.1514 10.925,7.4351 11.628,1.461 0.1609,-1.3664 1.7359,-4.1998 3.5,-6.2965 l 3.2074,-3.8122 53.5,-2.3742 c 29.425,-1.3058 56.936,-2.5805 61.135,-2.8326 l 7.6345,-0.45841 6.3374,5.7391 6.3374,5.7391 -12.972,0.70453 c -22.299,1.2111 -127.95,9.7193 -137.57,11.079 -3.4215,0.4834 -3.8286,0.21297 -8.25,-5.4805 z"
       style="fill:#000052;fill-opacity:1"
       inkscape:connector-curvature="0" />
    <path
       id="path4190"
       d="m 971.262,360.38847 c -3.3,-3.034 -5.55,-5.5404 -5,-5.5697 0.55,-0.0293 29.744,-1.3744 64.877,-2.989 l 63.877,-2.9357 6.9281,6.2 6.9281,6.2 -31.805,0.6843 c -30.276,0.65141 -72.96,2.2369 -91.305,3.3915 l -8.5,0.53498 z"
       style="fill:#000052;fill-opacity:1"
       inkscape:connector-curvature="0" />
    <path
       id="path4188"
       d="m 1193.762,364.21677 c -16.225,-0.71162 -40.116,-1.596 -53.091,-1.9652 l -23.591,-0.67134 -7.1796,-6.1431 -7.1796,-6.1431 14.77,-0.59602 c 8.1237,-0.32781 19.078,-1.1962 24.342,-1.9299 8.8503,-1.2333 10.622,-1.1669 23.5,0.87939 23.996,3.4611 45.452,9.8608 66.928,16.748 l 4,1.265 -6.5,-0.0748 c -3.575,-0.0412 -19.775,-0.65707 -36,-1.3687 z"
       style="fill:#000052;fill-opacity:1"
       inkscape:connector-curvature="0" />
    <path
       style="fill:#adadff;fill-opacity:1"
       id="path4186"
       d="m 808.342,355.04407 c 0.2186,-0.9625 3.5782,-21.1 7.466,-44.75 7.1618,-43.567 12.86,-74.897 15.277,-84 l 1.3277,-5 2.2416,14.5 c 1.2328,7.975 4.8282,31.6 7.9897,52.5 l 5.7483,38 -12.6,0.59837 c -13.301,0.63166 -15.044,1.1242 -19.019,5.3731 -2.0716,2.2145 -2.5444,3.8575 -2.8496,9.9011 -0.2013,3.9853 0.093,8.9068 0.6531,10.937 l 1.0191,3.6907 -3.8258,0 c -3.1283,0 -3.7533,-0.31904 -3.4284,-1.75 z"
       inkscape:connector-curvature="0" />
    <path
       style="fill:#adadff;fill-opacity:1"
       id="path4184"
       d="m 875.225,346.65997 c -0.055,-12.602 -4.3956,-17.622 -16.714,-19.33 -3.7954,-0.52596 -4.8413,-1.0963 -5.2208,-2.847 -0.2611,-1.2041 -4.0937,-26.225 -8.5169,-55.603 -4.4232,-29.377 -8.4886,-53.951 -9.0342,-54.609 -1.6266,-1.9599 2.5232,-6.1564 7.7808,-7.8684 9.0848,-2.9582 17.942,-3.7486 48.374,-4.3169 l 30.637,-0.57205 1.1561,5.3896 c 2.8664,13.363 27.07,140.04 27.07,141.68 0,1.7138 -1.9891,1.9176 -29.75,3.0488 -16.362,0.66671 -33.35,1.4783 -37.75,1.8036 l -8,0.5914 z"
       inkscape:connector-curvature="0" />
    <path
       style="fill:#adadff;fill-opacity:1"
       id="path4182"
       d="m 751.255,347.79517 c -6.6,-0.9887 -17.896,-2.7378 -25.102,-3.8868 -7.2064,-1.1491 -19.581,-2.5274 -27.5,-3.063 -7.9186,-0.53557 -18.448,-1.4207 -23.398,-1.9669 -38.745,-4.2755 -153.74,-9.0758 -217,-9.0588 -34.333,0.009 -52.378,0.52949 -90.406,2.6064 l -12.406,0.67754 0.61355,-3.0677 c 0.60771,-3.0385 31.132,-61.483 42.169,-80.742 21.348,-37.249 34.339,-50.448 52.615,-53.461 10.381,-1.711 70.239,-3.3232 98.914,-2.6642 14.575,0.33499 49,1.0505 76.5,1.59 69.617,1.3657 101.37,3.1461 144.5,8.1018 32.945,3.7855 34.572,5.2246 34.41,30.433 -0.096,14.922 -1.2059,23.874 -7.3764,59.5 -2.1434,12.375 -4.8534,28.575 -6.0223,36 -1.1688,7.425 -2.8095,14.55 -3.6459,15.834 -3.5928,5.513 -14.788,6.4749 -36.865,3.1676 z"
       inkscape:connector-curvature="0" />
    <path
       style="fill:#adadff;fill-opacity:1"
       id="path4180"
       d="m 964.275,347.54405 c -0.2864,-1.2375 -5.5,-28.125 -11.586,-59.75 -6.0857,-31.625 -12.299,-63.858 -13.807,-71.629 l -2.742,-14.129 20.559,-0.70584 c 13.22,-0.45387 25.021,-0.29733 33.059,0.43849 13.051,1.1948 26.924,3.6255 28.306,4.9592 0.6356,0.61377 11.322,55.094 25.855,131.81 0.6506,3.4346 0.8879,6.5398 0.5273,6.9005 -0.4764,0.47637 -55.03,3.4752 -78.419,4.3108 -0.6771,0.0242 -1.4654,-0.96853 -1.7518,-2.206 z"
       inkscape:connector-curvature="0" />
    <path
       style="fill:#adadff;fill-opacity:1"
       id="path2995"
       d="m 1050.305,344.62085 c -0.6002,-1.7735 -25.547,-133.41 -25.547,-134.81 0,-1.7646 3.8756,0.74984 9.8412,6.3849 2.9668,2.8023 7.3618,8.4533 9.7668,12.558 6.1947,10.572 19.031,40.078 34.385,79.037 7.2614,18.425 13.415,34.019 13.675,34.654 0.4997,1.2214 -4.8585,1.758 -28.92,2.8961 -10.116,0.47848 -12.845,0.32891 -13.201,-0.72367 z"
       inkscape:connector-curvature="0" />
  </g>
  <g
     id="g4270"
     transform="translate(-99.627453,472.29147)">
    <path
       d="m 656.76,736.17 c -0.825,-0.19632 -6.225,-0.77895 -12,-1.2948 -12.513,-1.1176 -23.142,-4.7033 -27.947,-9.4272 -4.5858,-4.509 -10.053,-11.65 -10.053,-13.13 0,-0.68846 -0.68175,-2.6184 -1.515,-4.2886 -5.6793,-11.384 -8.8468,-26.522 -10.31,-49.27 l -0.67525,-10.5 -3,-0.34674 c -10.142,1.4393 -17.185,1.8316 -25.755,0.35357 -2.3346,-0.36696 -10.77,-2.1954 -18.745,-4.0632 -28.032,-6.5783 -58.585,-10.477 -87,-6.964 l -5.5,0.70945 -7,-6.8854 c -3.85,-3.787 -10.825,-10.357 -15.5,-14.601 l -8.5,-7.7153 24.5,0.75608 c 44.024,1.3586 111.59,0.79005 128.59,-1.082 16.989,-1.8712 27.93,-4.3666 35.064,-7.9976 5.7799,-2.9418 8.5885,-5.7794 11.051,-11.164 1.0059,-2.2 2.589,-5.1283 3.5181,-6.5073 0.92907,-1.379 4.4341,-9.254 7.7889,-17.5 3.3548,-8.246 9.6675,-22.254 14.028,-31.128 7.5158,-15.296 8.0984,-16.165 11.194,-16.697 20.285,-3.4852 41.995,-3.337 52.588,0.35892 17.133,5.9779 31.454,21.233 40.15,42.769 4.3303,10.724 11.858,35.206 12.67,41.205 1.2255,9.053 1.4734,32.114 0.4569,42.5 -2.2626,23.119 -9.1097,48.513 -16.835,62.438 -6.9855,12.591 -20.049,23.84 -30.763,26.491 -10.501,2.5976 -53.259,4.7052 -60.5,2.9821 z"
       id="path4272"
       inkscape:connector-curvature="0" />
    <path
       d="m 717.563,709.17 c 12.928,-6.4422 24.724,-27.196 30.22,-53.167 2.6601,-12.571 3.7007,-38.288 2.0533,-50.744 -3.5849,-27.106 -13.569,-47.095 -26.539,-53.134 -9.5503,-4.4472 -17.631,-2.3098 -27.112,7.1712 -15.023,15.023 -24.432,45.494 -24.422,79.092 0.005,16.283 1.9009,29.301 6.0949,41.844 3.6092,10.794 6.7109,16.332 12.831,22.909 8.2477,8.8636 17.168,10.865 26.873,6.0289 z"
       id="path4274"
       inkscape:connector-curvature="0" />
    <path
       d="m 195.933,704.6849 c -9.9036,-1.2852 -21.354,-4.4819 -27.912,-7.7922 -7.6476,-3.8605 -16.261,-13.19 -19.35,-20.96 -10.681,-19.251 -12.368,-35.794 -14.293,-56.526 0.7458,-7.9913 -3.7812,-47.636 5.0109,-47.647 3.5048,0 4.5775,0.4865 6.249,2.834 3.0772,4.3215 12.939,9.0057 25.798,12.253 24.245,6.123 67.003,10.833 151.42,16.679 l 10.601,0.73414 10.554,11.5 c 5.9517,7.4248 9.007,7.4388 8.29,14.075 0.35092,0.5678 -2.1627,0.94304 -6.229,0.92986 -8.674,0.48175 -32.786,-2.1316 -36.114,3.2488 -10.69,8.4388 -7.3744,-0.11659 -12.662,9.5576 -7.1657,16.032 -11.169,33.38 -24.047,45.06 -5.5664,4.8874 -24.835,13.794 -33.701,15.578 -8.3486,1.6797 -32.326,1.9417 -43.616,0.47654 z"
       id="path4276"
       inkscape:connector-curvature="0" />
    <path
       d="m 1079.303,665.0849 c -7.7318,-0.99216 -16.963,-3.583 -20.311,-5.7004 -7.7484,-4.9008 -13.958,-12.402 -15.306,-18.49 -0.4415,-1.9937 -1.903,-6.9999 -3.248,-11.125 -5.0376,-15.45 -7.3929,-30.324 -5.8592,-37 0.7633,-3.3226 1.2075,-3.6311 8.7641,-6.086 14.366,-4.6671 18.586,-7.5573 25.346,-17.36 7.5338,-10.924 14.146,-25.112 22.63,-48.554 15.77,-43.577 22.104,-52.424 39.431,-55.076 9.388,-1.4366 16.636,-0.8549 21.644,1.7373 6.8398,3.5403 10.517,13.719 13.85,38.338 5.0969,37.647 4.5614,76.886 -1.372,100.55 -1.1099,4.4262 -2.4783,11.293 -3.0409,15.26 -3.2281,19.731 -12.42,31.547 -28.476,37.709 -13.361,5.0289 -21.867,6.4813 -37.052,6.3264 -7.7,-0.0786 -15.35,-0.31606 -17,-0.52779 z"
       id="path4278"
       inkscape:connector-curvature="0" />
    <path
       d="m 1135.746,638.7989 c 23.208,-11.84 32.001,-82.369 15.37,-123.3 -5.5221,-13.59 -14.39,-22.733 -22.049,-22.733 -12.54,0 -23.622,17.455 -28.887,45.5 -1.4085,7.5024 -1.8774,14.621 -1.8774,28.5 0,20.848 1.6731,32.542 6.7243,47 7.7048,22.054 18.812,31.103 30.719,25.029 z"
       id="path4280"
       inkscape:connector-curvature="0" />
    <path
       d="m 428.806,638.12297 c -22.135,-2.7339 -38.805,-1.1779 -58.161,-3.6495 l -13.343,-14.594 c -7.3389,-8.0269 -13.249,-14.688 -13.134,-14.803 0.1149,-0.1149 15.493,0.51135 34.174,1.3917 l 33.965,1.6006 6.5,6.1695 c 3.575,3.3932 10.898,10.141 16.273,14.995 5.375,4.854 9.5899,9.0082 9.3664,9.2317 -0.99014,0.99013 -11.553,0.7597 -15.639,-0.34116 z"
       id="path4282"
       inkscape:connector-curvature="0" />
    <path
       d="m 1230.202,522.87447 c 0.2693,-0.87681 1.4444,-4.7442 2.6114,-8.5942 2.5414,-8.3842 9.8691,-27.645 10.983,-28.87 0.4353,-0.47844 2.7322,0.43348 5.1041,2.0265 6.0623,4.4042 7.3994,12.233 4.9491,17.847 -4,7.7565 -11.648,17.124 -19.72,18.515 -3.7614,0.57083 -4.3443,0.43371 -3.9274,-0.92386 z"
       id="path4306"
       inkscape:connector-curvature="0" />
    <g
       id="g4400"
       style="fill:#005203;fill-opacity:1">
      <path
         style="fill:#005203;fill-opacity:1"
         inkscape:connector-curvature="0"
         id="path4284"
         d="m 770.346,617.95197 c -0.3402,-1.5491 0.539,-9.0846 1.954,-16.746 5.5522,-30.062 5.5533,-51.349 0,-75.865 -1.3606,-6.0108 -2.3128,-11.09 -2.1159,-11.287 0.7774,-0.77745 45.657,-4.5794 46.313,-3.9234 1.044,1.044 -1.35,25.052 -4.1967,42.086 -2.9044,17.38 -3.0055,19.67 -1.0364,23.478 2.1948,4.2442 7.8745,6.0759 18.809,6.0656 10.142,-0.01 18.652,-0.93441 63.23,-6.8719 16.5,-2.1977 36.525,-4.7157 44.5,-5.5957 15.734,-1.736 123.1,-15.378 126.71,-16.101 4.6989,-0.93901 8.349,-9.9497 18.322,-45.229 3.4166,-12.087 6.4938,-22.42 6.8383,-22.962 0.3445,-0.54257 2.5377,-1.306 4.8738,-1.6964 l 4.2474,-0.70992 -3.0304,6.7543 c -1.6668,3.7149 -6.5597,16.474 -10.873,28.354 -9.2333,25.43 -12.997,33.658 -20.899,45.692 -5.1024,7.7705 -6.6184,9.3224 -11.808,12.089 -8.8686,4.7269 -21.049,7.8096 -52.884,13.384 -9.35,1.6372 -19.25,3.4111 -22,3.942 -2.75,0.53087 -9.05,0.92564 -14,0.87727 -4.95,-0.0484 -11.025,0.37633 -13.5,0.94379 -2.475,0.56745 -8.775,1.3343 -14,1.7041 -5.225,0.36979 -13.775,1.5328 -19,2.5845 -5.225,1.0517 -15.125,2.1608 -22,2.4648 -6.9412,0.30687 -14.501,1.2221 -17,2.058 -2.475,0.82793 -8.775,1.8622 -14,2.2985 -30.597,2.5544 -37.896,3.3645 -41.5,4.6058 -4.7663,1.6415 -13.974,3.1629 -31.777,5.2505 -4.2776,0.50159 -8.5526,1.5857 -9.5,2.4091 -0.9474,0.82344 -3.5994,1.7816 -5.8933,2.1293 -3.9635,0.60072 -4.2015,0.49218 -4.7894,-2.1845 z" />
      <path
         style="fill:#005203;fill-opacity:1"
         inkscape:connector-curvature="0"
         id="path4286"
         d="m 475.806,603.10197 c -41.792,-0.99289 -110.68,-4.0674 -154,-6.8734 -97.911,-6.3417 -146.5,-13.805 -164.35,-21.638 -2.1948,-0.96355 -3.3409,-1.579 -3.9514,-2.1239 -10.535,-4.6413 91.023,3.7633 201.3,8.9253 122.2,5.7204 211.72,9.4822 229.23,9.6332 27.22,0.23471 28.616,0.33683 26.504,1.938 -11.123,8.4307 -58.036,11.961 -134.74,10.139 z" />
      <path
         style="fill:#005203;fill-opacity:1"
         inkscape:connector-curvature="0"
         id="path4288"
         d="m 762.966,580.56497 c -11.303,-39.115 -25.515,-58.359 -49.921,-67.598 -6.1638,-2.3332 -8.1129,-2.558 -22.742,-2.6228 -8.8,-0.039 -19.038,0.27915 -22.75,0.70697 -3.7125,0.42782 -6.75,0.39502 -6.75,-0.0729 0,-1.5595 11.611,-16.632 16.973,-22.032 6.6915,-6.7394 13.871,-11.511 21.527,-14.307 5.0017,-1.8266 8.2462,-2.2057 19.5,-2.2788 15.645,-0.10154 19.906,1.2223 26.801,8.3271 10.782,11.11 20.582,40.059 23.254,68.691 1.0839,11.616 -0.049,35.502 -1.9251,40.573 -0.4967,1.3426 -1.6671,-1.4266 -3.9674,-9.3868 z" />
      <path
         style="fill:#005203;fill-opacity:1"
         inkscape:connector-curvature="0"
         id="path4290"
         d="m 568.806,582.09777 c -4.675,-0.20624 -100.51,-4.6386 -212.98,-9.8496 -125.09,-5.7961 -213.45,-9.4746 -227.6,-9.4746 -25.683,0 -24.858,0.20934 -27.718,-7.0366 -1.0152,-2.5716 -1.1325,-4.8257 -0.45541,-8.754 1.2354,-7.1676 5.6244,-10.252 15.474,-10.873 3.7246,-0.23508 99.472,3.8576 212.77,9.0948 113.298,5.2372 218.38,9.784 233.5,10.104 56.237,1.1897 62.501,3.3204 57.948,19.714 -1.7546,6.3179 -4.5473,7.1357 -24.948,7.3053 -9.625,0.08 -21.325,-0.0233 -26,-0.22952 z" />
      <path
         style="fill:#005203;fill-opacity:1"
         inkscape:connector-curvature="0"
         id="path4292"
         d="m 818.906,575.58617 c -4.5694,-2.497 -4.6529,-3.5325 -1.7314,-21.472 3.0367,-18.647 4.5885,-32.126 4.6154,-40.09 0.01,-2.8875 0.219,-5.25 0.465,-5.25 1.0553,0 149.55,-13.992 154.3,-14.539 l 5.25,-0.60446 0,4.5376 c 0,9.2254 -5.6967,42.625 -9.9891,58.566 -1.1261,4.182 0.01,3.8398 -18.511,5.5877 -9.318,0.87948 -51.259,6.1478 -80,10.049 -29.699,4.0313 -50.644,5.2696 -54.402,3.2164 z" />
      <path
         style="fill:#005203;fill-opacity:1"
         inkscape:connector-curvature="0"
         id="path4294"
         d="m 1177.406,561.52317 c -0.2713,-1.7875 -0.721,-10.225 -0.9994,-18.75 -0.7661,-23.464 -4.8315,-55.808 -8.0492,-64.041 -0.5236,-1.3397 4.0907,-1.9117 35.358,-4.3826 19.778,-1.563 36.691,-2.5613 37.585,-2.2184 -1.019,2.8963 -2.8666,12.265 -4.6189,16.427 -2.9964,6.9712 -9.6585,26.572 -11.418,33.593 -1.9054,7.6046 -3.453,11.616 -4.3729,11.337 -6.7081,5.5994 -36.192,30.534 -42.374,31.286 -0.3393,0 -0.8388,-1.4625 -1.1101,-3.25 z" />
      <path
         style="fill:#005203;fill-opacity:1"
         inkscape:connector-curvature="0"
         id="path4296"
         d="m 624.796,556.25577 c -4.0675,-4.1966 -11.995,-7.343 -20.342,-8.0735 -11.422,-0.99958 -10.347,0.46945 -11.09,-15.152 -0.36026,-7.5662 -1.0858,-20.802 -1.6124,-29.413 -1.3047,-21.335 -1.2964,-56.133 0.0149,-62.843 1.6835,-8.6145 5.6032,-15.649 10.904,-19.57 10.484,-7.7537 57.84,-19.875 103.14,-26.4 27.316,-3.9344 78.057,-9.1726 99.211,-10.242 l 5.7108,-0.28868 0.5288,5 c 1.7237,16.298 4.8242,74.171 4.9277,91.979 l 0.1219,20.979 -23,2.2019 c -12.65,1.211 -23.739,2.2331 -24.642,2.2713 -0.9878,0.0417 -1.9142,-1.026 -2.3259,-2.6806 -1.2636,-5.0784 -8.5038,-19.494 -12.273,-24.437 -4.933,-6.4685 -12.132,-11.2 -20.949,-13.768 -6.5603,-1.9108 -8.1521,-2.0033 -18.185,-1.0572 -20.244,1.909 -29.672,6.467 -43.656,21.105 -13.185,13.802 -26.599,35.827 -38.006,62.406 -2.5966,6.05 -4.8063,11.106 -4.9103,11.235 -0.10405,0.12926 -1.7102,-1.3343 -3.5693,-3.2524 z" />
      <path
         style="fill:#005203;fill-opacity:1"
         inkscape:connector-curvature="0"
         id="path4298"
         d="m 976.816,558.78747 c 0,-0.51463 1.3869,-7.1385 3.0819,-14.72 3.2365,-14.475 6.8961,-37.348 6.9271,-43.294 0.043,-8.1787 -4.0862,-7.1236 46.307,-11.834 44.783,-4.1857 50.684,-4.6149 50.684,-3.6863 0,1.2148 -11.411,41.029 -14.117,49.255 -3.3913,10.31 -5.5924,13.696 -9.0443,13.912 -2.6279,0.16454 -76.807,10.06 -81.089,10.817 -1.5125,0.26748 -2.75,0.0653 -2.75,-0.44936 z" />
      <path
         style="fill:#005203;fill-opacity:1"
         inkscape:connector-curvature="0"
         id="path4300"
         d="m 570.176,543.69747 c 2.1513,-2.5567 2.5889,-4.0839 2.5889,-9.0352 0,-6.7398 -1.6665,-10.119 -5.7988,-11.757 -1.4857,-0.5889 -10.04,-1.5607 -19.009,-2.1595 -15.234,-1.0171 -16.518,-0.9661 -19.498,0.77434 -4.2607,2.4884 -5.6622,5.5926 -5.6798,12.581 -0.0127,5.0388 0.35723,6.1961 2.7353,8.5562 l 2.75,2.7292 -5.5,-0.33943 c -3.025,-0.18669 -79.525,-3.6897 -170,-7.7844 -90.475,-4.0947 -168.18,-7.7177 -172.68,-8.051 l -8.184,-0.60602 1.9303,-3.1657 c 1.3605,-2.2313 1.9314,-5.0059 1.934,-9.3999 0.003,-5.4761 -0.35081,-6.6314 -2.9117,-9.5 l -3.2347,-2.6274 -14.438,-0.96502 c -16.116,-1.0772 -18.523,0.20722 -20.997,4.9916 -2.1306,4.1201 -1.8456,14.017 0.48899,16.985 l 1.9037,2.4201 -4.6246,-0.53528 c -4.5762,-0.52969 -4.6334,-0.58231 -5.4644,-5.0353 -0.46192,-2.475 -1.5808,-6.075 -2.4864,-8 -0.90561,-1.925 -1.5424,-4.0241 -1.415,-4.6646 0.12736,-0.64053 -0.24521,-3.1155 -0.82793,-5.5 -0.58271,-2.3845 -1.2162,-5.4604 -1.4077,-6.8354 -0.19151,-1.375 -1.7868,-10.15 -3.545,-19.5 -2.7266,-14.499 -3.2549,-19.868 -3.5913,-36.5 -0.21694,-10.725 -0.46745,-21.075 -0.55668,-23 -0.0892,-1.925 0.35702,-4.85 0.99168,-6.5 3.7747,-9.8134 4.4212,-10.628 12.751,-16.057 4.5346,-2.9556 9.5101,-5.6765 11.057,-6.0464 1.5467,-0.3699 3.2622,-1.006 3.8122,-1.4134 3.1567,-2.3388 57.638,-17.539 58.765,-16.413 0.2136,0.2136 2.596,-0.42121 -3.9626,1.4807 -11.391,3.3033 -29.256,8.8956 -35.802,12.057 -9.3293,4.5052 -16.742,11.825 -18.319,18.089 -1.6019,6.3618 -1.4989,7.5623 0.7527,8.7673 2.1335,1.1418 406.87,14.553 410.64,13.607 1.3531,-0.3396 3.417,-2.6634 5.2496,-5.9105 4.8446,-8.5841 14.458,-13.808 41.486,-22.544 34.97,-11.303 88.612,-24.437 133.11,-32.592 10.407,-1.9071 19.362,-3.9073 19.899,-4.445 0.5963,-0.59627 6.0876,-0.75818 14.078,-0.41508 11.844,0.50853 13.65,0.35357 18.831,-1.6153 10.233,-3.8889 13.587,-10.075 16.294,-30.049 0.8571,-6.325 3.5625,-22.975 6.012,-37 7.4687,-42.763 9.0367,-62.515 5.9174,-74.54 -3.4444,-13.278 -12.402,-20.132 -28.597,-21.878 -2.9462,-0.31768 -13.457,-1.4733 -23.357,-2.568 -50.483,-5.5824 -140.29,-8.6863 -242.06,-8.3663 -72.634,0.22842 -81.051,1.5437 -97.227,15.193 -8.951,7.5531 -19.405,21.891 -32.396,44.429 -6.9453,12.05 -41.906,77.333 -46.802,87.395 -2.1005,4.3168 -3.1463,5.3553 -6.3638,6.3193 -2.1176,0.63446 -4.0758,0.92799 -4.3515,0.6523 -0.48173,-0.48174 4.9344,-9.4459 8.8438,-14.637 1.0354,-1.375 4.2727,-7.225 7.194,-13 5.9372,-11.737 13.926,-26.066 16.874,-30.265 1.0678,-1.5208 3.6525,-6.0916 5.744,-10.158 3.2981,-6.4117 7.0692,-12.971 24.393,-42.428 13.887,-23.613 25.398,-36.675 37.753,-42.84 21.463,-7.3817 51.188,-13.627 68.894,-14.825 5.775,-0.32359 13.2,-0.99756 16.5,-1.4977 116.6,-9.731 357.93,-21.919 494.46004,14.492 1.6324,0.84416 7.631,3.0623 13.33,4.9293 13.671,4.4784 25.141,10.401 30.818,15.915 26.976,39.779 50.823,96.598 79.979,136.62 l -2.7934,0.74844 c -1.5363,0.41164 -10.601,0.7626 -20.144,0.77993 l -17.35,0.0315 -14.756,-37 c -29.227,-73.284 -36.53,-87.317 -50.189,-96.438 -9.7479,-6.5094 -24.467,-10.057 -47.85504,-11.533 -13.609,-0.85887 -124.34,1.23 -131.5,2.4806 -13.759,2.4032 -19.02,5.2258 -22.543,12.093 -4.254,8.2939 -9.6836,35.369 -20.935,104.4 -3.855,23.65 -7.5241,44.925 -8.1536,47.279 -1.1322,4.2325 -1.0948,4.343 3.4499,10.195 l 4.5945,5.9164 -4.2065,0.53464 c -2.3135,0.29405 -10.731,1.017 -18.706,1.6065 -67.938,5.0222 -125.44,14.581 -168.06,27.937 -24.671,7.7307 -30.606,15.051 -32.993,40.693 -1.0948,11.763 -0.93882,17.465 2.088,76.338 0.52312,10.175 0.95521,19.062 0.9602,19.75 0.007,0.92187 -2.7706,1.25 -10.58,1.25 l -10.589,0 2.5889,-3.0767 z" />
      <path
         style="fill:#005203;fill-opacity:1"
         inkscape:connector-curvature="0"
         id="path4302"
         d="m 559.552,505.88247 c 5.0477,-2.5752 12.772,-10.993 15.462,-16.85 1.7966,-3.9122 2.1913,-6.6271 2.2183,-15.259 0.0305,-9.7309 -0.19696,-10.985 -3.1053,-17.123 -3.917,-8.2671 -8.7196,-13.65 -15.558,-17.438 -4.5631,-2.5277 -6.3507,-2.9347 -12.804,-2.9149 -5.7263,0.0176 -8.446,0.53013 -11.5,2.1673 -5.8319,3.1263 -12,9.9525 -15.189,16.809 -2.4556,5.28 -2.7842,7.14 -2.7384,15.5 0.0724,13.223 2.5197,19.271 11.397,28.165 4.9496,4.9586 7.917,7.068 11.591,8.2402 6.1051,1.9476 14.983,1.3786 20.226,-1.2962 z" />
      <path
         style="fill:#005203;fill-opacity:1"
         inkscape:connector-curvature="0"
         id="path4304"
         d="m 164.602,490.17247 c 6.1764,-3.0778 11.161,-9.1226 14.217,-17.24 1.7802,-4.7286 2.0677,-7.2872 1.7591,-15.653 -0.31843,-8.6317 -0.78985,-10.896 -3.4453,-16.547 -9.5933,-20.417 -27.536,-25.882 -40.967,-12.477 -17.177,17.144 -11.506,52.062 10.096,62.166 6.5567,3.0668 11.829,2.9952 18.34,-0.24929 z" />
      <path
         style="fill:#005203;fill-opacity:1"
         inkscape:connector-curvature="0"
         id="path4308"
         d="m 821.402,477.06747 c -0.3661,-13.633 -1.735,-40.088 -3.042,-58.788 -1.3071,-18.7 -2.2408,-34.15 -2.075,-34.334 1.0424,-1.155 126.66,-11.124 144.12,-11.438 l 12.73,-0.22836 1.7615,8.5 c 2.2216,10.719 2.2296,10.376 -0.1868,7.9601 -3.4407,-3.4407 -6.8606,-4.1611 -16.46,-3.4674 -11.49,0.83031 -12.221,1.0664 -14.011,4.5286 -2.0903,4.0422 -1.8617,6.4339 0.9243,9.673 2.3639,2.7484 2.6451,2.8087 13.75,2.9478 12.638,0.15834 15.105,-0.67275 17.268,-5.8154 1.269,-3.0181 1.2718,-3.014 1.9753,2.8255 2.5469,21.141 3.7351,38.116 4.277,61.098 0.5793,24.573 0.507,26.25 -1.1319,26.25 -2.2973,0 -149.82,13.813 -155.14,14.527 l -4.092,0.54865 z" />
      <path
         style="fill:#005203;fill-opacity:1"
         inkscape:connector-curvature="0"
         id="path4310"
         d="m 987.432,459.02947 c -0.7817,-33.991 -3.1826,-58.412 -8.0016,-81.389 l -1.3924,-6.6392 11.105,-0.64984 c 24.122,-1.4116 54.699,-2.521 87.946,-3.1909 29.449,-0.59335 34.98,-0.48367 35.735,0.70855 0.4912,0.77581 0.8999,4.4266 0.9083,8.1128 l 0.015,6.7022 -2.646,-2.4522 c -2.4381,-2.2598 -3.4229,-2.4522 -12.549,-2.4522 -13.61,0 -16.744,1.8364 -16.791,9.8397 -0.028,4.7838 3.3677,6.0905 15.922,6.127 10.39,0.0302 11.647,-0.16551 13.75,-2.141 l 2.3145,-2.1743 -0.027,7.9243 c -0.015,4.3584 -0.4352,14.585 -0.9337,22.726 l -0.9064,14.802 -5.9955,6.4092 c -6.7065,7.1692 -11.465,15.12 -16.152,26.987 -1.7377,4.4 -3.2597,8.1019 -3.3822,8.2264 -0.2376,0.2414 -94.664,9.2736 -96.95,9.2736 -1.0891,0 -1.4739,-5.2274 -1.9689,-26.75 z" />
      <path
         style="fill:#005203;fill-opacity:1"
         inkscape:connector-curvature="0"
         id="path4312"
         d="m 1093.302,473.52947 c 3.4482,-11.278 12.005,-25.556 18.597,-31.032 3.0981,-2.5735 4.2648,-4.4106 4.9487,-7.7928 0.4922,-2.434 1.192,-18.746 1.555,-36.248 l 0.6601,-31.823 19.593,0.60754 c 38.399,1.1907 97.662,3.5877 101.84,4.1191 5.9652,0.75875 6.5188,2.2691 5.3759,14.667 -3.0595,24.289 -0.7949,53.615 -5.6174,77.293 -0.2421,0.89142 -63.957,6.5683 -72.786,6.4851 -1.9148,-0.018 -3.7534,-1.1343 -5.9053,-3.5851 -6.4639,-7.362 -17.286,-9.9252 -32.142,-7.6124 -9.3086,1.4492 -15.152,4.4918 -21.813,11.357 -5.2897,5.4525 -5.931,5.8139 -10.317,5.8139 -4.3875,0 -4.6345,-0.13932 -3.9891,-2.25 z" />
      <path
         style="fill:#005203;fill-opacity:1"
         inkscape:connector-curvature="0"
         id="path4314"
         d="m 344.402,412.22947 c -106.07,-3.48 -193.14,-6.6022 -193.47,-6.9381 -0.33596,-0.33596 0.0603,-1.8066 0.88068,-3.2682 5.0006,-8.9091 28.37,-17 91.736,-31.762 51.885,-12.087 81.661,-19.813 96.219,-24.967 2.6874,-0.95137 9.1322,-1.771 16,-2.0347 6.325,-0.2429 17.8,-0.89893 25.5,-1.4579 24.343,-1.767 96.589,-2.3548 136.5,-1.1105 87.208,2.7188 171.6,8.0105 204.5,12.823 l 11,1.609 -14.5,2.7299 c -42.729,8.0446 -108.49,25.127 -134.85,35.027 -18.103,6.7999 -27.973,13.335 -32.215,21.331 l -2.4313,4.583 -6.0017,-0.11857 c -3.301,-0.0652 -92.79,-2.9659 -198.86,-6.4459 z" />
      <path
         style="fill:#005203;fill-opacity:1"
         inkscape:connector-curvature="0"
         id="path4316"
         d="m 811.412,372.78047 c -2.6957,-3.4713 -4.6509,-7.0394 -4.6509,-8.4877 0,-2.3465 0.3197,-2.4992 5.25,-2.5074 2.8875,-0.005 7.725,-0.30379 10.75,-0.66445 5.0518,-0.60232 5.3882,-0.52012 4.1276,1.0087 -0.7549,0.91545 -2.5814,1.6644 -4.0589,1.6644 -4.0518,0 -6.2978,2.0988 -5.9045,5.5178 0.7076,6.1514 10.925,7.4351 11.628,1.461 0.1609,-1.3664 1.7359,-4.1998 3.5,-6.2965 l 3.2074,-3.8122 53.5,-2.3742 c 29.425,-1.3058 56.936,-2.5805 61.135,-2.8326 l 7.6345,-0.45841 6.3374,5.7391 6.3374,5.7391 -12.972,0.70453 c -22.299,1.2111 -127.95,9.7193 -137.57,11.079 -3.4215,0.4834 -3.8286,0.21297 -8.25,-5.4805 z" />
      <path
         style="fill:#005203;fill-opacity:1"
         inkscape:connector-curvature="0"
         id="path4318"
         d="m 971.262,360.38847 c -3.3,-3.034 -5.55,-5.5404 -5,-5.5697 0.55,-0.0293 29.744,-1.3744 64.877,-2.989 l 63.877,-2.9357 6.9281,6.2 6.9281,6.2 -31.805,0.6843 c -30.276,0.65141 -72.96,2.2369 -91.305,3.3915 l -8.5,0.53498 z" />
      <path
         style="fill:#005203;fill-opacity:1"
         inkscape:connector-curvature="0"
         id="path4320"
         d="m 1193.762,364.21677 c -16.225,-0.71162 -40.116,-1.596 -53.091,-1.9652 l -23.591,-0.67134 -7.1796,-6.1431 -7.1796,-6.1431 14.77,-0.59602 c 8.1237,-0.32781 19.078,-1.1962 24.342,-1.9299 8.8503,-1.2333 10.622,-1.1669 23.5,0.87939 23.996,3.4611 45.452,9.8608 66.928,16.748 l 4,1.265 -6.5,-0.0748 c -3.575,-0.0412 -19.775,-0.65707 -36,-1.3687 z" />
    </g>
    <path
       d="m 808.342,355.04407 c 0.2186,-0.9625 3.5782,-21.1 7.466,-44.75 7.1618,-43.567 12.86,-74.897 15.277,-84 l 1.3277,-5 2.2416,14.5 c 1.2328,7.975 4.8282,31.6 7.9897,52.5 l 5.7483,38 -12.6,0.59837 c -13.301,0.63166 -15.044,1.1242 -19.019,5.3731 -2.0716,2.2145 -2.5444,3.8575 -2.8496,9.9011 -0.2013,3.9853 0.093,8.9068 0.6531,10.937 l 1.0191,3.6907 -3.8258,0 c -3.1283,0 -3.7533,-0.31904 -3.4284,-1.75 z"
       id="path4322"
       style="fill:#adadff;fill-opacity:1"
       inkscape:connector-curvature="0" />
    <path
       d="m 875.225,346.65997 c -0.055,-12.602 -4.3956,-17.622 -16.714,-19.33 -3.7954,-0.52596 -4.8413,-1.0963 -5.2208,-2.847 -0.2611,-1.2041 -4.0937,-26.225 -8.5169,-55.603 -4.4232,-29.377 -8.4886,-53.951 -9.0342,-54.609 -1.6266,-1.9599 2.5232,-6.1564 7.7808,-7.8684 9.0848,-2.9582 17.942,-3.7486 48.374,-4.3169 l 30.637,-0.57205 1.1561,5.3896 c 2.8664,13.363 27.07,140.04 27.07,141.68 0,1.7138 -1.9891,1.9176 -29.75,3.0488 -16.362,0.66671 -33.35,1.4783 -37.75,1.8036 l -8,0.5914 z"
       id="path4324"
       style="fill:#adadff;fill-opacity:1"
       inkscape:connector-curvature="0" />
    <path
       d="m 751.255,347.79517 c -6.6,-0.9887 -17.896,-2.7378 -25.102,-3.8868 -7.2064,-1.1491 -19.581,-2.5274 -27.5,-3.063 -7.9186,-0.53557 -18.448,-1.4207 -23.398,-1.9669 -38.745,-4.2755 -153.74,-9.0758 -217,-9.0588 -34.333,0.009 -52.378,0.52949 -90.406,2.6064 l -12.406,0.67754 0.61355,-3.0677 c 0.60771,-3.0385 31.132,-61.483 42.169,-80.742 21.348,-37.249 34.339,-50.448 52.615,-53.461 10.381,-1.711 70.239,-3.3232 98.914,-2.6642 14.575,0.33499 49,1.0505 76.5,1.59 69.617,1.3657 101.37,3.1461 144.5,8.1018 32.945,3.7855 34.572,5.2246 34.41,30.433 -0.096,14.922 -1.2059,23.874 -7.3764,59.5 -2.1434,12.375 -4.8534,28.575 -6.0223,36 -1.1688,7.425 -2.8095,14.55 -3.6459,15.834 -3.5928,5.513 -14.788,6.4749 -36.865,3.1676 z"
       id="path4326"
       style="fill:#adadff;fill-opacity:1"
       inkscape:connector-curvature="0" />
    <path
       d="m 964.275,347.54405 c -0.2864,-1.2375 -5.5,-28.125 -11.586,-59.75 -6.0857,-31.625 -12.299,-63.858 -13.807,-71.629 l -2.742,-14.129 20.559,-0.70584 c 13.22,-0.45387 25.021,-0.29733 33.059,0.43849 13.051,1.1948 26.924,3.6255 28.306,4.9592 0.6356,0.61377 11.322,55.094 25.855,131.81 0.6506,3.4346 0.8879,6.5398 0.5273,6.9005 -0.4764,0.47637 -55.03,3.4752 -78.419,4.3108 -0.6771,0.0242 -1.4654,-0.96853 -1.7518,-2.206 z"
       id="path4328"
       style="fill:#adadff;fill-opacity:1"
       inkscape:connector-curvature="0" />
    <path
       d="m 1050.305,344.62085 c -0.6002,-1.7735 -25.547,-133.41 -25.547,-134.81 0,-1.7646 3.8756,0.74984 9.8412,6.3849 2.9668,2.8023 7.3618,8.4533 9.7668,12.558 6.1947,10.572 19.031,40.078 34.385,79.037 7.2614,18.425 13.415,34.019 13.675,34.654 0.4997,1.2214 -4.8585,1.758 -28.92,2.8961 -10.116,0.47848 -12.845,0.32891 -13.201,-0.72367 z"
       id="path4330"
       style="fill:#adadff;fill-opacity:1"
       inkscape:connector-curvature="0" />
  </g>
  <g
     transform="translate(-99.627453,1130.2173)"
     id="g4420">
    <path
       inkscape:connector-curvature="0"
       id="path4422"
       d="m 656.76,736.17 c -0.825,-0.19632 -6.225,-0.77895 -12,-1.2948 -12.513,-1.1176 -23.142,-4.7033 -27.947,-9.4272 -4.5858,-4.509 -10.053,-11.65 -10.053,-13.13 0,-0.68846 -0.68175,-2.6184 -1.515,-4.2886 -5.6793,-11.384 -8.8468,-26.522 -10.31,-49.27 l -0.67525,-10.5 -3,-0.34674 c -10.142,1.4393 -17.185,1.8316 -25.755,0.35357 -2.3346,-0.36696 -10.77,-2.1954 -18.745,-4.0632 -28.032,-6.5783 -58.585,-10.477 -87,-6.964 l -5.5,0.70945 -7,-6.8854 c -3.85,-3.787 -10.825,-10.357 -15.5,-14.601 l -8.5,-7.7153 24.5,0.75608 c 44.024,1.3586 111.59,0.79005 128.59,-1.082 16.989,-1.8712 27.93,-4.3666 35.064,-7.9976 5.7799,-2.9418 8.5885,-5.7794 11.051,-11.164 1.0059,-2.2 2.589,-5.1283 3.5181,-6.5073 0.92907,-1.379 4.4341,-9.254 7.7889,-17.5 3.3548,-8.246 9.6675,-22.254 14.028,-31.128 7.5158,-15.296 8.0984,-16.165 11.194,-16.697 20.285,-3.4852 41.995,-3.337 52.588,0.35892 17.133,5.9779 31.454,21.233 40.15,42.769 4.3303,10.724 11.858,35.206 12.67,41.205 1.2255,9.053 1.4734,32.114 0.4569,42.5 -2.2626,23.119 -9.1097,48.513 -16.835,62.438 -6.9855,12.591 -20.049,23.84 -30.763,26.491 -10.501,2.5976 -53.259,4.7052 -60.5,2.9821 z" />
    <path
       inkscape:connector-curvature="0"
       id="path4424"
       d="m 717.563,709.17 c 12.928,-6.4422 24.724,-27.196 30.22,-53.167 2.6601,-12.571 3.7007,-38.288 2.0533,-50.744 -3.5849,-27.106 -13.569,-47.095 -26.539,-53.134 -9.5503,-4.4472 -17.631,-2.3098 -27.112,7.1712 -15.023,15.023 -24.432,45.494 -24.422,79.092 0.005,16.283 1.9009,29.301 6.0949,41.844 3.6092,10.794 6.7109,16.332 12.831,22.909 8.2477,8.8636 17.168,10.865 26.873,6.0289 z" />
    <path
       inkscape:connector-curvature="0"
       id="path4426"
       d="m 195.933,704.6849 c -9.9036,-1.2852 -21.354,-4.4819 -27.912,-7.7922 -7.6476,-3.8605 -16.261,-13.19 -19.35,-20.96 -10.681,-19.251 -12.368,-35.794 -14.293,-56.526 0.7458,-7.9913 -3.7812,-47.636 5.0109,-47.647 3.5048,0 4.5775,0.4865 6.249,2.834 3.0772,4.3215 12.939,9.0057 25.798,12.253 24.245,6.123 67.003,10.833 151.42,16.679 l 10.601,0.73414 10.554,11.5 c 5.9517,7.4248 9.007,7.4388 8.29,14.075 0.35092,0.5678 -2.1627,0.94304 -6.229,0.92986 -8.674,0.48175 -32.786,-2.1316 -36.114,3.2488 -10.69,8.4388 -7.3744,-0.11659 -12.662,9.5576 -7.1657,16.032 -11.169,33.38 -24.047,45.06 -5.5664,4.8874 -24.835,13.794 -33.701,15.578 -8.3486,1.6797 -32.326,1.9417 -43.616,0.47654 z" />
    <path
       inkscape:connector-curvature="0"
       id="path4428"
       d="m 1079.303,665.0849 c -7.7318,-0.99216 -16.963,-3.583 -20.311,-5.7004 -7.7484,-4.9008 -13.958,-12.402 -15.306,-18.49 -0.4415,-1.9937 -1.903,-6.9999 -3.248,-11.125 -5.0376,-15.45 -7.3929,-30.324 -5.8592,-37 0.7633,-3.3226 1.2075,-3.6311 8.7641,-6.086 14.366,-4.6671 18.586,-7.5573 25.346,-17.36 7.5338,-10.924 14.146,-25.112 22.63,-48.554 15.77,-43.577 22.104,-52.424 39.431,-55.076 9.388,-1.4366 16.636,-0.8549 21.644,1.7373 6.8398,3.5403 10.517,13.719 13.85,38.338 5.0969,37.647 4.5614,76.886 -1.372,100.55 -1.1099,4.4262 -2.4783,11.293 -3.0409,15.26 -3.2281,19.731 -12.42,31.547 -28.476,37.709 -13.361,5.0289 -21.867,6.4813 -37.052,6.3264 -7.7,-0.0786 -15.35,-0.31606 -17,-0.52779 z" />
    <path
       inkscape:connector-curvature="0"
       id="path4430"
       d="m 1135.746,638.7989 c 23.208,-11.84 32.001,-82.369 15.37,-123.3 -5.5221,-13.59 -14.39,-22.733 -22.049,-22.733 -12.54,0 -23.622,17.455 -28.887,45.5 -1.4085,7.5024 -1.8774,14.621 -1.8774,28.5 0,20.848 1.6731,32.542 6.7243,47 7.7048,22.054 18.812,31.103 30.719,25.029 z" />
    <path
       inkscape:connector-curvature="0"
       id="path4432"
       d="m 428.806,638.12297 c -22.135,-2.7339 -38.805,-1.1779 -58.161,-3.6495 l -13.343,-14.594 c -7.3389,-8.0269 -13.249,-14.688 -13.134,-14.803 0.1149,-0.1149 15.493,0.51135 34.174,1.3917 l 33.965,1.6006 6.5,6.1695 c 3.575,3.3932 10.898,10.141 16.273,14.995 5.375,4.854 9.5899,9.0082 9.3664,9.2317 -0.99014,0.99013 -11.553,0.7597 -15.639,-0.34116 z" />
    <path
       inkscape:connector-curvature="0"
       id="path4434"
       d="m 1230.202,522.87447 c 0.2693,-0.87681 1.4444,-4.7442 2.6114,-8.5942 2.5414,-8.3842 9.8691,-27.645 10.983,-28.87 0.4353,-0.47844 2.7322,0.43348 5.1041,2.0265 6.0623,4.4042 7.3994,12.233 4.9491,17.847 -4,7.7565 -11.648,17.124 -19.72,18.515 -3.7614,0.57083 -4.3443,0.43371 -3.9274,-0.92386 z" />
    <g
       style="fill:#a90000;fill-opacity:1"
       id="g4436">
      <path
         d="m 770.346,617.95197 c -0.3402,-1.5491 0.539,-9.0846 1.954,-16.746 5.5522,-30.062 5.5533,-51.349 0,-75.865 -1.3606,-6.0108 -2.3128,-11.09 -2.1159,-11.287 0.7774,-0.77745 45.657,-4.5794 46.313,-3.9234 1.044,1.044 -1.35,25.052 -4.1967,42.086 -2.9044,17.38 -3.0055,19.67 -1.0364,23.478 2.1948,4.2442 7.8745,6.0759 18.809,6.0656 10.142,-0.01 18.652,-0.93441 63.23,-6.8719 16.5,-2.1977 36.525,-4.7157 44.5,-5.5957 15.734,-1.736 123.1,-15.378 126.71,-16.101 4.6989,-0.93901 8.349,-9.9497 18.322,-45.229 3.4166,-12.087 6.4938,-22.42 6.8383,-22.962 0.3445,-0.54257 2.5377,-1.306 4.8738,-1.6964 l 4.2474,-0.70992 -3.0304,6.7543 c -1.6668,3.7149 -6.5597,16.474 -10.873,28.354 -9.2333,25.43 -12.997,33.658 -20.899,45.692 -5.1024,7.7705 -6.6184,9.3224 -11.808,12.089 -8.8686,4.7269 -21.049,7.8096 -52.884,13.384 -9.35,1.6372 -19.25,3.4111 -22,3.942 -2.75,0.53087 -9.05,0.92564 -14,0.87727 -4.95,-0.0484 -11.025,0.37633 -13.5,0.94379 -2.475,0.56745 -8.775,1.3343 -14,1.7041 -5.225,0.36979 -13.775,1.5328 -19,2.5845 -5.225,1.0517 -15.125,2.1608 -22,2.4648 -6.9412,0.30687 -14.501,1.2221 -17,2.058 -2.475,0.82793 -8.775,1.8622 -14,2.2985 -30.597,2.5544 -37.896,3.3645 -41.5,4.6058 -4.7663,1.6415 -13.974,3.1629 -31.777,5.2505 -4.2776,0.50159 -8.5526,1.5857 -9.5,2.4091 -0.9474,0.82344 -3.5994,1.7816 -5.8933,2.1293 -3.9635,0.60072 -4.2015,0.49218 -4.7894,-2.1845 z"
         id="path4438"
         inkscape:connector-curvature="0"
         style="fill:#a90000;fill-opacity:1" />
      <path
         d="m 475.806,603.10197 c -41.792,-0.99289 -110.68,-4.0674 -154,-6.8734 -97.911,-6.3417 -146.5,-13.805 -164.35,-21.638 -2.1948,-0.96355 -3.3409,-1.579 -3.9514,-2.1239 -10.535,-4.6413 91.023,3.7633 201.3,8.9253 122.2,5.7204 211.72,9.4822 229.23,9.6332 27.22,0.23471 28.616,0.33683 26.504,1.938 -11.123,8.4307 -58.036,11.961 -134.74,10.139 z"
         id="path4440"
         inkscape:connector-curvature="0"
         style="fill:#a90000;fill-opacity:1" />
      <path
         d="m 762.966,580.56497 c -11.303,-39.115 -25.515,-58.359 -49.921,-67.598 -6.1638,-2.3332 -8.1129,-2.558 -22.742,-2.6228 -8.8,-0.039 -19.038,0.27915 -22.75,0.70697 -3.7125,0.42782 -6.75,0.39502 -6.75,-0.0729 0,-1.5595 11.611,-16.632 16.973,-22.032 6.6915,-6.7394 13.871,-11.511 21.527,-14.307 5.0017,-1.8266 8.2462,-2.2057 19.5,-2.2788 15.645,-0.10154 19.906,1.2223 26.801,8.3271 10.782,11.11 20.582,40.059 23.254,68.691 1.0839,11.616 -0.049,35.502 -1.9251,40.573 -0.4967,1.3426 -1.6671,-1.4266 -3.9674,-9.3868 z"
         id="path4442"
         inkscape:connector-curvature="0"
         style="fill:#a90000;fill-opacity:1" />
      <path
         d="m 568.806,582.09777 c -4.675,-0.20624 -100.51,-4.6386 -212.98,-9.8496 -125.09,-5.7961 -213.45,-9.4746 -227.6,-9.4746 -25.683,0 -24.858,0.20934 -27.718,-7.0366 -1.0152,-2.5716 -1.1325,-4.8257 -0.45541,-8.754 1.2354,-7.1676 5.6244,-10.252 15.474,-10.873 3.7246,-0.23508 99.472,3.8576 212.77,9.0948 113.298,5.2372 218.38,9.784 233.5,10.104 56.237,1.1897 62.501,3.3204 57.948,19.714 -1.7546,6.3179 -4.5473,7.1357 -24.948,7.3053 -9.625,0.08 -21.325,-0.0233 -26,-0.22952 z"
         id="path4444"
         inkscape:connector-curvature="0"
         style="fill:#a90000;fill-opacity:1" />
      <path
         d="m 818.906,575.58617 c -4.5694,-2.497 -4.6529,-3.5325 -1.7314,-21.472 3.0367,-18.647 4.5885,-32.126 4.6154,-40.09 0.01,-2.8875 0.219,-5.25 0.465,-5.25 1.0553,0 149.55,-13.992 154.3,-14.539 l 5.25,-0.60446 0,4.5376 c 0,9.2254 -5.6967,42.625 -9.9891,58.566 -1.1261,4.182 0.01,3.8398 -18.511,5.5877 -9.318,0.87948 -51.259,6.1478 -80,10.049 -29.699,4.0313 -50.644,5.2696 -54.402,3.2164 z"
         id="path4446"
         inkscape:connector-curvature="0"
         style="fill:#a90000;fill-opacity:1" />
      <path
         d="m 1177.406,561.52317 c -0.2713,-1.7875 -0.721,-10.225 -0.9994,-18.75 -0.7661,-23.464 -4.8315,-55.808 -8.0492,-64.041 -0.5236,-1.3397 4.0907,-1.9117 35.358,-4.3826 19.778,-1.563 36.691,-2.5613 37.585,-2.2184 -1.019,2.8963 -2.8666,12.265 -4.6189,16.427 -2.9964,6.9712 -9.6585,26.572 -11.418,33.593 -1.9054,7.6046 -3.453,11.616 -4.3729,11.337 -6.7081,5.5994 -36.192,30.534 -42.374,31.286 -0.3393,0 -0.8388,-1.4625 -1.1101,-3.25 z"
         id="path4448"
         inkscape:connector-curvature="0"
         style="fill:#a90000;fill-opacity:1" />
      <path
         d="m 624.796,556.25577 c -4.0675,-4.1966 -11.995,-7.343 -20.342,-8.0735 -11.422,-0.99958 -10.347,0.46945 -11.09,-15.152 -0.36026,-7.5662 -1.0858,-20.802 -1.6124,-29.413 -1.3047,-21.335 -1.2964,-56.133 0.0149,-62.843 1.6835,-8.6145 5.6032,-15.649 10.904,-19.57 10.484,-7.7537 57.84,-19.875 103.14,-26.4 27.316,-3.9344 78.057,-9.1726 99.211,-10.242 l 5.7108,-0.28868 0.5288,5 c 1.7237,16.298 4.8242,74.171 4.9277,91.979 l 0.1219,20.979 -23,2.2019 c -12.65,1.211 -23.739,2.2331 -24.642,2.2713 -0.9878,0.0417 -1.9142,-1.026 -2.3259,-2.6806 -1.2636,-5.0784 -8.5038,-19.494 -12.273,-24.437 -4.933,-6.4685 -12.132,-11.2 -20.949,-13.768 -6.5603,-1.9108 -8.1521,-2.0033 -18.185,-1.0572 -20.244,1.909 -29.672,6.467 -43.656,21.105 -13.185,13.802 -26.599,35.827 -38.006,62.406 -2.5966,6.05 -4.8063,11.106 -4.9103,11.235 -0.10405,0.12926 -1.7102,-1.3343 -3.5693,-3.2524 z"
         id="path4450"
         inkscape:connector-curvature="0"
         style="fill:#a90000;fill-opacity:1" />
      <path
         d="m 976.816,558.78747 c 0,-0.51463 1.3869,-7.1385 3.0819,-14.72 3.2365,-14.475 6.8961,-37.348 6.9271,-43.294 0.043,-8.1787 -4.0862,-7.1236 46.307,-11.834 44.783,-4.1857 50.684,-4.6149 50.684,-3.6863 0,1.2148 -11.411,41.029 -14.117,49.255 -3.3913,10.31 -5.5924,13.696 -9.0443,13.912 -2.6279,0.16454 -76.807,10.06 -81.089,10.817 -1.5125,0.26748 -2.75,0.0653 -2.75,-0.44936 z"
         id="path4452"
         inkscape:connector-curvature="0"
         style="fill:#a90000;fill-opacity:1" />
      <path
         d="m 570.176,543.69747 c 2.1513,-2.5567 2.5889,-4.0839 2.5889,-9.0352 0,-6.7398 -1.6665,-10.119 -5.7988,-11.757 -1.4857,-0.5889 -10.04,-1.5607 -19.009,-2.1595 -15.234,-1.0171 -16.518,-0.9661 -19.498,0.77434 -4.2607,2.4884 -5.6622,5.5926 -5.6798,12.581 -0.0127,5.0388 0.35723,6.1961 2.7353,8.5562 l 2.75,2.7292 -5.5,-0.33943 c -3.025,-0.18669 -79.525,-3.6897 -170,-7.7844 -90.475,-4.0947 -168.18,-7.7177 -172.68,-8.051 l -8.184,-0.60602 1.9303,-3.1657 c 1.3605,-2.2313 1.9314,-5.0059 1.934,-9.3999 0.003,-5.4761 -0.35081,-6.6314 -2.9117,-9.5 l -3.2347,-2.6274 -14.438,-0.96502 c -16.116,-1.0772 -18.523,0.20722 -20.997,4.9916 -2.1306,4.1201 -1.8456,14.017 0.48899,16.985 l 1.9037,2.4201 -4.6246,-0.53528 c -4.5762,-0.52969 -4.6334,-0.58231 -5.4644,-5.0353 -0.46192,-2.475 -1.5808,-6.075 -2.4864,-8 -0.90561,-1.925 -1.5424,-4.0241 -1.415,-4.6646 0.12736,-0.64053 -0.24521,-3.1155 -0.82793,-5.5 -0.58271,-2.3845 -1.2162,-5.4604 -1.4077,-6.8354 -0.19151,-1.375 -1.7868,-10.15 -3.545,-19.5 -2.7266,-14.499 -3.2549,-19.868 -3.5913,-36.5 -0.21694,-10.725 -0.46745,-21.075 -0.55668,-23 -0.0892,-1.925 0.35702,-4.85 0.99168,-6.5 3.7747,-9.8134 4.4212,-10.628 12.751,-16.057 4.5346,-2.9556 9.5101,-5.6765 11.057,-6.0464 1.5467,-0.3699 3.2622,-1.006 3.8122,-1.4134 3.1567,-2.3388 57.638,-17.539 58.765,-16.413 0.2136,0.2136 2.596,-0.42121 -3.9626,1.4807 -11.391,3.3033 -29.256,8.8956 -35.802,12.057 -9.3293,4.5052 -16.742,11.825 -18.319,18.089 -1.6019,6.3618 -1.4989,7.5623 0.7527,8.7673 2.1335,1.1418 406.87,14.553 410.64,13.607 1.3531,-0.3396 3.417,-2.6634 5.2496,-5.9105 4.8446,-8.5841 14.458,-13.808 41.486,-22.544 34.97,-11.303 88.612,-24.437 133.11,-32.592 10.407,-1.9071 19.362,-3.9073 19.899,-4.445 0.5963,-0.59627 6.0876,-0.75818 14.078,-0.41508 11.844,0.50853 13.65,0.35357 18.831,-1.6153 10.233,-3.8889 13.587,-10.075 16.294,-30.049 0.8571,-6.325 3.5625,-22.975 6.012,-37 7.4687,-42.763 9.0367,-62.515 5.9174,-74.54 -3.4444,-13.278 -12.402,-20.132 -28.597,-21.878 -2.9462,-0.31768 -13.457,-1.4733 -23.357,-2.568 -50.483,-5.5824 -140.29,-8.6863 -242.06,-8.3663 -72.634,0.22842 -81.051,1.5437 -97.227,15.193 -8.951,7.5531 -19.405,21.891 -32.396,44.429 -6.9453,12.05 -41.906,77.333 -46.802,87.395 -2.1005,4.3168 -3.1463,5.3553 -6.3638,6.3193 -2.1176,0.63446 -4.0758,0.92799 -4.3515,0.6523 -0.48173,-0.48174 4.9344,-9.4459 8.8438,-14.637 1.0354,-1.375 4.2727,-7.225 7.194,-13 5.9372,-11.737 13.926,-26.066 16.874,-30.265 1.0678,-1.5208 3.6525,-6.0916 5.744,-10.158 3.2981,-6.4117 7.0692,-12.971 24.393,-42.428 13.887,-23.613 25.398,-36.675 37.753,-42.84 21.463,-7.3817 51.188,-13.627 68.894,-14.825 5.775,-0.32359 13.2,-0.99756 16.5,-1.4977 116.6,-9.731 357.93,-21.919 494.46004,14.492 1.6324,0.84416 7.631,3.0623 13.33,4.9293 13.671,4.4784 25.141,10.401 30.818,15.915 26.976,39.779 50.823,96.598 79.979,136.62 l -2.7934,0.74844 c -1.5363,0.41164 -10.601,0.7626 -20.144,0.77993 l -17.35,0.0315 -14.756,-37 c -29.227,-73.284 -36.53,-87.317 -50.189,-96.438 -9.7479,-6.5094 -24.467,-10.057 -47.85504,-11.533 -13.609,-0.85887 -124.34,1.23 -131.5,2.4806 -13.759,2.4032 -19.02,5.2258 -22.543,12.093 -4.254,8.2939 -9.6836,35.369 -20.935,104.4 -3.855,23.65 -7.5241,44.925 -8.1536,47.279 -1.1322,4.2325 -1.0948,4.343 3.4499,10.195 l 4.5945,5.9164 -4.2065,0.53464 c -2.3135,0.29405 -10.731,1.017 -18.706,1.6065 -67.938,5.0222 -125.44,14.581 -168.06,27.937 -24.671,7.7307 -30.606,15.051 -32.993,40.693 -1.0948,11.763 -0.93882,17.465 2.088,76.338 0.52312,10.175 0.95521,19.062 0.9602,19.75 0.007,0.92187 -2.7706,1.25 -10.58,1.25 l -10.589,0 2.5889,-3.0767 z"
         id="path4454"
         inkscape:connector-curvature="0"
         style="fill:#a90000;fill-opacity:1" />
      <path
         d="m 559.552,505.88247 c 5.0477,-2.5752 12.772,-10.993 15.462,-16.85 1.7966,-3.9122 2.1913,-6.6271 2.2183,-15.259 0.0305,-9.7309 -0.19696,-10.985 -3.1053,-17.123 -3.917,-8.2671 -8.7196,-13.65 -15.558,-17.438 -4.5631,-2.5277 -6.3507,-2.9347 -12.804,-2.9149 -5.7263,0.0176 -8.446,0.53013 -11.5,2.1673 -5.8319,3.1263 -12,9.9525 -15.189,16.809 -2.4556,5.28 -2.7842,7.14 -2.7384,15.5 0.0724,13.223 2.5197,19.271 11.397,28.165 4.9496,4.9586 7.917,7.068 11.591,8.2402 6.1051,1.9476 14.983,1.3786 20.226,-1.2962 z"
         id="path4456"
         inkscape:connector-curvature="0"
         style="fill:#a90000;fill-opacity:1" />
      <path
         d="m 164.602,490.17247 c 6.1764,-3.0778 11.161,-9.1226 14.217,-17.24 1.7802,-4.7286 2.0677,-7.2872 1.7591,-15.653 -0.31843,-8.6317 -0.78985,-10.896 -3.4453,-16.547 -9.5933,-20.417 -27.536,-25.882 -40.967,-12.477 -17.177,17.144 -11.506,52.062 10.096,62.166 6.5567,3.0668 11.829,2.9952 18.34,-0.24929 z"
         id="path4458"
         inkscape:connector-curvature="0"
         style="fill:#a90000;fill-opacity:1" />
      <path
         d="m 821.402,477.06747 c -0.3661,-13.633 -1.735,-40.088 -3.042,-58.788 -1.3071,-18.7 -2.2408,-34.15 -2.075,-34.334 1.0424,-1.155 126.66,-11.124 144.12,-11.438 l 12.73,-0.22836 1.7615,8.5 c 2.2216,10.719 2.2296,10.376 -0.1868,7.9601 -3.4407,-3.4407 -6.8606,-4.1611 -16.46,-3.4674 -11.49,0.83031 -12.221,1.0664 -14.011,4.5286 -2.0903,4.0422 -1.8617,6.4339 0.9243,9.673 2.3639,2.7484 2.6451,2.8087 13.75,2.9478 12.638,0.15834 15.105,-0.67275 17.268,-5.8154 1.269,-3.0181 1.2718,-3.014 1.9753,2.8255 2.5469,21.141 3.7351,38.116 4.277,61.098 0.5793,24.573 0.507,26.25 -1.1319,26.25 -2.2973,0 -149.82,13.813 -155.14,14.527 l -4.092,0.54865 z"
         id="path4460"
         inkscape:connector-curvature="0"
         style="fill:#a90000;fill-opacity:1" />
      <path
         d="m 987.432,459.02947 c -0.7817,-33.991 -3.1826,-58.412 -8.0016,-81.389 l -1.3924,-6.6392 11.105,-0.64984 c 24.122,-1.4116 54.699,-2.521 87.946,-3.1909 29.449,-0.59335 34.98,-0.48367 35.735,0.70855 0.4912,0.77581 0.8999,4.4266 0.9083,8.1128 l 0.015,6.7022 -2.646,-2.4522 c -2.4381,-2.2598 -3.4229,-2.4522 -12.549,-2.4522 -13.61,0 -16.744,1.8364 -16.791,9.8397 -0.028,4.7838 3.3677,6.0905 15.922,6.127 10.39,0.0302 11.647,-0.16551 13.75,-2.141 l 2.3145,-2.1743 -0.027,7.9243 c -0.015,4.3584 -0.4352,14.585 -0.9337,22.726 l -0.9064,14.802 -5.9955,6.4092 c -6.7065,7.1692 -11.465,15.12 -16.152,26.987 -1.7377,4.4 -3.2597,8.1019 -3.3822,8.2264 -0.2376,0.2414 -94.664,9.2736 -96.95,9.2736 -1.0891,0 -1.4739,-5.2274 -1.9689,-26.75 z"
         id="path4462"
         inkscape:connector-curvature="0"
         style="fill:#a90000;fill-opacity:1" />
      <path
         d="m 1093.302,473.52947 c 3.4482,-11.278 12.005,-25.556 18.597,-31.032 3.0981,-2.5735 4.2648,-4.4106 4.9487,-7.7928 0.4922,-2.434 1.192,-18.746 1.555,-36.248 l 0.6601,-31.823 19.593,0.60754 c 38.399,1.1907 97.662,3.5877 101.84,4.1191 5.9652,0.75875 6.5188,2.2691 5.3759,14.667 -3.0595,24.289 -0.7949,53.615 -5.6174,77.293 -0.2421,0.89142 -63.957,6.5683 -72.786,6.4851 -1.9148,-0.018 -3.7534,-1.1343 -5.9053,-3.5851 -6.4639,-7.362 -17.286,-9.9252 -32.142,-7.6124 -9.3086,1.4492 -15.152,4.4918 -21.813,11.357 -5.2897,5.4525 -5.931,5.8139 -10.317,5.8139 -4.3875,0 -4.6345,-0.13932 -3.9891,-2.25 z"
         id="path4464"
         inkscape:connector-curvature="0"
         style="fill:#a90000;fill-opacity:1" />
      <path
         d="m 344.402,412.22947 c -106.07,-3.48 -193.14,-6.6022 -193.47,-6.9381 -0.33596,-0.33596 0.0603,-1.8066 0.88068,-3.2682 5.0006,-8.9091 28.37,-17 91.736,-31.762 51.885,-12.087 81.661,-19.813 96.219,-24.967 2.6874,-0.95137 9.1322,-1.771 16,-2.0347 6.325,-0.2429 17.8,-0.89893 25.5,-1.4579 24.343,-1.767 96.589,-2.3548 136.5,-1.1105 87.208,2.7188 171.6,8.0105 204.5,12.823 l 11,1.609 -14.5,2.7299 c -42.729,8.0446 -108.49,25.127 -134.85,35.027 -18.103,6.7999 -27.973,13.335 -32.215,21.331 l -2.4313,4.583 -6.0017,-0.11857 c -3.301,-0.0652 -92.79,-2.9659 -198.86,-6.4459 z"
         id="path4466"
         inkscape:connector-curvature="0"
         style="fill:#a90000;fill-opacity:1" />
      <path
         d="m 811.412,372.78047 c -2.6957,-3.4713 -4.6509,-7.0394 -4.6509,-8.4877 0,-2.3465 0.3197,-2.4992 5.25,-2.5074 2.8875,-0.005 7.725,-0.30379 10.75,-0.66445 5.0518,-0.60232 5.3882,-0.52012 4.1276,1.0087 -0.7549,0.91545 -2.5814,1.6644 -4.0589,1.6644 -4.0518,0 -6.2978,2.0988 -5.9045,5.5178 0.7076,6.1514 10.925,7.4351 11.628,1.461 0.1609,-1.3664 1.7359,-4.1998 3.5,-6.2965 l 3.2074,-3.8122 53.5,-2.3742 c 29.425,-1.3058 56.936,-2.5805 61.135,-2.8326 l 7.6345,-0.45841 6.3374,5.7391 6.3374,5.7391 -12.972,0.70453 c -22.299,1.2111 -127.95,9.7193 -137.57,11.079 -3.4215,0.4834 -3.8286,0.21297 -8.25,-5.4805 z"
         id="path4468"
         inkscape:connector-curvature="0"
         style="fill:#a90000;fill-opacity:1" />
      <path
         d="m 971.262,360.38847 c -3.3,-3.034 -5.55,-5.5404 -5,-5.5697 0.55,-0.0293 29.744,-1.3744 64.877,-2.989 l 63.877,-2.9357 6.9281,6.2 6.9281,6.2 -31.805,0.6843 c -30.276,0.65141 -72.96,2.2369 -91.305,3.3915 l -8.5,0.53498 z"
         id="path4470"
         inkscape:connector-curvature="0"
         style="fill:#a90000;fill-opacity:1" />
      <path
         d="m 1193.762,364.21677 c -16.225,-0.71162 -40.116,-1.596 -53.091,-1.9652 l -23.591,-0.67134 -7.1796,-6.1431 -7.1796,-6.1431 14.77,-0.59602 c 8.1237,-0.32781 19.078,-1.1962 24.342,-1.9299 8.8503,-1.2333 10.622,-1.1669 23.5,0.87939 23.996,3.4611 45.452,9.8608 66.928,16.748 l 4,1.265 -6.5,-0.0748 c -3.575,-0.0412 -19.775,-0.65707 -36,-1.3687 z"
         id="path4472"
         inkscape:connector-curvature="0"
         style="fill:#a90000;fill-opacity:1" />
    </g>
    <path
       inkscape:connector-curvature="0"
       style="fill:#adadff;fill-opacity:1"
       id="path4474"
       d="m 808.342,355.04407 c 0.2186,-0.9625 3.5782,-21.1 7.466,-44.75 7.1618,-43.567 12.86,-74.897 15.277,-84 l 1.3277,-5 2.2416,14.5 c 1.2328,7.975 4.8282,31.6 7.9897,52.5 l 5.7483,38 -12.6,0.59837 c -13.301,0.63166 -15.044,1.1242 -19.019,5.3731 -2.0716,2.2145 -2.5444,3.8575 -2.8496,9.9011 -0.2013,3.9853 0.093,8.9068 0.6531,10.937 l 1.0191,3.6907 -3.8258,0 c -3.1283,0 -3.7533,-0.31904 -3.4284,-1.75 z" />
    <path
       inkscape:connector-curvature="0"
       style="fill:#adadff;fill-opacity:1"
       id="path4476"
       d="m 875.225,346.65997 c -0.055,-12.602 -4.3956,-17.622 -16.714,-19.33 -3.7954,-0.52596 -4.8413,-1.0963 -5.2208,-2.847 -0.2611,-1.2041 -4.0937,-26.225 -8.5169,-55.603 -4.4232,-29.377 -8.4886,-53.951 -9.0342,-54.609 -1.6266,-1.9599 2.5232,-6.1564 7.7808,-7.8684 9.0848,-2.9582 17.942,-3.7486 48.374,-4.3169 l 30.637,-0.57205 1.1561,5.3896 c 2.8664,13.363 27.07,140.04 27.07,141.68 0,1.7138 -1.9891,1.9176 -29.75,3.0488 -16.362,0.66671 -33.35,1.4783 -37.75,1.8036 l -8,0.5914 z" />
    <path
       inkscape:connector-curvature="0"
       style="fill:#adadff;fill-opacity:1"
       id="path4478"
       d="m 751.255,347.79517 c -6.6,-0.9887 -17.896,-2.7378 -25.102,-3.8868 -7.2064,-1.1491 -19.581,-2.5274 -27.5,-3.063 -7.9186,-0.53557 -18.448,-1.4207 -23.398,-1.9669 -38.745,-4.2755 -153.74,-9.0758 -217,-9.0588 -34.333,0.009 -52.378,0.52949 -90.406,2.6064 l -12.406,0.67754 0.61355,-3.0677 c 0.60771,-3.0385 31.132,-61.483 42.169,-80.742 21.348,-37.249 34.339,-50.448 52.615,-53.461 10.381,-1.711 70.239,-3.3232 98.914,-2.6642 14.575,0.33499 49,1.0505 76.5,1.59 69.617,1.3657 101.37,3.1461 144.5,8.1018 32.945,3.7855 34.572,5.2246 34.41,30.433 -0.096,14.922 -1.2059,23.874 -7.3764,59.5 -2.1434,12.375 -4.8534,28.575 -6.0223,36 -1.1688,7.425 -2.8095,14.55 -3.6459,15.834 -3.5928,5.513 -14.788,6.4749 -36.865,3.1676 z" />
    <path
       inkscape:connector-curvature="0"
       style="fill:#adadff;fill-opacity:1"
       id="path4480"
       d="m 964.275,347.54405 c -0.2864,-1.2375 -5.5,-28.125 -11.586,-59.75 -6.0857,-31.625 -12.299,-63.858 -13.807,-71.629 l -2.742,-14.129 20.559,-0.70584 c 13.22,-0.45387 25.021,-0.29733 33.059,0.43849 13.051,1.1948 26.924,3.6255 28.306,4.9592 0.6356,0.61377 11.322,55.094 25.855,131.81 0.6506,3.4346 0.8879,6.5398 0.5273,6.9005 -0.4764,0.47637 -55.03,3.4752 -78.419,4.3108 -0.6771,0.0242 -1.4654,-0.96853 -1.7518,-2.206 z" />
    <path
       inkscape:connector-curvature="0"
       style="fill:#adadff;fill-opacity:1"
       id="path4482"
       d="m 1050.305,344.62085 c -0.6002,-1.7735 -25.547,-133.41 -25.547,-134.81 0,-1.7646 3.8756,0.74984 9.8412,6.3849 2.9668,2.8023 7.3618,8.4533 9.7668,12.558 6.1947,10.572 19.031,40.078 34.385,79.037 7.2614,18.425 13.415,34.019 13.675,34.654 0.4997,1.2214 -4.8585,1.758 -28.92,2.8961 -10.116,0.47848 -12.845,0.32891 -13.201,-0.72367 z" />
  </g>
  <text
     xml:space="preserve"
     style="font-style:normal;font-variant:normal;font-weight:normal;font-stretch:normal;font-size:17.5px;line-height:125%;font-family:'Calligraph421 BT';-inkscape-font-specification:'Calligraph421 BT';letter-spacing:0px;word-spacing:0px;fill:#000000;fill-opacity:1;stroke:none;stroke-width:1px;stroke-linecap:butt;stroke-linejoin:miter;stroke-opacity:1"
     x="1239.3994"
     y="336.62582"
     id="text4227"
     sodipodi:linespacing="125%"><tspan
       sodipodi:role="line"
       id="tspan4229"
       x="1239.3994"
       y="336.62582"
       style="font-style:normal;font-variant:normal;font-weight:normal;font-stretch:normal;font-size:250px;font-family:Arial;-inkscape-font-specification:Arial">a1</tspan></text>
  <text
     xml:space="preserve"
     style="font-style:normal;font-variant:normal;font-weight:normal;font-stretch:normal;font-size:17.5px;line-height:125%;font-family:'Calligraph421 BT';-inkscape-font-specification:'Calligraph421 BT';letter-spacing:0px;word-spacing:0px;fill:#000000;fill-opacity:1;stroke:none;stroke-width:1px;stroke-linecap:butt;stroke-linejoin:miter;stroke-opacity:1"
     x="1233.6917"
     y="960.28156"
     id="text4227-3"
     sodipodi:linespacing="125%"><tspan
       sodipodi:role="line"
       id="tspan4229-0"
       x="1233.6917"
       y="960.28156"
       style="font-style:normal;font-variant:normal;font-weight:normal;font-stretch:normal;font-size:250px;font-family:Arial;-inkscape-font-specification:Arial">a2</tspan></text>
  <text
     xml:space="preserve"
     style="font-style:normal;font-variant:normal;font-weight:normal;font-stretch:normal;font-size:17.5px;line-height:125%;font-family:'Calligraph421 BT';-inkscape-font-specification:'Calligraph421 BT';letter-spacing:0px;word-spacing:0px;fill:#000000;fill-opacity:1;stroke:none;stroke-width:1px;stroke-linecap:butt;stroke-linejoin:miter;stroke-opacity:1"
     x="1230.0991"
     y="1653.6267"
     id="text4227-2"
     sodipodi:linespacing="125%"><tspan
       sodipodi:role="line"
       id="tspan4229-3"
       x="1230.0991"
       y="1653.6267"
       style="font-style:normal;font-variant:normal;font-weight:normal;font-stretch:normal;font-size:250px;font-family:Arial;-inkscape-font-specification:Arial">a3</tspan></text>
</svg>
