<?xml version="1.0" encoding="UTF-8" standalone="no"?>
<!-- Created with Inkscape (http://www.inkscape.org/) -->

<svg
   xmlns:dc="http://purl.org/dc/elements/1.1/"
   xmlns:cc="http://creativecommons.org/ns#"
   xmlns:rdf="http://www.w3.org/1999/02/22-rdf-syntax-ns#"
   xmlns:svg="http://www.w3.org/2000/svg"
   xmlns="http://www.w3.org/2000/svg"
   xmlns:sodipodi="http://sodipodi.sourceforge.net/DTD/sodipodi-0.dtd"
   xmlns:inkscape="http://www.inkscape.org/namespaces/inkscape"
   width="261.6777mm"
   height="147.30006mm"
   viewBox="0 0 927.20446 521.92936"
   id="svg2"
   version="1.1"
   inkscape:version="0.91pre3 r13670"
   sodipodi:docname="59lines.svg">
  <defs
     id="defs4" />
  <sodipodi:namedview
     id="base"
     pagecolor="#ffffff"
     bordercolor="#666666"
     borderopacity="1.0"
     inkscape:pageopacity="0.0"
     inkscape:pageshadow="2"
     inkscape:zoom="0.98994949"
     inkscape:cx="172.02192"
     inkscape:cy="309.58535"
     inkscape:document-units="px"
     inkscape:current-layer="layer1"
     showgrid="false"
     fit-margin-top="0"
     fit-margin-left="0"
     fit-margin-right="0"
     fit-margin-bottom="0"
     inkscape:window-width="1920"
     inkscape:window-height="1178"
     inkscape:window-x="2792"
     inkscape:window-y="712"
     inkscape:window-maximized="1" />
  <metadata
     id="metadata7">
    <rdf:RDF>
      <cc:Work
         rdf:about="">
        <dc:format>image/svg+xml</dc:format>
        <dc:type
           rdf:resource="http://purl.org/dc/dcmitype/StillImage" />
        <dc:title></dc:title>
      </cc:Work>
    </rdf:RDF>
  </metadata>
  <g
     inkscape:label="Ebene 1"
     inkscape:groupmode="layer"
     id="layer1"
     transform="translate(25.745073,-110.04181)">
    <text
       xml:space="preserve"
       style="font-style:normal;font-variant:normal;font-weight:normal;font-stretch:normal;font-size:72px;line-height:125%;font-family:'Calligraph421 BT';-inkscape-font-specification:'Calligraph421 BT';letter-spacing:0px;word-spacing:0px;fill:#000000;fill-opacity:1;stroke:none;stroke-width:1px;stroke-linecap:butt;stroke-linejoin:miter;stroke-opacity:1"
       x="190.92374"
       y="219.35909"
       id="text3336"
       sodipodi:linespacing="125%"><tspan
         sodipodi:role="line"
         id="tspan3338"
         x="190.92374"
         y="219.35909"
         style="font-style:normal;font-variant:normal;font-weight:normal;font-stretch:normal;font-size:15px;font-family:Consolas;-inkscape-font-specification:Consolas">fill(255-x*4,x*4,x*4);</tspan><tspan
         sodipodi:role="line"
         x="190.92374"
         y="238.10909"
         id="tspan3340"
         style="font-style:normal;font-variant:normal;font-weight:normal;font-stretch:normal;font-size:15px;font-family:Consolas;-inkscape-font-specification:Consolas">rect(x*10,0,10,60);</tspan><tspan
         sodipodi:role="line"
         x="190.92374"
         y="256.85907"
         id="tspan3342"
         style="font-style:normal;font-variant:normal;font-weight:normal;font-stretch:normal;font-size:15px;font-family:Consolas;-inkscape-font-specification:Consolas">x = x + 1;</tspan></text>
    <text
       xml:space="preserve"
       style="font-style:normal;font-variant:normal;font-weight:normal;font-stretch:normal;font-size:72px;line-height:125%;font-family:'Calligraph421 BT';-inkscape-font-specification:'Calligraph421 BT';letter-spacing:0px;word-spacing:0px;fill:#000000;fill-opacity:1;stroke:none;stroke-width:1px;stroke-linecap:butt;stroke-linejoin:miter;stroke-opacity:1"
       x="285.30762"
       y="138.63438"
       id="text3336-4"
       sodipodi:linespacing="125%"><tspan
         sodipodi:role="line"
         id="tspan3338-1"
         x="285.30762"
         y="138.63438"
         style="font-style:normal;font-variant:normal;font-weight:normal;font-stretch:normal;font-size:15px;font-family:Consolas;-inkscape-font-specification:Consolas">fill(255-x*4,x*4,x*4);</tspan><tspan
         sodipodi:role="line"
         x="285.30762"
         y="157.38438"
         id="tspan3340-0"
         style="font-style:normal;font-variant:normal;font-weight:normal;font-stretch:normal;font-size:15px;font-family:Consolas;-inkscape-font-specification:Consolas">rect(x*10,0,10,60);</tspan><tspan
         sodipodi:role="line"
         x="285.30762"
         y="176.13438"
         id="tspan3342-5"
         style="font-style:normal;font-variant:normal;font-weight:normal;font-stretch:normal;font-size:15px;font-family:Consolas;-inkscape-font-specification:Consolas">x = x + 1;</tspan></text>
    <text
       xml:space="preserve"
       style="font-style:normal;font-variant:normal;font-weight:normal;font-stretch:normal;font-size:72px;line-height:125%;font-family:'Calligraph421 BT';-inkscape-font-specification:'Calligraph421 BT';letter-spacing:0px;word-spacing:0px;fill:#000000;fill-opacity:1;stroke:none;stroke-width:1px;stroke-linecap:butt;stroke-linejoin:miter;stroke-opacity:1"
       x="336.827"
       y="176.35341"
       id="text3336-0"
       sodipodi:linespacing="125%"><tspan
         sodipodi:role="line"
         id="tspan3338-9"
         x="336.827"
         y="176.35341"
         style="font-style:normal;font-variant:normal;font-weight:normal;font-stretch:normal;font-size:15px;font-family:Consolas;-inkscape-font-specification:Consolas">fill(255-x*4,x*4,x*4);</tspan><tspan
         sodipodi:role="line"
         x="336.827"
         y="195.10341"
         id="tspan3340-03"
         style="font-style:normal;font-variant:normal;font-weight:normal;font-stretch:normal;font-size:15px;font-family:Consolas;-inkscape-font-specification:Consolas">rect(x*10,0,10,60);</tspan><tspan
         sodipodi:role="line"
         x="336.827"
         y="213.85341"
         id="tspan3342-3"
         style="font-style:normal;font-variant:normal;font-weight:normal;font-stretch:normal;font-size:15px;font-family:Consolas;-inkscape-font-specification:Consolas">x = x + 1;</tspan></text>
    <text
       xml:space="preserve"
       style="font-style:normal;font-variant:normal;font-weight:normal;font-stretch:normal;font-size:72px;line-height:125%;font-family:'Calligraph421 BT';-inkscape-font-specification:'Calligraph421 BT';letter-spacing:0px;word-spacing:0px;fill:#000000;fill-opacity:1;stroke:none;stroke-width:1px;stroke-linecap:butt;stroke-linejoin:miter;stroke-opacity:1"
       x="106.40955"
       y="120.94757"
       id="text3336-8"
       sodipodi:linespacing="125%"><tspan
         sodipodi:role="line"
         id="tspan3338-8"
         x="106.40955"
         y="120.94757"
         style="font-style:normal;font-variant:normal;font-weight:normal;font-stretch:normal;font-size:15px;font-family:Consolas;-inkscape-font-specification:Consolas">fill(255-x*4,x*4,x*4);</tspan><tspan
         sodipodi:role="line"
         x="106.40955"
         y="139.69757"
         id="tspan3340-3"
         style="font-style:normal;font-variant:normal;font-weight:normal;font-stretch:normal;font-size:15px;font-family:Consolas;-inkscape-font-specification:Consolas">rect(x*10,0,10,60);</tspan><tspan
         sodipodi:role="line"
         x="106.40955"
         y="158.44757"
         id="tspan3342-8"
         style="font-style:normal;font-variant:normal;font-weight:normal;font-stretch:normal;font-size:15px;font-family:Consolas;-inkscape-font-specification:Consolas">x = x + 1;</tspan></text>
    <text
       xml:space="preserve"
       style="font-style:normal;font-variant:normal;font-weight:normal;font-stretch:normal;font-size:72px;line-height:125%;font-family:'Calligraph421 BT';-inkscape-font-specification:'Calligraph421 BT';letter-spacing:0px;word-spacing:0px;fill:#000000;fill-opacity:1;stroke:none;stroke-width:1px;stroke-linecap:butt;stroke-linejoin:miter;stroke-opacity:1"
       x="112.30037"
       y="154.78935"
       id="text3336-01"
       sodipodi:linespacing="125%"><tspan
         sodipodi:role="line"
         id="tspan3338-4"
         x="112.30037"
         y="154.78935"
         style="font-style:normal;font-variant:normal;font-weight:normal;font-stretch:normal;font-size:15px;font-family:Consolas;-inkscape-font-specification:Consolas">fill(255-x*4,x*4,x*4);</tspan><tspan
         sodipodi:role="line"
         x="112.30037"
         y="173.53935"
         id="tspan3340-5"
         style="font-style:normal;font-variant:normal;font-weight:normal;font-stretch:normal;font-size:15px;font-family:Consolas;-inkscape-font-specification:Consolas">rect(x*10,0,10,60);</tspan><tspan
         sodipodi:role="line"
         x="112.30037"
         y="192.28935"
         id="tspan3342-4"
         style="font-style:normal;font-variant:normal;font-weight:normal;font-stretch:normal;font-size:15px;font-family:Consolas;-inkscape-font-specification:Consolas">x = x + 1;</tspan></text>
    <text
       xml:space="preserve"
       style="font-style:normal;font-variant:normal;font-weight:normal;font-stretch:normal;font-size:72px;line-height:125%;font-family:'Calligraph421 BT';-inkscape-font-specification:'Calligraph421 BT';letter-spacing:0px;word-spacing:0px;fill:#000000;fill-opacity:1;stroke:none;stroke-width:1px;stroke-linecap:butt;stroke-linejoin:miter;stroke-opacity:1"
       x="39.915901"
       y="192.79182"
       id="text3336-7"
       sodipodi:linespacing="125%"><tspan
         sodipodi:role="line"
         id="tspan3338-7"
         x="39.915901"
         y="192.79182"
         style="font-style:normal;font-variant:normal;font-weight:normal;font-stretch:normal;font-size:15px;font-family:Consolas;-inkscape-font-specification:Consolas">fill(255-x*4,x*4,x*4);</tspan><tspan
         sodipodi:role="line"
         x="39.915901"
         y="211.54182"
         id="tspan3340-58"
         style="font-style:normal;font-variant:normal;font-weight:normal;font-stretch:normal;font-size:15px;font-family:Consolas;-inkscape-font-specification:Consolas">rect(x*10,0,10,60);</tspan><tspan
         sodipodi:role="line"
         x="39.915901"
         y="230.29182"
         id="tspan3342-2"
         style="font-style:normal;font-variant:normal;font-weight:normal;font-stretch:normal;font-size:15px;font-family:Consolas;-inkscape-font-specification:Consolas">x = x + 1;</tspan></text>
    <text
       xml:space="preserve"
       style="font-style:normal;font-variant:normal;font-weight:normal;font-stretch:normal;font-size:72px;line-height:125%;font-family:'Calligraph421 BT';-inkscape-font-specification:'Calligraph421 BT';letter-spacing:0px;word-spacing:0px;fill:#000000;fill-opacity:1;stroke:none;stroke-width:1px;stroke-linecap:butt;stroke-linejoin:miter;stroke-opacity:1"
       x="302.67819"
       y="227.01231"
       id="text3336-79"
       sodipodi:linespacing="125%"><tspan
         sodipodi:role="line"
         id="tspan3338-3"
         x="302.67819"
         y="227.01231"
         style="font-style:normal;font-variant:normal;font-weight:normal;font-stretch:normal;font-size:15px;font-family:Consolas;-inkscape-font-specification:Consolas">fill(255-x*4,x*4,x*4);</tspan><tspan
         sodipodi:role="line"
         x="302.67819"
         y="245.76231"
         id="tspan3340-9"
         style="font-style:normal;font-variant:normal;font-weight:normal;font-stretch:normal;font-size:15px;font-family:Consolas;-inkscape-font-specification:Consolas">rect(x*10,0,10,60);</tspan><tspan
         sodipodi:role="line"
         x="302.67819"
         y="264.51233"
         id="tspan3342-82"
         style="font-style:normal;font-variant:normal;font-weight:normal;font-stretch:normal;font-size:15px;font-family:Consolas;-inkscape-font-specification:Consolas">x = x + 1;</tspan></text>
    <text
       xml:space="preserve"
       style="font-style:normal;font-variant:normal;font-weight:normal;font-stretch:normal;font-size:72px;line-height:125%;font-family:'Calligraph421 BT';-inkscape-font-specification:'Calligraph421 BT';letter-spacing:0px;word-spacing:0px;fill:#000000;fill-opacity:1;stroke:none;stroke-width:1px;stroke-linecap:butt;stroke-linejoin:miter;stroke-opacity:1"
       x="219.59073"
       y="189.57268"
       id="text3336-2"
       sodipodi:linespacing="125%"
       inkscape:transform-center-x="-39.285714"
       inkscape:transform-center-y="17.142857"><tspan
         sodipodi:role="line"
         id="tspan3338-73"
         x="219.59073"
         y="189.57268"
         style="font-style:normal;font-variant:normal;font-weight:normal;font-stretch:normal;font-size:15px;font-family:Consolas;-inkscape-font-specification:Consolas">fill(255-x*4,x*4,x*4);</tspan><tspan
         sodipodi:role="line"
         x="219.59073"
         y="208.32268"
         id="tspan3340-6"
         style="font-style:normal;font-variant:normal;font-weight:normal;font-stretch:normal;font-size:15px;font-family:Consolas;-inkscape-font-specification:Consolas">rect(x*10,0,10,60);</tspan><tspan
         sodipodi:role="line"
         x="219.59073"
         y="227.07268"
         id="tspan3342-37"
         style="font-style:normal;font-variant:normal;font-weight:normal;font-stretch:normal;font-size:15px;font-family:Consolas;-inkscape-font-specification:Consolas">x = x + 1;</tspan></text>
    <text
       xml:space="preserve"
       style="font-style:normal;font-variant:normal;font-weight:normal;font-stretch:normal;font-size:72px;line-height:125%;font-family:'Calligraph421 BT';-inkscape-font-specification:'Calligraph421 BT';letter-spacing:0px;word-spacing:0px;fill:#000000;fill-opacity:1;stroke:none;stroke-width:1px;stroke-linecap:butt;stroke-linejoin:miter;stroke-opacity:1"
       x="75.704208"
       y="235.2766"
       id="text3336-9"
       sodipodi:linespacing="125%"><tspan
         sodipodi:role="line"
         id="tspan3338-6"
         x="75.704208"
         y="235.2766"
         style="font-style:normal;font-variant:normal;font-weight:normal;font-stretch:normal;font-size:15px;font-family:Consolas;-inkscape-font-specification:Consolas">fill(255-x*4,x*4,x*4);</tspan><tspan
         sodipodi:role="line"
         x="75.704208"
         y="254.0266"
         id="tspan3340-4"
         style="font-style:normal;font-variant:normal;font-weight:normal;font-stretch:normal;font-size:15px;font-family:Consolas;-inkscape-font-specification:Consolas">rect(x*10,0,10,60);</tspan><tspan
         sodipodi:role="line"
         x="75.704208"
         y="272.77661"
         id="tspan3342-21"
         style="font-style:normal;font-variant:normal;font-weight:normal;font-stretch:normal;font-size:15px;font-family:Consolas;-inkscape-font-specification:Consolas">x = x + 1;</tspan></text>
    <text
       xml:space="preserve"
       style="font-style:normal;font-variant:normal;font-weight:normal;font-stretch:normal;font-size:72px;line-height:125%;font-family:'Calligraph421 BT';-inkscape-font-specification:'Calligraph421 BT';letter-spacing:0px;word-spacing:0px;fill:#000000;fill-opacity:1;stroke:none;stroke-width:1px;stroke-linecap:butt;stroke-linejoin:miter;stroke-opacity:1"
       x="168.41565"
       y="269.255"
       id="text3336-96"
       sodipodi:linespacing="125%"><tspan
         sodipodi:role="line"
         id="tspan3338-72"
         x="168.41565"
         y="269.255"
         style="font-style:normal;font-variant:normal;font-weight:normal;font-stretch:normal;font-size:15px;font-family:Consolas;-inkscape-font-specification:Consolas">fill(255-x*4,x*4,x*4);</tspan><tspan
         sodipodi:role="line"
         x="168.41565"
         y="288.005"
         id="tspan3340-60"
         style="font-style:normal;font-variant:normal;font-weight:normal;font-stretch:normal;font-size:15px;font-family:Consolas;-inkscape-font-specification:Consolas">rect(x*10,0,10,60);</tspan><tspan
         sodipodi:role="line"
         x="168.41565"
         y="306.755"
         id="tspan3342-7"
         style="font-style:normal;font-variant:normal;font-weight:normal;font-stretch:normal;font-size:15px;font-family:Consolas;-inkscape-font-specification:Consolas">x = x + 1;</tspan></text>
    <text
       xml:space="preserve"
       style="font-style:normal;font-variant:normal;font-weight:normal;font-stretch:normal;font-size:72px;line-height:125%;font-family:'Calligraph421 BT';-inkscape-font-specification:'Calligraph421 BT';letter-spacing:0px;word-spacing:0px;fill:#000000;fill-opacity:1;stroke:none;stroke-width:1px;stroke-linecap:butt;stroke-linejoin:miter;stroke-opacity:1"
       x="445.97708"
       y="289.21332"
       id="text3336-26"
       sodipodi:linespacing="125%"><tspan
         sodipodi:role="line"
         id="tspan3338-2"
         x="445.97708"
         y="289.21332"
         style="font-style:normal;font-variant:normal;font-weight:normal;font-stretch:normal;font-size:15px;font-family:Consolas;-inkscape-font-specification:Consolas">fill(255-x*4,x*4,x*4);</tspan><tspan
         sodipodi:role="line"
         x="445.97708"
         y="307.96332"
         id="tspan3340-7"
         style="font-style:normal;font-variant:normal;font-weight:normal;font-stretch:normal;font-size:15px;font-family:Consolas;-inkscape-font-specification:Consolas">rect(x*10,0,10,60);</tspan><tspan
         sodipodi:role="line"
         x="445.97708"
         y="326.71332"
         id="tspan3342-81"
         style="font-style:normal;font-variant:normal;font-weight:normal;font-stretch:normal;font-size:15px;font-family:Consolas;-inkscape-font-specification:Consolas">x = x + 1;</tspan></text>
    <text
       xml:space="preserve"
       style="font-style:normal;font-variant:normal;font-weight:normal;font-stretch:normal;font-size:72px;line-height:125%;font-family:'Calligraph421 BT';-inkscape-font-specification:'Calligraph421 BT';letter-spacing:0px;word-spacing:0px;fill:#000000;fill-opacity:1;stroke:none;stroke-width:1px;stroke-linecap:butt;stroke-linejoin:miter;stroke-opacity:1"
       x="540.36096"
       y="208.4886"
       id="text3336-4-8"
       sodipodi:linespacing="125%"><tspan
         sodipodi:role="line"
         id="tspan3338-1-1"
         x="540.36096"
         y="208.4886"
         style="font-style:normal;font-variant:normal;font-weight:normal;font-stretch:normal;font-size:15px;font-family:Consolas;-inkscape-font-specification:Consolas">fill(255-x*4,x*4,x*4);</tspan><tspan
         sodipodi:role="line"
         x="540.36096"
         y="227.2386"
         id="tspan3340-0-7"
         style="font-style:normal;font-variant:normal;font-weight:normal;font-stretch:normal;font-size:15px;font-family:Consolas;-inkscape-font-specification:Consolas">rect(x*10,0,10,60);</tspan><tspan
         sodipodi:role="line"
         x="540.36096"
         y="245.9886"
         id="tspan3342-5-4"
         style="font-style:normal;font-variant:normal;font-weight:normal;font-stretch:normal;font-size:15px;font-family:Consolas;-inkscape-font-specification:Consolas">x = x + 1;</tspan></text>
    <text
       xml:space="preserve"
       style="font-style:normal;font-variant:normal;font-weight:normal;font-stretch:normal;font-size:72px;line-height:125%;font-family:'Calligraph421 BT';-inkscape-font-specification:'Calligraph421 BT';letter-spacing:0px;word-spacing:0px;fill:#000000;fill-opacity:1;stroke:none;stroke-width:1px;stroke-linecap:butt;stroke-linejoin:miter;stroke-opacity:1"
       x="591.88031"
       y="246.20763"
       id="text3336-0-2"
       sodipodi:linespacing="125%"><tspan
         sodipodi:role="line"
         id="tspan3338-9-7"
         x="591.88031"
         y="246.20763"
         style="font-style:normal;font-variant:normal;font-weight:normal;font-stretch:normal;font-size:15px;font-family:Consolas;-inkscape-font-specification:Consolas">fill(255-x*4,x*4,x*4);</tspan><tspan
         sodipodi:role="line"
         x="591.88031"
         y="264.95764"
         id="tspan3340-03-5"
         style="font-style:normal;font-variant:normal;font-weight:normal;font-stretch:normal;font-size:15px;font-family:Consolas;-inkscape-font-specification:Consolas">rect(x*10,0,10,60);</tspan><tspan
         sodipodi:role="line"
         x="591.88031"
         y="283.70764"
         id="tspan3342-3-3"
         style="font-style:normal;font-variant:normal;font-weight:normal;font-stretch:normal;font-size:15px;font-family:Consolas;-inkscape-font-specification:Consolas">x = x + 1;</tspan></text>
    <text
       xml:space="preserve"
       style="font-style:normal;font-variant:normal;font-weight:normal;font-stretch:normal;font-size:72px;line-height:125%;font-family:'Calligraph421 BT';-inkscape-font-specification:'Calligraph421 BT';letter-spacing:0px;word-spacing:0px;fill:#000000;fill-opacity:1;stroke:none;stroke-width:1px;stroke-linecap:butt;stroke-linejoin:miter;stroke-opacity:1"
       x="361.46286"
       y="190.80179"
       id="text3336-8-6"
       sodipodi:linespacing="125%"><tspan
         sodipodi:role="line"
         id="tspan3338-8-8"
         x="361.46286"
         y="190.80179"
         style="font-style:normal;font-variant:normal;font-weight:normal;font-stretch:normal;font-size:15px;font-family:Consolas;-inkscape-font-specification:Consolas">fill(255-x*4,x*4,x*4);</tspan><tspan
         sodipodi:role="line"
         x="361.46286"
         y="209.55179"
         id="tspan3340-3-9"
         style="font-style:normal;font-variant:normal;font-weight:normal;font-stretch:normal;font-size:15px;font-family:Consolas;-inkscape-font-specification:Consolas">rect(x*10,0,10,60);</tspan><tspan
         sodipodi:role="line"
         x="361.46286"
         y="228.30179"
         id="tspan3342-8-2"
         style="font-style:normal;font-variant:normal;font-weight:normal;font-stretch:normal;font-size:15px;font-family:Consolas;-inkscape-font-specification:Consolas">x = x + 1;</tspan></text>
    <text
       xml:space="preserve"
       style="font-style:normal;font-variant:normal;font-weight:normal;font-stretch:normal;font-size:72px;line-height:125%;font-family:'Calligraph421 BT';-inkscape-font-specification:'Calligraph421 BT';letter-spacing:0px;word-spacing:0px;fill:#000000;fill-opacity:1;stroke:none;stroke-width:1px;stroke-linecap:butt;stroke-linejoin:miter;stroke-opacity:1"
       x="294.96921"
       y="262.64606"
       id="text3336-7-7"
       sodipodi:linespacing="125%"><tspan
         sodipodi:role="line"
         id="tspan3338-7-7"
         x="294.96921"
         y="262.64606"
         style="font-style:normal;font-variant:normal;font-weight:normal;font-stretch:normal;font-size:15px;font-family:Consolas;-inkscape-font-specification:Consolas">fill(255-x*4,x*4,x*4);</tspan><tspan
         sodipodi:role="line"
         x="294.96921"
         y="281.39606"
         id="tspan3340-58-5"
         style="font-style:normal;font-variant:normal;font-weight:normal;font-stretch:normal;font-size:15px;font-family:Consolas;-inkscape-font-specification:Consolas">rect(x*10,0,10,60);</tspan><tspan
         sodipodi:role="line"
         x="294.96921"
         y="300.14606"
         id="tspan3342-2-9"
         style="font-style:normal;font-variant:normal;font-weight:normal;font-stretch:normal;font-size:15px;font-family:Consolas;-inkscape-font-specification:Consolas">x = x + 1;</tspan></text>
    <text
       xml:space="preserve"
       style="font-style:normal;font-variant:normal;font-weight:normal;font-stretch:normal;font-size:72px;line-height:125%;font-family:'Calligraph421 BT';-inkscape-font-specification:'Calligraph421 BT';letter-spacing:0px;word-spacing:0px;fill:#000000;fill-opacity:1;stroke:none;stroke-width:1px;stroke-linecap:butt;stroke-linejoin:miter;stroke-opacity:1"
       x="557.73151"
       y="296.86655"
       id="text3336-79-6"
       sodipodi:linespacing="125%"><tspan
         sodipodi:role="line"
         id="tspan3338-3-8"
         x="557.73151"
         y="296.86655"
         style="font-style:normal;font-variant:normal;font-weight:normal;font-stretch:normal;font-size:15px;font-family:Consolas;-inkscape-font-specification:Consolas">fill(255-x*4,x*4,x*4);</tspan><tspan
         sodipodi:role="line"
         x="557.73151"
         y="315.61655"
         id="tspan3340-9-5"
         style="font-style:normal;font-variant:normal;font-weight:normal;font-stretch:normal;font-size:15px;font-family:Consolas;-inkscape-font-specification:Consolas">rect(x*10,0,10,60);</tspan><tspan
         sodipodi:role="line"
         x="557.73151"
         y="334.36655"
         id="tspan3342-82-1"
         style="font-style:normal;font-variant:normal;font-weight:normal;font-stretch:normal;font-size:15px;font-family:Consolas;-inkscape-font-specification:Consolas">x = x + 1;</tspan></text>
    <text
       xml:space="preserve"
       style="font-style:normal;font-variant:normal;font-weight:normal;font-stretch:normal;font-size:72px;line-height:125%;font-family:'Calligraph421 BT';-inkscape-font-specification:'Calligraph421 BT';letter-spacing:0px;word-spacing:0px;fill:#000000;fill-opacity:1;stroke:none;stroke-width:1px;stroke-linecap:butt;stroke-linejoin:miter;stroke-opacity:1"
       x="474.64404"
       y="259.42691"
       id="text3336-2-3"
       sodipodi:linespacing="125%"
       inkscape:transform-center-x="-39.285714"
       inkscape:transform-center-y="17.142857"><tspan
         sodipodi:role="line"
         id="tspan3338-73-6"
         x="474.64404"
         y="259.42691"
         style="font-style:normal;font-variant:normal;font-weight:normal;font-stretch:normal;font-size:15px;font-family:Consolas;-inkscape-font-specification:Consolas">fill(255-x*4,x*4,x*4);</tspan><tspan
         sodipodi:role="line"
         x="474.64404"
         y="278.17691"
         id="tspan3340-6-1"
         style="font-style:normal;font-variant:normal;font-weight:normal;font-stretch:normal;font-size:15px;font-family:Consolas;-inkscape-font-specification:Consolas">rect(x*10,0,10,60);</tspan><tspan
         sodipodi:role="line"
         x="474.64404"
         y="296.92691"
         id="tspan3342-37-8"
         style="font-style:normal;font-variant:normal;font-weight:normal;font-stretch:normal;font-size:15px;font-family:Consolas;-inkscape-font-specification:Consolas">x = x + 1;</tspan></text>
    <text
       xml:space="preserve"
       style="font-style:normal;font-variant:normal;font-weight:normal;font-stretch:normal;font-size:72px;line-height:125%;font-family:'Calligraph421 BT';-inkscape-font-specification:'Calligraph421 BT';letter-spacing:0px;word-spacing:0px;fill:#000000;fill-opacity:1;stroke:none;stroke-width:1px;stroke-linecap:butt;stroke-linejoin:miter;stroke-opacity:1"
       x="330.75754"
       y="305.13083"
       id="text3336-9-7"
       sodipodi:linespacing="125%"><tspan
         sodipodi:role="line"
         id="tspan3338-6-8"
         x="330.75754"
         y="305.13083"
         style="font-style:normal;font-variant:normal;font-weight:normal;font-stretch:normal;font-size:15px;font-family:Consolas;-inkscape-font-specification:Consolas">fill(255-x*4,x*4,x*4);</tspan><tspan
         sodipodi:role="line"
         x="330.75754"
         y="323.88083"
         id="tspan3340-4-8"
         style="font-style:normal;font-variant:normal;font-weight:normal;font-stretch:normal;font-size:15px;font-family:Consolas;-inkscape-font-specification:Consolas">rect(x*10,0,10,60);</tspan><tspan
         sodipodi:role="line"
         x="330.75754"
         y="342.63083"
         id="tspan3342-21-5"
         style="font-style:normal;font-variant:normal;font-weight:normal;font-stretch:normal;font-size:15px;font-family:Consolas;-inkscape-font-specification:Consolas">x = x + 1;</tspan></text>
    <text
       xml:space="preserve"
       style="font-style:normal;font-variant:normal;font-weight:normal;font-stretch:normal;font-size:72px;line-height:125%;font-family:'Calligraph421 BT';-inkscape-font-specification:'Calligraph421 BT';letter-spacing:0px;word-spacing:0px;fill:#000000;fill-opacity:1;stroke:none;stroke-width:1px;stroke-linecap:butt;stroke-linejoin:miter;stroke-opacity:1"
       x="423.46896"
       y="339.10922"
       id="text3336-96-0"
       sodipodi:linespacing="125%"><tspan
         sodipodi:role="line"
         id="tspan3338-72-3"
         x="423.46896"
         y="339.10922"
         style="font-style:normal;font-variant:normal;font-weight:normal;font-stretch:normal;font-size:15px;font-family:Consolas;-inkscape-font-specification:Consolas">fill(255-x*4,x*4,x*4);</tspan><tspan
         sodipodi:role="line"
         x="423.46896"
         y="357.85922"
         id="tspan3340-60-8"
         style="font-style:normal;font-variant:normal;font-weight:normal;font-stretch:normal;font-size:15px;font-family:Consolas;-inkscape-font-specification:Consolas">rect(x*10,0,10,60);</tspan><tspan
         sodipodi:role="line"
         x="423.46896"
         y="376.60922"
         id="tspan3342-7-2"
         style="font-style:normal;font-variant:normal;font-weight:normal;font-stretch:normal;font-size:15px;font-family:Consolas;-inkscape-font-specification:Consolas">x = x + 1;</tspan></text>
    <text
       xml:space="preserve"
       style="font-style:normal;font-variant:normal;font-weight:normal;font-stretch:normal;font-size:72px;line-height:125%;font-family:'Calligraph421 BT';-inkscape-font-specification:'Calligraph421 BT';letter-spacing:0px;word-spacing:0px;fill:#000000;fill-opacity:1;stroke:none;stroke-width:1px;stroke-linecap:butt;stroke-linejoin:miter;stroke-opacity:1"
       x="125.26277"
       y="372.78473"
       id="text3336-28"
       sodipodi:linespacing="125%"><tspan
         sodipodi:role="line"
         id="tspan3338-75"
         x="125.26277"
         y="372.78473"
         style="font-style:normal;font-variant:normal;font-weight:normal;font-stretch:normal;font-size:15px;font-family:Consolas;-inkscape-font-specification:Consolas">fill(255-x*4,x*4,x*4);</tspan><tspan
         sodipodi:role="line"
         x="125.26277"
         y="391.53473"
         id="tspan3340-31"
         style="font-style:normal;font-variant:normal;font-weight:normal;font-stretch:normal;font-size:15px;font-family:Consolas;-inkscape-font-specification:Consolas">rect(x*10,0,10,60);</tspan><tspan
         sodipodi:role="line"
         x="125.26277"
         y="410.28473"
         id="tspan3342-86"
         style="font-style:normal;font-variant:normal;font-weight:normal;font-stretch:normal;font-size:15px;font-family:Consolas;-inkscape-font-specification:Consolas">x = x + 1;</tspan></text>
    <text
       xml:space="preserve"
       style="font-style:normal;font-variant:normal;font-weight:normal;font-stretch:normal;font-size:72px;line-height:125%;font-family:'Calligraph421 BT';-inkscape-font-specification:'Calligraph421 BT';letter-spacing:0px;word-spacing:0px;fill:#000000;fill-opacity:1;stroke:none;stroke-width:1px;stroke-linecap:butt;stroke-linejoin:miter;stroke-opacity:1"
       x="219.64665"
       y="292.06003"
       id="text3336-4-4"
       sodipodi:linespacing="125%"><tspan
         sodipodi:role="line"
         id="tspan3338-1-17"
         x="219.64665"
         y="292.06003"
         style="font-style:normal;font-variant:normal;font-weight:normal;font-stretch:normal;font-size:15px;font-family:Consolas;-inkscape-font-specification:Consolas">fill(255-x*4,x*4,x*4);</tspan><tspan
         sodipodi:role="line"
         x="219.64665"
         y="310.81003"
         id="tspan3340-0-1"
         style="font-style:normal;font-variant:normal;font-weight:normal;font-stretch:normal;font-size:15px;font-family:Consolas;-inkscape-font-specification:Consolas">rect(x*10,0,10,60);</tspan><tspan
         sodipodi:role="line"
         x="219.64665"
         y="329.56003"
         id="tspan3342-5-7"
         style="font-style:normal;font-variant:normal;font-weight:normal;font-stretch:normal;font-size:15px;font-family:Consolas;-inkscape-font-specification:Consolas">x = x + 1;</tspan></text>
    <text
       xml:space="preserve"
       style="font-style:normal;font-variant:normal;font-weight:normal;font-stretch:normal;font-size:72px;line-height:125%;font-family:'Calligraph421 BT';-inkscape-font-specification:'Calligraph421 BT';letter-spacing:0px;word-spacing:0px;fill:#000000;fill-opacity:1;stroke:none;stroke-width:1px;stroke-linecap:butt;stroke-linejoin:miter;stroke-opacity:1"
       x="271.16605"
       y="329.77905"
       id="text3336-0-6"
       sodipodi:linespacing="125%"><tspan
         sodipodi:role="line"
         id="tspan3338-9-9"
         x="271.16605"
         y="329.77905"
         style="font-style:normal;font-variant:normal;font-weight:normal;font-stretch:normal;font-size:15px;font-family:Consolas;-inkscape-font-specification:Consolas">fill(255-x*4,x*4,x*4);</tspan><tspan
         sodipodi:role="line"
         x="271.16605"
         y="348.52905"
         id="tspan3340-03-55"
         style="font-style:normal;font-variant:normal;font-weight:normal;font-stretch:normal;font-size:15px;font-family:Consolas;-inkscape-font-specification:Consolas">rect(x*10,0,10,60);</tspan><tspan
         sodipodi:role="line"
         x="271.16605"
         y="367.27905"
         id="tspan3342-3-8"
         style="font-style:normal;font-variant:normal;font-weight:normal;font-stretch:normal;font-size:15px;font-family:Consolas;-inkscape-font-specification:Consolas">x = x + 1;</tspan></text>
    <text
       xml:space="preserve"
       style="font-style:normal;font-variant:normal;font-weight:normal;font-stretch:normal;font-size:72px;line-height:125%;font-family:'Calligraph421 BT';-inkscape-font-specification:'Calligraph421 BT';letter-spacing:0px;word-spacing:0px;fill:#000000;fill-opacity:1;stroke:none;stroke-width:1px;stroke-linecap:butt;stroke-linejoin:miter;stroke-opacity:1"
       x="40.748577"
       y="274.3732"
       id="text3336-8-5"
       sodipodi:linespacing="125%"><tspan
         sodipodi:role="line"
         id="tspan3338-8-1"
         x="40.748577"
         y="274.3732"
         style="font-style:normal;font-variant:normal;font-weight:normal;font-stretch:normal;font-size:15px;font-family:Consolas;-inkscape-font-specification:Consolas">fill(255-x*4,x*4,x*4);</tspan><tspan
         sodipodi:role="line"
         x="40.748577"
         y="293.1232"
         id="tspan3340-3-5"
         style="font-style:normal;font-variant:normal;font-weight:normal;font-stretch:normal;font-size:15px;font-family:Consolas;-inkscape-font-specification:Consolas">rect(x*10,0,10,60);</tspan><tspan
         sodipodi:role="line"
         x="40.748577"
         y="311.8732"
         id="tspan3342-8-6"
         style="font-style:normal;font-variant:normal;font-weight:normal;font-stretch:normal;font-size:15px;font-family:Consolas;-inkscape-font-specification:Consolas">x = x + 1;</tspan></text>
    <text
       xml:space="preserve"
       style="font-style:normal;font-variant:normal;font-weight:normal;font-stretch:normal;font-size:72px;line-height:125%;font-family:'Calligraph421 BT';-inkscape-font-specification:'Calligraph421 BT';letter-spacing:0px;word-spacing:0px;fill:#000000;fill-opacity:1;stroke:none;stroke-width:1px;stroke-linecap:butt;stroke-linejoin:miter;stroke-opacity:1"
       x="46.639385"
       y="308.215"
       id="text3336-01-5"
       sodipodi:linespacing="125%"><tspan
         sodipodi:role="line"
         id="tspan3338-4-3"
         x="46.639385"
         y="308.215"
         style="font-style:normal;font-variant:normal;font-weight:normal;font-stretch:normal;font-size:15px;font-family:Consolas;-inkscape-font-specification:Consolas">fill(255-x*4,x*4,x*4);</tspan><tspan
         sodipodi:role="line"
         x="46.639385"
         y="326.965"
         id="tspan3340-5-4"
         style="font-style:normal;font-variant:normal;font-weight:normal;font-stretch:normal;font-size:15px;font-family:Consolas;-inkscape-font-specification:Consolas">rect(x*10,0,10,60);</tspan><tspan
         sodipodi:role="line"
         x="46.639385"
         y="345.715"
         id="tspan3342-4-1"
         style="font-style:normal;font-variant:normal;font-weight:normal;font-stretch:normal;font-size:15px;font-family:Consolas;-inkscape-font-specification:Consolas">x = x + 1;</tspan></text>
    <text
       xml:space="preserve"
       style="font-style:normal;font-variant:normal;font-weight:normal;font-stretch:normal;font-size:72px;line-height:125%;font-family:'Calligraph421 BT';-inkscape-font-specification:'Calligraph421 BT';letter-spacing:0px;word-spacing:0px;fill:#000000;fill-opacity:1;stroke:none;stroke-width:1px;stroke-linecap:butt;stroke-linejoin:miter;stroke-opacity:1"
       x="-25.745073"
       y="346.21747"
       id="text3336-7-4"
       sodipodi:linespacing="125%"><tspan
         sodipodi:role="line"
         id="tspan3338-7-3"
         x="-25.745073"
         y="346.21747"
         style="font-style:normal;font-variant:normal;font-weight:normal;font-stretch:normal;font-size:15px;font-family:Consolas;-inkscape-font-specification:Consolas">fill(255-x*4,x*4,x*4);</tspan><tspan
         sodipodi:role="line"
         x="-25.745073"
         y="364.96747"
         id="tspan3340-58-0"
         style="font-style:normal;font-variant:normal;font-weight:normal;font-stretch:normal;font-size:15px;font-family:Consolas;-inkscape-font-specification:Consolas">rect(x*10,0,10,60);</tspan><tspan
         sodipodi:role="line"
         x="-25.745073"
         y="383.71747"
         id="tspan3342-2-7"
         style="font-style:normal;font-variant:normal;font-weight:normal;font-stretch:normal;font-size:15px;font-family:Consolas;-inkscape-font-specification:Consolas">x = x + 1;</tspan></text>
    <text
       xml:space="preserve"
       style="font-style:normal;font-variant:normal;font-weight:normal;font-stretch:normal;font-size:72px;line-height:125%;font-family:'Calligraph421 BT';-inkscape-font-specification:'Calligraph421 BT';letter-spacing:0px;word-spacing:0px;fill:#000000;fill-opacity:1;stroke:none;stroke-width:1px;stroke-linecap:butt;stroke-linejoin:miter;stroke-opacity:1"
       x="237.01723"
       y="380.43796"
       id="text3336-79-5"
       sodipodi:linespacing="125%"><tspan
         sodipodi:role="line"
         id="tspan3338-3-5"
         x="237.01723"
         y="380.43796"
         style="font-style:normal;font-variant:normal;font-weight:normal;font-stretch:normal;font-size:15px;font-family:Consolas;-inkscape-font-specification:Consolas">fill(255-x*4,x*4,x*4);</tspan><tspan
         sodipodi:role="line"
         x="237.01723"
         y="399.18796"
         id="tspan3340-9-2"
         style="font-style:normal;font-variant:normal;font-weight:normal;font-stretch:normal;font-size:15px;font-family:Consolas;-inkscape-font-specification:Consolas">rect(x*10,0,10,60);</tspan><tspan
         sodipodi:role="line"
         x="237.01723"
         y="417.93796"
         id="tspan3342-82-5"
         style="font-style:normal;font-variant:normal;font-weight:normal;font-stretch:normal;font-size:15px;font-family:Consolas;-inkscape-font-specification:Consolas">x = x + 1;</tspan></text>
    <text
       xml:space="preserve"
       style="font-style:normal;font-variant:normal;font-weight:normal;font-stretch:normal;font-size:72px;line-height:125%;font-family:'Calligraph421 BT';-inkscape-font-specification:'Calligraph421 BT';letter-spacing:0px;word-spacing:0px;fill:#000000;fill-opacity:1;stroke:none;stroke-width:1px;stroke-linecap:butt;stroke-linejoin:miter;stroke-opacity:1"
       x="153.92976"
       y="342.99832"
       id="text3336-2-0"
       sodipodi:linespacing="125%"
       inkscape:transform-center-x="-39.285714"
       inkscape:transform-center-y="17.142857"><tspan
         sodipodi:role="line"
         id="tspan3338-73-8"
         x="153.92976"
         y="342.99832"
         style="font-style:normal;font-variant:normal;font-weight:normal;font-stretch:normal;font-size:15px;font-family:Consolas;-inkscape-font-specification:Consolas">fill(255-x*4,x*4,x*4);</tspan><tspan
         sodipodi:role="line"
         x="153.92976"
         y="361.74832"
         id="tspan3340-6-3"
         style="font-style:normal;font-variant:normal;font-weight:normal;font-stretch:normal;font-size:15px;font-family:Consolas;-inkscape-font-specification:Consolas">rect(x*10,0,10,60);</tspan><tspan
         sodipodi:role="line"
         x="153.92976"
         y="380.49832"
         id="tspan3342-37-6"
         style="font-style:normal;font-variant:normal;font-weight:normal;font-stretch:normal;font-size:15px;font-family:Consolas;-inkscape-font-specification:Consolas">x = x + 1;</tspan></text>
    <text
       xml:space="preserve"
       style="font-style:normal;font-variant:normal;font-weight:normal;font-stretch:normal;font-size:72px;line-height:125%;font-family:'Calligraph421 BT';-inkscape-font-specification:'Calligraph421 BT';letter-spacing:0px;word-spacing:0px;fill:#000000;fill-opacity:1;stroke:none;stroke-width:1px;stroke-linecap:butt;stroke-linejoin:miter;stroke-opacity:1"
       x="10.043225"
       y="388.70224"
       id="text3336-9-9"
       sodipodi:linespacing="125%"><tspan
         sodipodi:role="line"
         id="tspan3338-6-9"
         x="10.043225"
         y="388.70224"
         style="font-style:normal;font-variant:normal;font-weight:normal;font-stretch:normal;font-size:15px;font-family:Consolas;-inkscape-font-specification:Consolas">fill(255-x*4,x*4,x*4);</tspan><tspan
         sodipodi:role="line"
         x="10.043225"
         y="407.45224"
         id="tspan3340-4-0"
         style="font-style:normal;font-variant:normal;font-weight:normal;font-stretch:normal;font-size:15px;font-family:Consolas;-inkscape-font-specification:Consolas">rect(x*10,0,10,60);</tspan><tspan
         sodipodi:role="line"
         x="10.043225"
         y="426.20224"
         id="tspan3342-21-9"
         style="font-style:normal;font-variant:normal;font-weight:normal;font-stretch:normal;font-size:15px;font-family:Consolas;-inkscape-font-specification:Consolas">x = x + 1;</tspan></text>
    <text
       xml:space="preserve"
       style="font-style:normal;font-variant:normal;font-weight:normal;font-stretch:normal;font-size:72px;line-height:125%;font-family:'Calligraph421 BT';-inkscape-font-specification:'Calligraph421 BT';letter-spacing:0px;word-spacing:0px;fill:#000000;fill-opacity:1;stroke:none;stroke-width:1px;stroke-linecap:butt;stroke-linejoin:miter;stroke-opacity:1"
       x="102.75468"
       y="422.68063"
       id="text3336-96-1"
       sodipodi:linespacing="125%"><tspan
         sodipodi:role="line"
         id="tspan3338-72-39"
         x="102.75468"
         y="422.68063"
         style="font-style:normal;font-variant:normal;font-weight:normal;font-stretch:normal;font-size:15px;font-family:Consolas;-inkscape-font-specification:Consolas">fill(255-x*4,x*4,x*4);</tspan><tspan
         sodipodi:role="line"
         x="102.75468"
         y="441.43063"
         id="tspan3340-60-4"
         style="font-style:normal;font-variant:normal;font-weight:normal;font-stretch:normal;font-size:15px;font-family:Consolas;-inkscape-font-specification:Consolas">rect(x*10,0,10,60);</tspan><tspan
         sodipodi:role="line"
         x="102.75468"
         y="460.18063"
         id="tspan3342-7-1"
         style="font-style:normal;font-variant:normal;font-weight:normal;font-stretch:normal;font-size:15px;font-family:Consolas;-inkscape-font-specification:Consolas">x = x + 1;</tspan></text>
    <text
       xml:space="preserve"
       style="font-style:normal;font-variant:normal;font-weight:normal;font-stretch:normal;font-size:72px;line-height:125%;font-family:'Calligraph421 BT';-inkscape-font-specification:'Calligraph421 BT';letter-spacing:0px;word-spacing:0px;fill:#000000;fill-opacity:1;stroke:none;stroke-width:1px;stroke-linecap:butt;stroke-linejoin:miter;stroke-opacity:1"
       x="503.8342"
       y="417.78473"
       id="text3336-3"
       sodipodi:linespacing="125%"><tspan
         sodipodi:role="line"
         id="tspan3338-76"
         x="503.8342"
         y="417.78473"
         style="font-style:normal;font-variant:normal;font-weight:normal;font-stretch:normal;font-size:15px;font-family:Consolas;-inkscape-font-specification:Consolas">fill(255-x*4,x*4,x*4);</tspan><tspan
         sodipodi:role="line"
         x="503.8342"
         y="436.53473"
         id="tspan3340-8"
         style="font-style:normal;font-variant:normal;font-weight:normal;font-stretch:normal;font-size:15px;font-family:Consolas;-inkscape-font-specification:Consolas">rect(x*10,0,10,60);</tspan><tspan
         sodipodi:role="line"
         x="503.8342"
         y="455.28473"
         id="tspan3342-0"
         style="font-style:normal;font-variant:normal;font-weight:normal;font-stretch:normal;font-size:15px;font-family:Consolas;-inkscape-font-specification:Consolas">x = x + 1;</tspan></text>
    <text
       xml:space="preserve"
       style="font-style:normal;font-variant:normal;font-weight:normal;font-stretch:normal;font-size:72px;line-height:125%;font-family:'Calligraph421 BT';-inkscape-font-specification:'Calligraph421 BT';letter-spacing:0px;word-spacing:0px;fill:#000000;fill-opacity:1;stroke:none;stroke-width:1px;stroke-linecap:butt;stroke-linejoin:miter;stroke-opacity:1"
       x="598.21808"
       y="337.06003"
       id="text3336-4-5"
       sodipodi:linespacing="125%"><tspan
         sodipodi:role="line"
         id="tspan3338-1-3"
         x="598.21808"
         y="337.06003"
         style="font-style:normal;font-variant:normal;font-weight:normal;font-stretch:normal;font-size:15px;font-family:Consolas;-inkscape-font-specification:Consolas">fill(255-x*4,x*4,x*4);</tspan><tspan
         sodipodi:role="line"
         x="598.21808"
         y="355.81003"
         id="tspan3340-0-0"
         style="font-style:normal;font-variant:normal;font-weight:normal;font-stretch:normal;font-size:15px;font-family:Consolas;-inkscape-font-specification:Consolas">rect(x*10,0,10,60);</tspan><tspan
         sodipodi:role="line"
         x="598.21808"
         y="374.56003"
         id="tspan3342-5-1"
         style="font-style:normal;font-variant:normal;font-weight:normal;font-stretch:normal;font-size:15px;font-family:Consolas;-inkscape-font-specification:Consolas">x = x + 1;</tspan></text>
    <text
       xml:space="preserve"
       style="font-style:normal;font-variant:normal;font-weight:normal;font-stretch:normal;font-size:72px;line-height:125%;font-family:'Calligraph421 BT';-inkscape-font-specification:'Calligraph421 BT';letter-spacing:0px;word-spacing:0px;fill:#000000;fill-opacity:1;stroke:none;stroke-width:1px;stroke-linecap:butt;stroke-linejoin:miter;stroke-opacity:1"
       x="649.73749"
       y="374.77905"
       id="text3336-0-1"
       sodipodi:linespacing="125%"><tspan
         sodipodi:role="line"
         id="tspan3338-9-5"
         x="649.73749"
         y="374.77905"
         style="font-style:normal;font-variant:normal;font-weight:normal;font-stretch:normal;font-size:15px;font-family:Consolas;-inkscape-font-specification:Consolas">fill(255-x*4,x*4,x*4);</tspan><tspan
         sodipodi:role="line"
         x="649.73749"
         y="393.52905"
         id="tspan3340-03-57"
         style="font-style:normal;font-variant:normal;font-weight:normal;font-stretch:normal;font-size:15px;font-family:Consolas;-inkscape-font-specification:Consolas">rect(x*10,0,10,60);</tspan><tspan
         sodipodi:role="line"
         x="649.73749"
         y="412.27905"
         id="tspan3342-3-4"
         style="font-style:normal;font-variant:normal;font-weight:normal;font-stretch:normal;font-size:15px;font-family:Consolas;-inkscape-font-specification:Consolas">x = x + 1;</tspan></text>
    <text
       xml:space="preserve"
       style="font-style:normal;font-variant:normal;font-weight:normal;font-stretch:normal;font-size:72px;line-height:125%;font-family:'Calligraph421 BT';-inkscape-font-specification:'Calligraph421 BT';letter-spacing:0px;word-spacing:0px;fill:#000000;fill-opacity:1;stroke:none;stroke-width:1px;stroke-linecap:butt;stroke-linejoin:miter;stroke-opacity:1"
       x="419.32001"
       y="319.3732"
       id="text3336-8-57"
       sodipodi:linespacing="125%"><tspan
         sodipodi:role="line"
         id="tspan3338-8-7"
         x="419.32001"
         y="319.3732"
         style="font-style:normal;font-variant:normal;font-weight:normal;font-stretch:normal;font-size:15px;font-family:Consolas;-inkscape-font-specification:Consolas">fill(255-x*4,x*4,x*4);</tspan><tspan
         sodipodi:role="line"
         x="419.32001"
         y="338.1232"
         id="tspan3340-3-50"
         style="font-style:normal;font-variant:normal;font-weight:normal;font-stretch:normal;font-size:15px;font-family:Consolas;-inkscape-font-specification:Consolas">rect(x*10,0,10,60);</tspan><tspan
         sodipodi:role="line"
         x="419.32001"
         y="356.8732"
         id="tspan3342-8-4"
         style="font-style:normal;font-variant:normal;font-weight:normal;font-stretch:normal;font-size:15px;font-family:Consolas;-inkscape-font-specification:Consolas">x = x + 1;</tspan></text>
    <text
       xml:space="preserve"
       style="font-style:normal;font-variant:normal;font-weight:normal;font-stretch:normal;font-size:72px;line-height:125%;font-family:'Calligraph421 BT';-inkscape-font-specification:'Calligraph421 BT';letter-spacing:0px;word-spacing:0px;fill:#000000;fill-opacity:1;stroke:none;stroke-width:1px;stroke-linecap:butt;stroke-linejoin:miter;stroke-opacity:1"
       x="425.21085"
       y="353.215"
       id="text3336-01-9"
       sodipodi:linespacing="125%"><tspan
         sodipodi:role="line"
         id="tspan3338-4-6"
         x="425.21085"
         y="353.215"
         style="font-style:normal;font-variant:normal;font-weight:normal;font-stretch:normal;font-size:15px;font-family:Consolas;-inkscape-font-specification:Consolas">fill(255-x*4,x*4,x*4);</tspan><tspan
         sodipodi:role="line"
         x="425.21085"
         y="371.965"
         id="tspan3340-5-5"
         style="font-style:normal;font-variant:normal;font-weight:normal;font-stretch:normal;font-size:15px;font-family:Consolas;-inkscape-font-specification:Consolas">rect(x*10,0,10,60);</tspan><tspan
         sodipodi:role="line"
         x="425.21085"
         y="390.715"
         id="tspan3342-4-0"
         style="font-style:normal;font-variant:normal;font-weight:normal;font-stretch:normal;font-size:15px;font-family:Consolas;-inkscape-font-specification:Consolas">x = x + 1;</tspan></text>
    <text
       xml:space="preserve"
       style="font-style:normal;font-variant:normal;font-weight:normal;font-stretch:normal;font-size:72px;line-height:125%;font-family:'Calligraph421 BT';-inkscape-font-specification:'Calligraph421 BT';letter-spacing:0px;word-spacing:0px;fill:#000000;fill-opacity:1;stroke:none;stroke-width:1px;stroke-linecap:butt;stroke-linejoin:miter;stroke-opacity:1"
       x="352.82635"
       y="391.21747"
       id="text3336-7-1"
       sodipodi:linespacing="125%"><tspan
         sodipodi:role="line"
         id="tspan3338-7-0"
         x="352.82635"
         y="391.21747"
         style="font-style:normal;font-variant:normal;font-weight:normal;font-stretch:normal;font-size:15px;font-family:Consolas;-inkscape-font-specification:Consolas">fill(255-x*4,x*4,x*4);</tspan><tspan
         sodipodi:role="line"
         x="352.82635"
         y="409.96747"
         id="tspan3340-58-3"
         style="font-style:normal;font-variant:normal;font-weight:normal;font-stretch:normal;font-size:15px;font-family:Consolas;-inkscape-font-specification:Consolas">rect(x*10,0,10,60);</tspan><tspan
         sodipodi:role="line"
         x="352.82635"
         y="428.71747"
         id="tspan3342-2-6"
         style="font-style:normal;font-variant:normal;font-weight:normal;font-stretch:normal;font-size:15px;font-family:Consolas;-inkscape-font-specification:Consolas">x = x + 1;</tspan></text>
    <text
       xml:space="preserve"
       style="font-style:normal;font-variant:normal;font-weight:normal;font-stretch:normal;font-size:72px;line-height:125%;font-family:'Calligraph421 BT';-inkscape-font-specification:'Calligraph421 BT';letter-spacing:0px;word-spacing:0px;fill:#000000;fill-opacity:1;stroke:none;stroke-width:1px;stroke-linecap:butt;stroke-linejoin:miter;stroke-opacity:1"
       x="615.58868"
       y="425.43796"
       id="text3336-79-51"
       sodipodi:linespacing="125%"><tspan
         sodipodi:role="line"
         id="tspan3338-3-6"
         x="615.58868"
         y="425.43796"
         style="font-style:normal;font-variant:normal;font-weight:normal;font-stretch:normal;font-size:15px;font-family:Consolas;-inkscape-font-specification:Consolas">fill(255-x*4,x*4,x*4);</tspan><tspan
         sodipodi:role="line"
         x="615.58868"
         y="444.18796"
         id="tspan3340-9-0"
         style="font-style:normal;font-variant:normal;font-weight:normal;font-stretch:normal;font-size:15px;font-family:Consolas;-inkscape-font-specification:Consolas">rect(x*10,0,10,60);</tspan><tspan
         sodipodi:role="line"
         x="615.58868"
         y="462.93796"
         id="tspan3342-82-3"
         style="font-style:normal;font-variant:normal;font-weight:normal;font-stretch:normal;font-size:15px;font-family:Consolas;-inkscape-font-specification:Consolas">x = x + 1;</tspan></text>
    <text
       xml:space="preserve"
       style="font-style:normal;font-variant:normal;font-weight:normal;font-stretch:normal;font-size:72px;line-height:125%;font-family:'Calligraph421 BT';-inkscape-font-specification:'Calligraph421 BT';letter-spacing:0px;word-spacing:0px;fill:#000000;fill-opacity:1;stroke:none;stroke-width:1px;stroke-linecap:butt;stroke-linejoin:miter;stroke-opacity:1"
       x="532.50122"
       y="387.99832"
       id="text3336-2-8"
       sodipodi:linespacing="125%"
       inkscape:transform-center-x="-39.285714"
       inkscape:transform-center-y="17.142857"><tspan
         sodipodi:role="line"
         id="tspan3338-73-5"
         x="532.50122"
         y="387.99832"
         style="font-style:normal;font-variant:normal;font-weight:normal;font-stretch:normal;font-size:15px;font-family:Consolas;-inkscape-font-specification:Consolas">fill(255-x*4,x*4,x*4);</tspan><tspan
         sodipodi:role="line"
         x="532.50122"
         y="406.74832"
         id="tspan3340-6-5"
         style="font-style:normal;font-variant:normal;font-weight:normal;font-stretch:normal;font-size:15px;font-family:Consolas;-inkscape-font-specification:Consolas">rect(x*10,0,10,60);</tspan><tspan
         sodipodi:role="line"
         x="532.50122"
         y="425.49832"
         id="tspan3342-37-1"
         style="font-style:normal;font-variant:normal;font-weight:normal;font-stretch:normal;font-size:15px;font-family:Consolas;-inkscape-font-specification:Consolas">x = x + 1;</tspan></text>
    <text
       xml:space="preserve"
       style="font-style:normal;font-variant:normal;font-weight:normal;font-stretch:normal;font-size:72px;line-height:125%;font-family:'Calligraph421 BT';-inkscape-font-specification:'Calligraph421 BT';letter-spacing:0px;word-spacing:0px;fill:#000000;fill-opacity:1;stroke:none;stroke-width:1px;stroke-linecap:butt;stroke-linejoin:miter;stroke-opacity:1"
       x="388.61469"
       y="433.70224"
       id="text3336-9-2"
       sodipodi:linespacing="125%"><tspan
         sodipodi:role="line"
         id="tspan3338-6-3"
         x="388.61469"
         y="433.70224"
         style="font-style:normal;font-variant:normal;font-weight:normal;font-stretch:normal;font-size:15px;font-family:Consolas;-inkscape-font-specification:Consolas">fill(255-x*4,x*4,x*4);</tspan><tspan
         sodipodi:role="line"
         x="388.61469"
         y="452.45224"
         id="tspan3340-4-82"
         style="font-style:normal;font-variant:normal;font-weight:normal;font-stretch:normal;font-size:15px;font-family:Consolas;-inkscape-font-specification:Consolas">rect(x*10,0,10,60);</tspan><tspan
         sodipodi:role="line"
         x="388.61469"
         y="471.20224"
         id="tspan3342-21-7"
         style="font-style:normal;font-variant:normal;font-weight:normal;font-stretch:normal;font-size:15px;font-family:Consolas;-inkscape-font-specification:Consolas">x = x + 1;</tspan></text>
    <text
       xml:space="preserve"
       style="font-style:normal;font-variant:normal;font-weight:normal;font-stretch:normal;font-size:72px;line-height:125%;font-family:'Calligraph421 BT';-inkscape-font-specification:'Calligraph421 BT';letter-spacing:0px;word-spacing:0px;fill:#000000;fill-opacity:1;stroke:none;stroke-width:1px;stroke-linecap:butt;stroke-linejoin:miter;stroke-opacity:1"
       x="481.32611"
       y="467.68066"
       id="text3336-96-6"
       sodipodi:linespacing="125%"><tspan
         sodipodi:role="line"
         id="tspan3338-72-31"
         x="481.32611"
         y="467.68066"
         style="font-style:normal;font-variant:normal;font-weight:normal;font-stretch:normal;font-size:15px;font-family:Consolas;-inkscape-font-specification:Consolas">fill(255-x*4,x*4,x*4);</tspan><tspan
         sodipodi:role="line"
         x="481.32611"
         y="486.43066"
         id="tspan3340-60-3"
         style="font-style:normal;font-variant:normal;font-weight:normal;font-stretch:normal;font-size:15px;font-family:Consolas;-inkscape-font-specification:Consolas">rect(x*10,0,10,60);</tspan><tspan
         sodipodi:role="line"
         x="481.32611"
         y="505.18066"
         id="tspan3342-7-19"
         style="font-style:normal;font-variant:normal;font-weight:normal;font-stretch:normal;font-size:15px;font-family:Consolas;-inkscape-font-specification:Consolas">x = x + 1;</tspan></text>
    <text
       xml:space="preserve"
       style="font-style:normal;font-variant:normal;font-weight:normal;font-stretch:normal;font-size:72px;line-height:125%;font-family:'Calligraph421 BT';-inkscape-font-specification:'Calligraph421 BT';letter-spacing:0px;word-spacing:0px;fill:#000000;fill-opacity:1;stroke:none;stroke-width:1px;stroke-linecap:butt;stroke-linejoin:miter;stroke-opacity:1"
       x="254.54851"
       y="498.49902"
       id="text3336-21"
       sodipodi:linespacing="125%"><tspan
         sodipodi:role="line"
         id="tspan3338-62"
         x="254.54851"
         y="498.49902"
         style="font-style:normal;font-variant:normal;font-weight:normal;font-stretch:normal;font-size:15px;font-family:Consolas;-inkscape-font-specification:Consolas">fill(255-x*4,x*4,x*4);</tspan><tspan
         sodipodi:role="line"
         x="254.54851"
         y="517.24902"
         id="tspan3340-80"
         style="font-style:normal;font-variant:normal;font-weight:normal;font-stretch:normal;font-size:15px;font-family:Consolas;-inkscape-font-specification:Consolas">rect(x*10,0,10,60);</tspan><tspan
         sodipodi:role="line"
         x="254.54851"
         y="535.99902"
         id="tspan3342-04"
         style="font-style:normal;font-variant:normal;font-weight:normal;font-stretch:normal;font-size:15px;font-family:Consolas;-inkscape-font-specification:Consolas">x = x + 1;</tspan></text>
    <text
       xml:space="preserve"
       style="font-style:normal;font-variant:normal;font-weight:normal;font-stretch:normal;font-size:72px;line-height:125%;font-family:'Calligraph421 BT';-inkscape-font-specification:'Calligraph421 BT';letter-spacing:0px;word-spacing:0px;fill:#000000;fill-opacity:1;stroke:none;stroke-width:1px;stroke-linecap:butt;stroke-linejoin:miter;stroke-opacity:1"
       x="348.93234"
       y="417.77432"
       id="text3336-4-9"
       sodipodi:linespacing="125%"><tspan
         sodipodi:role="line"
         id="tspan3338-1-5"
         x="348.93234"
         y="417.77432"
         style="font-style:normal;font-variant:normal;font-weight:normal;font-stretch:normal;font-size:15px;font-family:Consolas;-inkscape-font-specification:Consolas">fill(255-x*4,x*4,x*4);</tspan><tspan
         sodipodi:role="line"
         x="348.93234"
         y="436.52432"
         id="tspan3340-0-18"
         style="font-style:normal;font-variant:normal;font-weight:normal;font-stretch:normal;font-size:15px;font-family:Consolas;-inkscape-font-specification:Consolas">rect(x*10,0,10,60);</tspan><tspan
         sodipodi:role="line"
         x="348.93234"
         y="455.27432"
         id="tspan3342-5-72"
         style="font-style:normal;font-variant:normal;font-weight:normal;font-stretch:normal;font-size:15px;font-family:Consolas;-inkscape-font-specification:Consolas">x = x + 1;</tspan></text>
    <text
       xml:space="preserve"
       style="font-style:normal;font-variant:normal;font-weight:normal;font-stretch:normal;font-size:72px;line-height:125%;font-family:'Calligraph421 BT';-inkscape-font-specification:'Calligraph421 BT';letter-spacing:0px;word-spacing:0px;fill:#000000;fill-opacity:1;stroke:none;stroke-width:1px;stroke-linecap:butt;stroke-linejoin:miter;stroke-opacity:1"
       x="400.45175"
       y="455.49335"
       id="text3336-0-3"
       sodipodi:linespacing="125%"><tspan
         sodipodi:role="line"
         id="tspan3338-9-0"
         x="400.45175"
         y="455.49335"
         style="font-style:normal;font-variant:normal;font-weight:normal;font-stretch:normal;font-size:15px;font-family:Consolas;-inkscape-font-specification:Consolas">fill(255-x*4,x*4,x*4);</tspan><tspan
         sodipodi:role="line"
         x="400.45175"
         y="474.24335"
         id="tspan3340-03-3"
         style="font-style:normal;font-variant:normal;font-weight:normal;font-stretch:normal;font-size:15px;font-family:Consolas;-inkscape-font-specification:Consolas">rect(x*10,0,10,60);</tspan><tspan
         sodipodi:role="line"
         x="400.45175"
         y="492.99335"
         id="tspan3342-3-6"
         style="font-style:normal;font-variant:normal;font-weight:normal;font-stretch:normal;font-size:15px;font-family:Consolas;-inkscape-font-specification:Consolas">x = x + 1;</tspan></text>
    <text
       xml:space="preserve"
       style="font-style:normal;font-variant:normal;font-weight:normal;font-stretch:normal;font-size:72px;line-height:125%;font-family:'Calligraph421 BT';-inkscape-font-specification:'Calligraph421 BT';letter-spacing:0px;word-spacing:0px;fill:#000000;fill-opacity:1;stroke:none;stroke-width:1px;stroke-linecap:butt;stroke-linejoin:miter;stroke-opacity:1"
       x="170.03432"
       y="400.08749"
       id="text3336-8-0"
       sodipodi:linespacing="125%"><tspan
         sodipodi:role="line"
         id="tspan3338-8-14"
         x="170.03432"
         y="400.08749"
         style="font-style:normal;font-variant:normal;font-weight:normal;font-stretch:normal;font-size:15px;font-family:Consolas;-inkscape-font-specification:Consolas">fill(255-x*4,x*4,x*4);</tspan><tspan
         sodipodi:role="line"
         x="170.03432"
         y="418.83749"
         id="tspan3340-3-54"
         style="font-style:normal;font-variant:normal;font-weight:normal;font-stretch:normal;font-size:15px;font-family:Consolas;-inkscape-font-specification:Consolas">rect(x*10,0,10,60);</tspan><tspan
         sodipodi:role="line"
         x="170.03432"
         y="437.58749"
         id="tspan3342-8-27"
         style="font-style:normal;font-variant:normal;font-weight:normal;font-stretch:normal;font-size:15px;font-family:Consolas;-inkscape-font-specification:Consolas">x = x + 1;</tspan></text>
    <text
       xml:space="preserve"
       style="font-style:normal;font-variant:normal;font-weight:normal;font-stretch:normal;font-size:72px;line-height:125%;font-family:'Calligraph421 BT';-inkscape-font-specification:'Calligraph421 BT';letter-spacing:0px;word-spacing:0px;fill:#000000;fill-opacity:1;stroke:none;stroke-width:1px;stroke-linecap:butt;stroke-linejoin:miter;stroke-opacity:1"
       x="175.92513"
       y="433.92929"
       id="text3336-01-0"
       sodipodi:linespacing="125%"><tspan
         sodipodi:role="line"
         id="tspan3338-4-1"
         x="175.92513"
         y="433.92929"
         style="font-style:normal;font-variant:normal;font-weight:normal;font-stretch:normal;font-size:15px;font-family:Consolas;-inkscape-font-specification:Consolas">fill(255-x*4,x*4,x*4);</tspan><tspan
         sodipodi:role="line"
         x="175.92513"
         y="452.67929"
         id="tspan3340-5-8"
         style="font-style:normal;font-variant:normal;font-weight:normal;font-stretch:normal;font-size:15px;font-family:Consolas;-inkscape-font-specification:Consolas">rect(x*10,0,10,60);</tspan><tspan
         sodipodi:role="line"
         x="175.92513"
         y="471.42929"
         id="tspan3342-4-12"
         style="font-style:normal;font-variant:normal;font-weight:normal;font-stretch:normal;font-size:15px;font-family:Consolas;-inkscape-font-specification:Consolas">x = x + 1;</tspan></text>
    <text
       xml:space="preserve"
       style="font-style:normal;font-variant:normal;font-weight:normal;font-stretch:normal;font-size:72px;line-height:125%;font-family:'Calligraph421 BT';-inkscape-font-specification:'Calligraph421 BT';letter-spacing:0px;word-spacing:0px;fill:#000000;fill-opacity:1;stroke:none;stroke-width:1px;stroke-linecap:butt;stroke-linejoin:miter;stroke-opacity:1"
       x="103.54066"
       y="471.93176"
       id="text3336-7-5"
       sodipodi:linespacing="125%"><tspan
         sodipodi:role="line"
         id="tspan3338-7-71"
         x="103.54066"
         y="471.93176"
         style="font-style:normal;font-variant:normal;font-weight:normal;font-stretch:normal;font-size:15px;font-family:Consolas;-inkscape-font-specification:Consolas">fill(255-x*4,x*4,x*4);</tspan><tspan
         sodipodi:role="line"
         x="103.54066"
         y="490.68176"
         id="tspan3340-58-8"
         style="font-style:normal;font-variant:normal;font-weight:normal;font-stretch:normal;font-size:15px;font-family:Consolas;-inkscape-font-specification:Consolas">rect(x*10,0,10,60);</tspan><tspan
         sodipodi:role="line"
         x="103.54066"
         y="509.43176"
         id="tspan3342-2-0"
         style="font-style:normal;font-variant:normal;font-weight:normal;font-stretch:normal;font-size:15px;font-family:Consolas;-inkscape-font-specification:Consolas">x = x + 1;</tspan></text>
    <text
       xml:space="preserve"
       style="font-style:normal;font-variant:normal;font-weight:normal;font-stretch:normal;font-size:72px;line-height:125%;font-family:'Calligraph421 BT';-inkscape-font-specification:'Calligraph421 BT';letter-spacing:0px;word-spacing:0px;fill:#000000;fill-opacity:1;stroke:none;stroke-width:1px;stroke-linecap:butt;stroke-linejoin:miter;stroke-opacity:1"
       x="366.30295"
       y="506.15225"
       id="text3336-79-64"
       sodipodi:linespacing="125%"><tspan
         sodipodi:role="line"
         id="tspan3338-3-4"
         x="366.30295"
         y="506.15225"
         style="font-style:normal;font-variant:normal;font-weight:normal;font-stretch:normal;font-size:15px;font-family:Consolas;-inkscape-font-specification:Consolas">fill(255-x*4,x*4,x*4);</tspan><tspan
         sodipodi:role="line"
         x="366.30295"
         y="524.90222"
         id="tspan3340-9-9"
         style="font-style:normal;font-variant:normal;font-weight:normal;font-stretch:normal;font-size:15px;font-family:Consolas;-inkscape-font-specification:Consolas">rect(x*10,0,10,60);</tspan><tspan
         sodipodi:role="line"
         x="366.30295"
         y="543.65222"
         id="tspan3342-82-8"
         style="font-style:normal;font-variant:normal;font-weight:normal;font-stretch:normal;font-size:15px;font-family:Consolas;-inkscape-font-specification:Consolas">x = x + 1;</tspan></text>
    <text
       xml:space="preserve"
       style="font-style:normal;font-variant:normal;font-weight:normal;font-stretch:normal;font-size:72px;line-height:125%;font-family:'Calligraph421 BT';-inkscape-font-specification:'Calligraph421 BT';letter-spacing:0px;word-spacing:0px;fill:#000000;fill-opacity:1;stroke:none;stroke-width:1px;stroke-linecap:butt;stroke-linejoin:miter;stroke-opacity:1"
       x="283.21548"
       y="468.71262"
       id="text3336-2-6"
       sodipodi:linespacing="125%"
       inkscape:transform-center-x="-39.285714"
       inkscape:transform-center-y="17.142857"><tspan
         sodipodi:role="line"
         id="tspan3338-73-51"
         x="283.21548"
         y="468.71262"
         style="font-style:normal;font-variant:normal;font-weight:normal;font-stretch:normal;font-size:15px;font-family:Consolas;-inkscape-font-specification:Consolas">fill(255-x*4,x*4,x*4);</tspan><tspan
         sodipodi:role="line"
         x="283.21548"
         y="487.46262"
         id="tspan3340-6-31"
         style="font-style:normal;font-variant:normal;font-weight:normal;font-stretch:normal;font-size:15px;font-family:Consolas;-inkscape-font-specification:Consolas">rect(x*10,0,10,60);</tspan><tspan
         sodipodi:role="line"
         x="283.21548"
         y="506.21262"
         id="tspan3342-37-0"
         style="font-style:normal;font-variant:normal;font-weight:normal;font-stretch:normal;font-size:15px;font-family:Consolas;-inkscape-font-specification:Consolas">x = x + 1;</tspan></text>
    <text
       xml:space="preserve"
       style="font-style:normal;font-variant:normal;font-weight:normal;font-stretch:normal;font-size:72px;line-height:125%;font-family:'Calligraph421 BT';-inkscape-font-specification:'Calligraph421 BT';letter-spacing:0px;word-spacing:0px;fill:#000000;fill-opacity:1;stroke:none;stroke-width:1px;stroke-linecap:butt;stroke-linejoin:miter;stroke-opacity:1"
       x="139.32896"
       y="514.4165"
       id="text3336-9-6"
       sodipodi:linespacing="125%"><tspan
         sodipodi:role="line"
         id="tspan3338-6-1"
         x="139.32896"
         y="514.4165"
         style="font-style:normal;font-variant:normal;font-weight:normal;font-stretch:normal;font-size:15px;font-family:Consolas;-inkscape-font-specification:Consolas">fill(255-x*4,x*4,x*4);</tspan><tspan
         sodipodi:role="line"
         x="139.32896"
         y="533.1665"
         id="tspan3340-4-6"
         style="font-style:normal;font-variant:normal;font-weight:normal;font-stretch:normal;font-size:15px;font-family:Consolas;-inkscape-font-specification:Consolas">rect(x*10,0,10,60);</tspan><tspan
         sodipodi:role="line"
         x="139.32896"
         y="551.9165"
         id="tspan3342-21-57"
         style="font-style:normal;font-variant:normal;font-weight:normal;font-stretch:normal;font-size:15px;font-family:Consolas;-inkscape-font-specification:Consolas">x = x + 1;</tspan></text>
    <text
       xml:space="preserve"
       style="font-style:normal;font-variant:normal;font-weight:normal;font-stretch:normal;font-size:72px;line-height:125%;font-family:'Calligraph421 BT';-inkscape-font-specification:'Calligraph421 BT';letter-spacing:0px;word-spacing:0px;fill:#000000;fill-opacity:1;stroke:none;stroke-width:1px;stroke-linecap:butt;stroke-linejoin:miter;stroke-opacity:1"
       x="232.04042"
       y="548.3949"
       id="text3336-96-3"
       sodipodi:linespacing="125%"><tspan
         sodipodi:role="line"
         id="tspan3338-72-7"
         x="232.04042"
         y="548.3949"
         style="font-style:normal;font-variant:normal;font-weight:normal;font-stretch:normal;font-size:15px;font-family:Consolas;-inkscape-font-specification:Consolas">fill(255-x*4,x*4,x*4);</tspan><tspan
         sodipodi:role="line"
         x="232.04042"
         y="567.1449"
         id="tspan3340-60-1"
         style="font-style:normal;font-variant:normal;font-weight:normal;font-stretch:normal;font-size:15px;font-family:Consolas;-inkscape-font-specification:Consolas">rect(x*10,0,10,60);</tspan><tspan
         sodipodi:role="line"
         x="232.04042"
         y="585.8949"
         id="tspan3342-7-5"
         style="font-style:normal;font-variant:normal;font-weight:normal;font-stretch:normal;font-size:15px;font-family:Consolas;-inkscape-font-specification:Consolas">x = x + 1;</tspan></text>
    <text
       xml:space="preserve"
       style="font-style:normal;font-variant:normal;font-weight:normal;font-stretch:normal;font-size:72px;line-height:125%;font-family:'Calligraph421 BT';-inkscape-font-specification:'Calligraph421 BT';letter-spacing:0px;word-spacing:0px;fill:#000000;fill-opacity:1;stroke:none;stroke-width:1px;stroke-linecap:butt;stroke-linejoin:miter;stroke-opacity:1"
       x="576.69135"
       y="542.07043"
       id="text3336-39"
       sodipodi:linespacing="125%"><tspan
         sodipodi:role="line"
         id="tspan3338-66"
         x="576.69135"
         y="542.07043"
         style="font-style:normal;font-variant:normal;font-weight:normal;font-stretch:normal;font-size:15px;font-family:Consolas;-inkscape-font-specification:Consolas">fill(255-x*4,x*4,x*4);</tspan><tspan
         sodipodi:role="line"
         x="576.69135"
         y="560.82043"
         id="tspan3340-64"
         style="font-style:normal;font-variant:normal;font-weight:normal;font-stretch:normal;font-size:15px;font-family:Consolas;-inkscape-font-specification:Consolas">rect(x*10,0,10,60);</tspan><tspan
         sodipodi:role="line"
         x="576.69135"
         y="579.57043"
         id="tspan3342-20"
         style="font-style:normal;font-variant:normal;font-weight:normal;font-stretch:normal;font-size:15px;font-family:Consolas;-inkscape-font-specification:Consolas">x = x + 1;</tspan></text>
    <text
       xml:space="preserve"
       style="font-style:normal;font-variant:normal;font-weight:normal;font-stretch:normal;font-size:72px;line-height:125%;font-family:'Calligraph421 BT';-inkscape-font-specification:'Calligraph421 BT';letter-spacing:0px;word-spacing:0px;fill:#000000;fill-opacity:1;stroke:none;stroke-width:1px;stroke-linecap:butt;stroke-linejoin:miter;stroke-opacity:1"
       x="671.07526"
       y="461.34573"
       id="text3336-4-6"
       sodipodi:linespacing="125%"><tspan
         sodipodi:role="line"
         id="tspan3338-1-0"
         x="671.07526"
         y="461.34573"
         style="font-style:normal;font-variant:normal;font-weight:normal;font-stretch:normal;font-size:15px;font-family:Consolas;-inkscape-font-specification:Consolas">fill(255-x*4,x*4,x*4);</tspan><tspan
         sodipodi:role="line"
         x="671.07526"
         y="480.09573"
         id="tspan3340-0-07"
         style="font-style:normal;font-variant:normal;font-weight:normal;font-stretch:normal;font-size:15px;font-family:Consolas;-inkscape-font-specification:Consolas">rect(x*10,0,10,60);</tspan><tspan
         sodipodi:role="line"
         x="671.07526"
         y="498.84573"
         id="tspan3342-5-3"
         style="font-style:normal;font-variant:normal;font-weight:normal;font-stretch:normal;font-size:15px;font-family:Consolas;-inkscape-font-specification:Consolas">x = x + 1;</tspan></text>
    <text
       xml:space="preserve"
       style="font-style:normal;font-variant:normal;font-weight:normal;font-stretch:normal;font-size:72px;line-height:125%;font-family:'Calligraph421 BT';-inkscape-font-specification:'Calligraph421 BT';letter-spacing:0px;word-spacing:0px;fill:#000000;fill-opacity:1;stroke:none;stroke-width:1px;stroke-linecap:butt;stroke-linejoin:miter;stroke-opacity:1"
       x="722.5946"
       y="499.06476"
       id="text3336-0-28"
       sodipodi:linespacing="125%"><tspan
         sodipodi:role="line"
         id="tspan3338-9-3"
         x="722.5946"
         y="499.06476"
         style="font-style:normal;font-variant:normal;font-weight:normal;font-stretch:normal;font-size:15px;font-family:Consolas;-inkscape-font-specification:Consolas">fill(255-x*4,x*4,x*4);</tspan><tspan
         sodipodi:role="line"
         x="722.5946"
         y="517.81476"
         id="tspan3340-03-9"
         style="font-style:normal;font-variant:normal;font-weight:normal;font-stretch:normal;font-size:15px;font-family:Consolas;-inkscape-font-specification:Consolas">rect(x*10,0,10,60);</tspan><tspan
         sodipodi:role="line"
         x="722.5946"
         y="536.56476"
         id="tspan3342-3-89"
         style="font-style:normal;font-variant:normal;font-weight:normal;font-stretch:normal;font-size:15px;font-family:Consolas;-inkscape-font-specification:Consolas">x = x + 1;</tspan></text>
    <text
       xml:space="preserve"
       style="font-style:normal;font-variant:normal;font-weight:normal;font-stretch:normal;font-size:72px;line-height:125%;font-family:'Calligraph421 BT';-inkscape-font-specification:'Calligraph421 BT';letter-spacing:0px;word-spacing:0px;fill:#000000;fill-opacity:1;stroke:none;stroke-width:1px;stroke-linecap:butt;stroke-linejoin:miter;stroke-opacity:1"
       x="492.17715"
       y="443.65894"
       id="text3336-8-8"
       sodipodi:linespacing="125%"><tspan
         sodipodi:role="line"
         id="tspan3338-8-72"
         x="492.17715"
         y="443.65894"
         style="font-style:normal;font-variant:normal;font-weight:normal;font-stretch:normal;font-size:15px;font-family:Consolas;-inkscape-font-specification:Consolas">fill(255-x*4,x*4,x*4);</tspan><tspan
         sodipodi:role="line"
         x="492.17715"
         y="462.40894"
         id="tspan3340-3-8"
         style="font-style:normal;font-variant:normal;font-weight:normal;font-stretch:normal;font-size:15px;font-family:Consolas;-inkscape-font-specification:Consolas">rect(x*10,0,10,60);</tspan><tspan
         sodipodi:role="line"
         x="492.17715"
         y="481.15894"
         id="tspan3342-8-24"
         style="font-style:normal;font-variant:normal;font-weight:normal;font-stretch:normal;font-size:15px;font-family:Consolas;-inkscape-font-specification:Consolas">x = x + 1;</tspan></text>
    <text
       xml:space="preserve"
       style="font-style:normal;font-variant:normal;font-weight:normal;font-stretch:normal;font-size:72px;line-height:125%;font-family:'Calligraph421 BT';-inkscape-font-specification:'Calligraph421 BT';letter-spacing:0px;word-spacing:0px;fill:#000000;fill-opacity:1;stroke:none;stroke-width:1px;stroke-linecap:butt;stroke-linejoin:miter;stroke-opacity:1"
       x="498.06796"
       y="477.5007"
       id="text3336-01-7"
       sodipodi:linespacing="125%"><tspan
         sodipodi:role="line"
         id="tspan3338-4-7"
         x="498.06796"
         y="477.5007"
         style="font-style:normal;font-variant:normal;font-weight:normal;font-stretch:normal;font-size:15px;font-family:Consolas;-inkscape-font-specification:Consolas">fill(255-x*4,x*4,x*4);</tspan><tspan
         sodipodi:role="line"
         x="498.06796"
         y="496.2507"
         id="tspan3340-5-7"
         style="font-style:normal;font-variant:normal;font-weight:normal;font-stretch:normal;font-size:15px;font-family:Consolas;-inkscape-font-specification:Consolas">rect(x*10,0,10,60);</tspan><tspan
         sodipodi:role="line"
         x="498.06796"
         y="515.00073"
         id="tspan3342-4-8"
         style="font-style:normal;font-variant:normal;font-weight:normal;font-stretch:normal;font-size:15px;font-family:Consolas;-inkscape-font-specification:Consolas">x = x + 1;</tspan></text>
    <text
       xml:space="preserve"
       style="font-style:normal;font-variant:normal;font-weight:normal;font-stretch:normal;font-size:72px;line-height:125%;font-family:'Calligraph421 BT';-inkscape-font-specification:'Calligraph421 BT';letter-spacing:0px;word-spacing:0px;fill:#000000;fill-opacity:1;stroke:none;stroke-width:1px;stroke-linecap:butt;stroke-linejoin:miter;stroke-opacity:1"
       x="425.6835"
       y="515.50317"
       id="text3336-7-75"
       sodipodi:linespacing="125%"><tspan
         sodipodi:role="line"
         id="tspan3338-7-35"
         x="425.6835"
         y="515.50317"
         style="font-style:normal;font-variant:normal;font-weight:normal;font-stretch:normal;font-size:15px;font-family:Consolas;-inkscape-font-specification:Consolas">fill(255-x*4,x*4,x*4);</tspan><tspan
         sodipodi:role="line"
         x="425.6835"
         y="534.25317"
         id="tspan3340-58-7"
         style="font-style:normal;font-variant:normal;font-weight:normal;font-stretch:normal;font-size:15px;font-family:Consolas;-inkscape-font-specification:Consolas">rect(x*10,0,10,60);</tspan><tspan
         sodipodi:role="line"
         x="425.6835"
         y="553.00317"
         id="tspan3342-2-4"
         style="font-style:normal;font-variant:normal;font-weight:normal;font-stretch:normal;font-size:15px;font-family:Consolas;-inkscape-font-specification:Consolas">x = x + 1;</tspan></text>
    <text
       xml:space="preserve"
       style="font-style:normal;font-variant:normal;font-weight:normal;font-stretch:normal;font-size:72px;line-height:125%;font-family:'Calligraph421 BT';-inkscape-font-specification:'Calligraph421 BT';letter-spacing:0px;word-spacing:0px;fill:#000000;fill-opacity:1;stroke:none;stroke-width:1px;stroke-linecap:butt;stroke-linejoin:miter;stroke-opacity:1"
       x="688.4458"
       y="549.72363"
       id="text3336-79-1"
       sodipodi:linespacing="125%"><tspan
         sodipodi:role="line"
         id="tspan3338-3-3"
         x="688.4458"
         y="549.72363"
         style="font-style:normal;font-variant:normal;font-weight:normal;font-stretch:normal;font-size:15px;font-family:Consolas;-inkscape-font-specification:Consolas">fill(255-x*4,x*4,x*4);</tspan><tspan
         sodipodi:role="line"
         x="688.4458"
         y="568.47363"
         id="tspan3340-9-7"
         style="font-style:normal;font-variant:normal;font-weight:normal;font-stretch:normal;font-size:15px;font-family:Consolas;-inkscape-font-specification:Consolas">rect(x*10,0,10,60);</tspan><tspan
         sodipodi:role="line"
         x="688.4458"
         y="587.22363"
         id="tspan3342-82-2"
         style="font-style:normal;font-variant:normal;font-weight:normal;font-stretch:normal;font-size:15px;font-family:Consolas;-inkscape-font-specification:Consolas">x = x + 1;</tspan></text>
    <text
       xml:space="preserve"
       style="font-style:normal;font-variant:normal;font-weight:normal;font-stretch:normal;font-size:72px;line-height:125%;font-family:'Calligraph421 BT';-inkscape-font-specification:'Calligraph421 BT';letter-spacing:0px;word-spacing:0px;fill:#000000;fill-opacity:1;stroke:none;stroke-width:1px;stroke-linecap:butt;stroke-linejoin:miter;stroke-opacity:1"
       x="605.35834"
       y="512.284"
       id="text3336-2-4"
       sodipodi:linespacing="125%"
       inkscape:transform-center-x="-39.285714"
       inkscape:transform-center-y="17.142857"><tspan
         sodipodi:role="line"
         id="tspan3338-73-7"
         x="605.35834"
         y="512.284"
         style="font-style:normal;font-variant:normal;font-weight:normal;font-stretch:normal;font-size:15px;font-family:Consolas;-inkscape-font-specification:Consolas">fill(255-x*4,x*4,x*4);</tspan><tspan
         sodipodi:role="line"
         x="605.35834"
         y="531.034"
         id="tspan3340-6-37"
         style="font-style:normal;font-variant:normal;font-weight:normal;font-stretch:normal;font-size:15px;font-family:Consolas;-inkscape-font-specification:Consolas">rect(x*10,0,10,60);</tspan><tspan
         sodipodi:role="line"
         x="605.35834"
         y="549.784"
         id="tspan3342-37-7"
         style="font-style:normal;font-variant:normal;font-weight:normal;font-stretch:normal;font-size:15px;font-family:Consolas;-inkscape-font-specification:Consolas">x = x + 1;</tspan></text>
    <text
       xml:space="preserve"
       style="font-style:normal;font-variant:normal;font-weight:normal;font-stretch:normal;font-size:72px;line-height:125%;font-family:'Calligraph421 BT';-inkscape-font-specification:'Calligraph421 BT';letter-spacing:0px;word-spacing:0px;fill:#000000;fill-opacity:1;stroke:none;stroke-width:1px;stroke-linecap:butt;stroke-linejoin:miter;stroke-opacity:1"
       x="461.4718"
       y="557.98792"
       id="text3336-9-65"
       sodipodi:linespacing="125%"><tspan
         sodipodi:role="line"
         id="tspan3338-6-33"
         x="461.4718"
         y="557.98792"
         style="font-style:normal;font-variant:normal;font-weight:normal;font-stretch:normal;font-size:15px;font-family:Consolas;-inkscape-font-specification:Consolas">fill(255-x*4,x*4,x*4);</tspan><tspan
         sodipodi:role="line"
         x="461.4718"
         y="576.73792"
         id="tspan3340-4-89"
         style="font-style:normal;font-variant:normal;font-weight:normal;font-stretch:normal;font-size:15px;font-family:Consolas;-inkscape-font-specification:Consolas">rect(x*10,0,10,60);</tspan><tspan
         sodipodi:role="line"
         x="461.4718"
         y="595.48792"
         id="tspan3342-21-2"
         style="font-style:normal;font-variant:normal;font-weight:normal;font-stretch:normal;font-size:15px;font-family:Consolas;-inkscape-font-specification:Consolas">x = x + 1;</tspan></text>
    <text
       xml:space="preserve"
       style="font-style:normal;font-variant:normal;font-weight:normal;font-stretch:normal;font-size:72px;line-height:125%;font-family:'Calligraph421 BT';-inkscape-font-specification:'Calligraph421 BT';letter-spacing:0px;word-spacing:0px;fill:#000000;fill-opacity:1;stroke:none;stroke-width:1px;stroke-linecap:butt;stroke-linejoin:miter;stroke-opacity:1"
       x="554.18329"
       y="591.96631"
       id="text3336-96-64"
       sodipodi:linespacing="125%"><tspan
         sodipodi:role="line"
         id="tspan3338-72-6"
         x="554.18329"
         y="591.96631"
         style="font-style:normal;font-variant:normal;font-weight:normal;font-stretch:normal;font-size:15px;font-family:Consolas;-inkscape-font-specification:Consolas">fill(255-x*4,x*4,x*4);</tspan><tspan
         sodipodi:role="line"
         x="554.18329"
         y="610.71631"
         id="tspan3340-60-2"
         style="font-style:normal;font-variant:normal;font-weight:normal;font-stretch:normal;font-size:15px;font-family:Consolas;-inkscape-font-specification:Consolas">rect(x*10,0,10,60);</tspan><tspan
         sodipodi:role="line"
         x="554.18329"
         y="629.46631"
         id="tspan3342-7-57"
         style="font-style:normal;font-variant:normal;font-weight:normal;font-stretch:normal;font-size:15px;font-family:Consolas;-inkscape-font-specification:Consolas">x = x + 1;</tspan></text>
  </g>
</svg>
