<?xml version="1.0" encoding="UTF-8" standalone="no"?>
<!-- Created with Inkscape (http://www.inkscape.org/) -->

<svg
   xmlns:dc="http://purl.org/dc/elements/1.1/"
   xmlns:cc="http://creativecommons.org/ns#"
   xmlns:rdf="http://www.w3.org/1999/02/22-rdf-syntax-ns#"
   xmlns:svg="http://www.w3.org/2000/svg"
   xmlns="http://www.w3.org/2000/svg"
   xmlns:sodipodi="http://sodipodi.sourceforge.net/DTD/sodipodi-0.dtd"
   xmlns:inkscape="http://www.inkscape.org/namespaces/inkscape"
   width="1309.8386"
   height="202.51855"
   id="svg2"
   sodipodi:version="0.32"
   inkscape:version="0.91pre3 r13670"
   sodipodi:docname="DNA-Gegenstrang.svg"
   inkscape:output_extension="org.inkscape.output.svg.inkscape"
   version="1.1">
  <defs
     id="defs4">
    <linearGradient
       id="linearGradient4624">
      <stop
         id="stop4626"
         offset="0"
         style="stop-color:#cccccc;stop-opacity:0;" />
      <stop
         id="stop4630"
         offset="1"
         style="stop-color:#cccccc;stop-opacity:1;" />
    </linearGradient>
    <linearGradient
       id="linearGradient4608">
      <stop
         style="stop-color:#4c4c4c;stop-opacity:1;"
         offset="0"
         id="stop4610" />
      <stop
         style="stop-color:#7f7f7f;stop-opacity:0;"
         offset="1"
         id="stop4612" />
    </linearGradient>
    <linearGradient
       id="linearGradient3478">
      <stop
         style="stop-color:#cccccc;stop-opacity:0;"
         offset="0"
         id="stop3480" />
      <stop
         id="stop3486"
         offset="0.5"
         style="stop-color:#cccccc;stop-opacity:1;" />
      <stop
         style="stop-color:#cccccc;stop-opacity:1;"
         offset="1"
         id="stop3482" />
    </linearGradient>
  </defs>
  <sodipodi:namedview
     id="base"
     pagecolor="#ffffff"
     bordercolor="#666666"
     borderopacity="1.0"
     gridtolerance="10000"
     guidetolerance="10"
     objecttolerance="10"
     inkscape:pageopacity="0.0"
     inkscape:pageshadow="2"
     inkscape:zoom="0.70710678"
     inkscape:cx="899.84716"
     inkscape:cy="363.33144"
     inkscape:document-units="px"
     inkscape:current-layer="layer1"
     showgrid="true"
     inkscape:window-width="1920"
     inkscape:window-height="1178"
     inkscape:window-x="2792"
     inkscape:window-y="1012"
     fit-margin-top="0"
     fit-margin-left="0"
     fit-margin-right="0"
     fit-margin-bottom="0"
     inkscape:window-maximized="1" />
  <metadata
     id="metadata7">
    <rdf:RDF>
      <cc:Work
         rdf:about="">
        <dc:format>image/svg+xml</dc:format>
        <dc:type
           rdf:resource="http://purl.org/dc/dcmitype/StillImage" />
        <dc:title></dc:title>
      </cc:Work>
    </rdf:RDF>
  </metadata>
  <g
     inkscape:label="Layer 1"
     inkscape:groupmode="layer"
     id="layer1"
     transform="translate(-51.593597,-637.04402)">
    <path
       style="opacity:1;fill:#0000ff;fill-rule:evenodd;stroke:#000000;stroke-width:2.5;stroke-linecap:round;stroke-linejoin:round;stroke-miterlimit:4;stroke-dasharray:none;stroke-opacity:1"
       d="m 714.5,728.55524 20,30 20,-30 0,-39.99999 -40,0 0,39.99999 z"
       id="path3365"
       inkscape:connector-curvature="0" />
    <path
       style="opacity:1;fill:#ffff00;fill-rule:evenodd;stroke:#000000;stroke-width:2.5;stroke-linecap:butt;stroke-linejoin:miter;stroke-miterlimit:4;stroke-dasharray:none;stroke-opacity:1"
       d="m 714.25,727.52317 0,60 40,0 0,-60 -20,30 -20,-30 z"
       id="path3367"
       inkscape:connector-curvature="0" />
    <path
       style="opacity:1;fill:#ff0000;fill-rule:evenodd;stroke:#000000;stroke-width:2.5;stroke-linecap:round;stroke-linejoin:round;stroke-miterlimit:4;stroke-dasharray:none;stroke-opacity:1"
       d="m 773.5,688.49957 c 0,0 0,29.99999 0,39.99999 0,10 10,20 20,20 10,0 20,-10 20,-20 0,-10 0,-39.99999 0,-39.99999 l -40,0 z"
       id="path3369"
       inkscape:connector-curvature="0" />
    <path
       style="opacity:1;fill:#00ffff;fill-rule:evenodd;stroke:#000000;stroke-width:2.5;stroke-linecap:butt;stroke-linejoin:miter;stroke-miterlimit:4;stroke-dasharray:none;stroke-opacity:1"
       d="m 773.25,787.46749 c 0,0 0,-70 0,-60 0,10 10,20 20,20 10,0 20,-10 20,-20 0,-10 0,60 0,60 l -40,0 z"
       id="path3371"
       inkscape:connector-curvature="0" />
    <path
       style="opacity:1;fill:#0000ff;fill-rule:evenodd;stroke:#000000;stroke-width:2.5;stroke-linecap:butt;stroke-linejoin:miter;stroke-miterlimit:4;stroke-dasharray:none;stroke-opacity:1"
       d="m 654.25,746.99973 20,-30 20,30 0,40 -40,0 0,-40 z"
       id="path3373"
       inkscape:connector-curvature="0" />
    <path
       style="opacity:1;fill:#ffff00;fill-rule:evenodd;stroke:#000000;stroke-width:2.5;stroke-linecap:round;stroke-linejoin:round;stroke-miterlimit:4;stroke-dasharray:none;stroke-opacity:1"
       d="m 654.5,748.0318 0,-59.99999 40,0 0,59.99999 -20,-30 -20,30 z"
       id="path3375"
       inkscape:connector-curvature="0" />
    <path
       style="opacity:1;fill:#ff0000;fill-rule:evenodd;stroke:#000000;stroke-width:2.5;stroke-linecap:butt;stroke-linejoin:miter;stroke-miterlimit:4;stroke-dasharray:none;stroke-opacity:1"
       d="m 593.25,786.99077 c 0,0 0,-30 0,-40 0,-10 10,-20 20,-20 10,0 20,10 20,20 0,10 0,40 0,40 l -40,0 z"
       id="path3377"
       inkscape:connector-curvature="0" />
    <path
       style="opacity:1;fill:#00ffff;fill-rule:evenodd;stroke:#000000;stroke-width:2.5;stroke-linecap:round;stroke-linejoin:round;stroke-miterlimit:4;stroke-dasharray:none;stroke-opacity:1"
       d="m 593.5,688.02285 c 0,0 0,69.99999 0,59.99999 0,-10 10,-20 20,-20 10,0 20,10 20,20 0,10 0,-59.99999 0,-59.99999 l -40,0 z"
       id="path3379"
       inkscape:connector-curvature="0" />
    <text
       xml:space="preserve"
       style="font-style:normal;font-weight:normal;font-size:64.85825348px;font-family:Monaco;opacity:1;fill:#000000;fill-opacity:1;stroke:#ffffff;stroke-width:1;stroke-linecap:butt;stroke-linejoin:miter;stroke-miterlimit:4;stroke-dasharray:none;stroke-opacity:1"
       x="544.85486"
       y="882.27954"
       id="text3381"
       transform="scale(1.302426,0.7677979)"><tspan
         sodipodi:role="line"
         id="tspan3383"
         x="544.85486"
         y="882.27954"
         style="stroke-width:1">G</tspan></text>
    <text
       xml:space="preserve"
       style="font-style:normal;font-weight:normal;font-size:60.99707413px;font-family:Monaco;opacity:1;fill:#000000;fill-opacity:1;stroke:#ffffff;stroke-width:1;stroke-linecap:butt;stroke-linejoin:miter;stroke-miterlimit:4;stroke-dasharray:none;stroke-opacity:1"
       x="668.87201"
       y="783.48956"
       id="text3385"
       transform="scale(1.1546834,0.8660383)"><tspan
         sodipodi:role="line"
         id="tspan3387"
         x="668.87201"
         y="783.48956"
         style="stroke-width:1">A</tspan></text>
    <text
       xml:space="preserve"
       style="font-style:normal;font-weight:normal;font-size:64.83191681px;font-family:Monaco;opacity:1;fill:#000000;fill-opacity:1;stroke:#ffffff;stroke-width:1;stroke-linecap:butt;stroke-linejoin:miter;stroke-miterlimit:4;stroke-dasharray:none;stroke-opacity:1"
       x="498.31598"
       y="882.40448"
       id="text3389"
       transform="scale(1.3026546,0.7676632)"><tspan
         sodipodi:role="line"
         id="tspan3391"
         x="498.31598"
         y="882.40448"
         style="stroke-width:1">C</tspan></text>
    <text
       xml:space="preserve"
       style="font-style:normal;font-weight:normal;font-size:61.77735138px;font-family:Monaco;opacity:1;fill:#000000;fill-opacity:1;stroke:#ffffff;stroke-width:1;stroke-linecap:butt;stroke-linejoin:miter;stroke-miterlimit:4;stroke-dasharray:none;stroke-opacity:1"
       x="505.22162"
       y="794.13702"
       id="text3393"
       transform="scale(1.1703901,0.854416)"><tspan
         sodipodi:role="line"
         id="tspan3395"
         x="505.22162"
         y="794.13702"
         style="stroke-width:1">T</tspan></text>
    <text
       xml:space="preserve"
       style="font-style:normal;font-weight:normal;font-size:60.99707413px;font-family:Monaco;opacity:1;fill:#000000;fill-opacity:1;stroke:#ffffff;stroke-width:1;stroke-linecap:butt;stroke-linejoin:miter;stroke-miterlimit:4;stroke-dasharray:none;stroke-opacity:1"
       x="513.2016"
       y="967.04785"
       id="text3397"
       transform="scale(1.1546834,0.8660383)"><tspan
         sodipodi:role="line"
         id="tspan3399"
         x="513.2016"
         y="967.04785"
         style="stroke-width:1">A</tspan></text>
    <text
       xml:space="preserve"
       style="font-style:normal;font-weight:normal;font-size:61.77735138px;font-family:Monaco;opacity:1;fill:#000000;fill-opacity:1;stroke:#ffffff;stroke-width:1;stroke-linecap:butt;stroke-linejoin:miter;stroke-miterlimit:4;stroke-dasharray:none;stroke-opacity:1"
       x="659.65771"
       y="980.16449"
       id="text3401"
       transform="scale(1.1703901,0.854416)"><tspan
         sodipodi:role="line"
         id="tspan3403"
         x="659.65771"
         y="980.16449"
         style="stroke-width:1">T</tspan></text>
    <text
       xml:space="preserve"
       style="font-style:normal;font-weight:normal;font-size:64.85825348px;font-family:Monaco;opacity:1;fill:#000000;fill-opacity:1;stroke:#ffffff;stroke-width:1;stroke-linecap:butt;stroke-linejoin:miter;stroke-miterlimit:4;stroke-dasharray:none;stroke-opacity:1"
       x="498.97852"
       y="1089.2927"
       id="text3405"
       transform="scale(1.302426,0.7677979)"><tspan
         sodipodi:role="line"
         id="tspan3407"
         x="498.97852"
         y="1089.2927"
         style="stroke-width:1">G</tspan></text>
    <text
       xml:space="preserve"
       style="font-style:normal;font-weight:normal;font-size:64.83191681px;font-family:Monaco;opacity:1;fill:#000000;fill-opacity:1;stroke:#ffffff;stroke-width:1;stroke-linecap:butt;stroke-linejoin:miter;stroke-miterlimit:4;stroke-dasharray:none;stroke-opacity:1"
       x="544.9516"
       y="1089.4856"
       id="text3409"
       transform="scale(1.3026546,0.7676632)"><tspan
         sodipodi:role="line"
         id="tspan3411"
         x="544.9516"
         y="1089.4856"
         style="stroke-width:1">C</tspan></text>
    <path
       style="opacity:1;fill:#ff0000;fill-rule:evenodd;stroke:#000000;stroke-width:2.5;stroke-linecap:round;stroke-linejoin:round;stroke-miterlimit:4;stroke-dasharray:none;stroke-opacity:1"
       d="m 534.5,787.99061 c 0,0 0,-30 0,-40 0,-10 10,-20 20,-20 10,0 20,10 20,20 0,10 0,40 0,40 l -40,0 z"
       id="path3413"
       inkscape:connector-curvature="0" />
    <path
       style="opacity:1;fill:#00ffff;fill-rule:evenodd;stroke:#000000;stroke-width:2.5;stroke-linecap:round;stroke-linejoin:round;stroke-miterlimit:4;stroke-dasharray:none;stroke-opacity:1"
       d="m 534.5,688.02283 c 0,0 0,69.99999 0,59.99999 0,-10 10,-20 20,-20 10,0 20,10 20,20 0,10 0,-59.99999 0,-59.99999 l -40,0 z"
       id="path3415"
       inkscape:connector-curvature="0" />
    <text
       xml:space="preserve"
       style="font-style:normal;font-weight:normal;font-size:61.77735138px;font-family:Monaco;opacity:1;fill:#000000;fill-opacity:1;stroke:#ffffff;stroke-width:1;stroke-linecap:butt;stroke-linejoin:miter;stroke-miterlimit:4;stroke-dasharray:none;stroke-opacity:1"
       x="454.81027"
       y="794.13702"
       id="text3417"
       transform="scale(1.1703901,0.854416)"><tspan
         sodipodi:role="line"
         id="tspan3419"
         x="454.81027"
         y="794.13702"
         style="stroke-width:1">T</tspan></text>
    <text
       xml:space="preserve"
       style="font-style:normal;font-weight:normal;font-size:60.99707413px;font-family:Monaco;opacity:1;fill:#000000;fill-opacity:1;stroke:#ffffff;stroke-width:1;stroke-linecap:butt;stroke-linejoin:miter;stroke-miterlimit:4;stroke-dasharray:none;stroke-opacity:1"
       x="462.32172"
       y="968.20209"
       id="text3421"
       transform="scale(1.1546834,0.8660383)"><tspan
         sodipodi:role="line"
         id="tspan3423"
         x="462.32172"
         y="968.20209"
         style="stroke-width:1">A</tspan></text>
    <path
       style="opacity:1;fill:#0000ff;fill-rule:evenodd;stroke:#000000;stroke-width:2.5;stroke-linecap:round;stroke-linejoin:round;stroke-miterlimit:4;stroke-dasharray:none;stroke-opacity:1"
       d="m 474.5,728.5552 20,30 20,-30 0,-39.99999 -40,0 0,39.99999 z"
       id="path3425"
       inkscape:connector-curvature="0" />
    <path
       style="opacity:1;fill:#ffff00;fill-rule:evenodd;stroke:#000000;stroke-width:2.5;stroke-linecap:round;stroke-linejoin:round;stroke-miterlimit:4;stroke-dasharray:none;stroke-opacity:1"
       d="m 474.5,728.52302 0,60 40,0 0,-60 -20,30 -20,-30 z"
       id="path3427"
       inkscape:connector-curvature="0" />
    <text
       xml:space="preserve"
       style="font-style:normal;font-weight:normal;font-size:64.85825348px;font-family:Monaco;opacity:1;fill:#000000;fill-opacity:1;stroke:#ffffff;stroke-width:1;stroke-linecap:butt;stroke-linejoin:miter;stroke-miterlimit:4;stroke-dasharray:none;stroke-opacity:1"
       x="360.5824"
       y="882.27942"
       id="text3429"
       transform="scale(1.302426,0.7677979)"><tspan
         sodipodi:role="line"
         id="tspan3431"
         x="360.5824"
         y="882.27942"
         style="stroke-width:1">G</tspan></text>
    <text
       xml:space="preserve"
       style="font-style:normal;font-weight:normal;font-size:64.83191681px;font-family:Monaco;opacity:1;fill:#000000;fill-opacity:1;stroke:#ffffff;stroke-width:1;stroke-linecap:butt;stroke-linejoin:miter;stroke-miterlimit:4;stroke-dasharray:none;stroke-opacity:1"
       x="360.9043"
       y="1090.7881"
       id="text3433"
       transform="scale(1.3026546,0.7676632)"><tspan
         sodipodi:role="line"
         id="tspan3435"
         x="360.9043"
         y="1090.7881"
         style="stroke-width:1">C</tspan></text>
    <path
       style="opacity:1;fill:#ff0000;fill-rule:evenodd;stroke:#000000;stroke-width:2.5;stroke-linecap:round;stroke-linejoin:round;stroke-miterlimit:4;stroke-dasharray:none;stroke-opacity:1"
       d="m 414.5,787.9906 c 0,0 0,-30 0,-40 0,-10 10,-20 20,-20 10,0 20,10 20,20 0,10 0,40 0,40 l -40,0 z"
       id="path3437"
       inkscape:connector-curvature="0" />
    <path
       style="opacity:1;fill:#00ffff;fill-rule:evenodd;stroke:#000000;stroke-width:2.5;stroke-linecap:round;stroke-linejoin:round;stroke-miterlimit:4;stroke-dasharray:none;stroke-opacity:1"
       d="m 414.5,688.02282 c 0,0 0,69.99999 0,59.99999 0,-10 10,-20 20,-20 10,0 20,10 20,20 0,10 0,-59.99999 0,-59.99999 l -40,0 z"
       id="path3439"
       inkscape:connector-curvature="0" />
    <text
       xml:space="preserve"
       style="font-style:normal;font-weight:normal;font-size:61.77735138px;font-family:Monaco;opacity:1;fill:#000000;fill-opacity:1;stroke:#ffffff;stroke-width:1;stroke-linecap:butt;stroke-linejoin:miter;stroke-miterlimit:4;stroke-dasharray:none;stroke-opacity:1"
       x="352.2804"
       y="794.13702"
       id="text3441"
       transform="scale(1.1703901,0.854416)"><tspan
         sodipodi:role="line"
         id="tspan3443"
         x="352.2804"
         y="794.13702"
         style="stroke-width:1">T</tspan></text>
    <text
       xml:space="preserve"
       style="font-style:normal;font-weight:normal;font-size:60.99707413px;font-family:Monaco;opacity:1;fill:#000000;fill-opacity:1;stroke:#ffffff;stroke-width:1;stroke-linecap:butt;stroke-linejoin:miter;stroke-miterlimit:4;stroke-dasharray:none;stroke-opacity:1"
       x="358.39716"
       y="968.20209"
       id="text3445"
       transform="scale(1.1546834,0.8660383)"><tspan
         sodipodi:role="line"
         id="tspan3447"
         x="358.39716"
         y="968.20209"
         style="stroke-width:1">A</tspan></text>
    <path
       style="opacity:1;fill:#0000ff;fill-rule:evenodd;stroke:#000000;stroke-width:2.5;stroke-linecap:round;stroke-linejoin:round;stroke-miterlimit:4;stroke-dasharray:none;stroke-opacity:1"
       d="m 353.5,729.52307 20,30 20,-30 0,-39.99999 -40,0 0,39.99999 z"
       id="path3449"
       inkscape:connector-curvature="0" />
    <path
       style="opacity:1;fill:#ffff00;fill-rule:evenodd;stroke:#000000;stroke-width:2.5;stroke-linecap:round;stroke-linejoin:round;stroke-miterlimit:4;stroke-dasharray:none;stroke-opacity:1"
       d="m 353.49996,729.52307 0,60 39.99999,0 0,-60 -20,30 -19.99999,-30 z"
       id="path3451"
       inkscape:connector-curvature="0" />
    <path
       style="opacity:1;fill:#0000ff;fill-rule:evenodd;stroke:#000000;stroke-width:2.5;stroke-linecap:round;stroke-linejoin:round;stroke-miterlimit:4;stroke-dasharray:none;stroke-opacity:1"
       d="m 293.49996,748.99963 20,-30 20,30 0,40 -40,0 0,-40 z"
       id="path3453"
       inkscape:connector-curvature="0" />
    <path
       style="opacity:1;fill:#ffff00;fill-rule:evenodd;stroke:#000000;stroke-width:2.5;stroke-linecap:round;stroke-linejoin:round;stroke-miterlimit:4;stroke-dasharray:none;stroke-opacity:1"
       d="m 293.5,748.99963 0,-59.99999 40,0 0,59.99999 -20,-30 -20,30 z"
       id="path3455"
       inkscape:connector-curvature="0" />
    <text
       xml:space="preserve"
       style="font-style:normal;font-weight:normal;font-size:64.85825348px;font-family:Monaco;opacity:1;fill:#000000;fill-opacity:1;stroke:#ffffff;stroke-width:1;stroke-linecap:butt;stroke-linejoin:miter;stroke-miterlimit:4;stroke-dasharray:none;stroke-opacity:1"
       x="267.67896"
       y="882.23743"
       id="text3457"
       transform="scale(1.302426,0.7677979)"><tspan
         sodipodi:role="line"
         id="tspan3459"
         x="267.67896"
         y="882.23743"
         style="stroke-width:1">G</tspan></text>
    <text
       xml:space="preserve"
       style="font-style:normal;font-weight:normal;font-size:64.83191681px;font-family:Monaco;opacity:1;fill:#000000;fill-opacity:1;stroke:#ffffff;stroke-width:1;stroke-linecap:butt;stroke-linejoin:miter;stroke-miterlimit:4;stroke-dasharray:none;stroke-opacity:1"
       x="221.18996"
       y="882.36255"
       id="text3461"
       transform="scale(1.3026546,0.7676632)"><tspan
         sodipodi:role="line"
         id="tspan3463"
         x="221.18996"
         y="882.36255"
         style="stroke-width:1">C</tspan></text>
    <text
       xml:space="preserve"
       style="font-style:normal;font-weight:normal;font-size:64.85825348px;font-family:Monaco;opacity:1;fill:#000000;fill-opacity:1;stroke:#ffffff;stroke-width:1;stroke-linecap:butt;stroke-linejoin:miter;stroke-miterlimit:4;stroke-dasharray:none;stroke-opacity:1"
       x="221.99542"
       y="1091.8976"
       id="text3465"
       transform="scale(1.302426,0.7677979)"><tspan
         sodipodi:role="line"
         id="tspan3467"
         x="221.99542"
         y="1091.8976"
         style="stroke-width:1">G</tspan></text>
    <text
       xml:space="preserve"
       style="font-style:normal;font-weight:normal;font-size:64.83191681px;font-family:Monaco;opacity:1;fill:#000000;fill-opacity:1;stroke:#ffffff;stroke-width:1;stroke-linecap:butt;stroke-linejoin:miter;stroke-miterlimit:4;stroke-dasharray:none;stroke-opacity:1"
       x="268.01703"
       y="1092.0907"
       id="text3469"
       transform="scale(1.3026546,0.7676632)"><tspan
         sodipodi:role="line"
         id="tspan3471"
         x="268.01703"
         y="1092.0907"
         style="stroke-width:1">C</tspan></text>
    <path
       style="opacity:1;fill:#0000ff;fill-opacity:1;fill-rule:evenodd;stroke:#000000;stroke-width:2.5;stroke-linecap:round;stroke-linejoin:round;stroke-miterlimit:4;stroke-dasharray:none;stroke-opacity:1"
       d="m 233.5,729.52306 20,30 20,-30 0,-39.99999 -40,0 0,39.99999 z"
       id="path3473"
       inkscape:connector-curvature="0" />
    <path
       style="opacity:1;fill:#ffff00;fill-opacity:1;fill-rule:evenodd;stroke:#000000;stroke-width:2.5;stroke-linecap:round;stroke-linejoin:round;stroke-miterlimit:4;stroke-dasharray:none;stroke-opacity:1"
       d="m 233.49995,729.52306 0,60 40,0 0,-60 -20,30 -20,-30 z"
       id="path3475"
       inkscape:connector-curvature="0" />
    <path
       style="opacity:1;fill:#0000ff;fill-opacity:1;fill-rule:evenodd;stroke:#000000;stroke-width:2.5;stroke-linecap:round;stroke-linejoin:round;stroke-miterlimit:4;stroke-dasharray:none;stroke-opacity:1"
       d="m 173.49995,748.99962 19.99999,-30 20,30 0,40 -39.99999,0 0,-40 z"
       id="path3477"
       inkscape:connector-curvature="0" />
    <path
       style="opacity:1;fill:#ffff00;fill-opacity:1;fill-rule:evenodd;stroke:#000000;stroke-width:2.5;stroke-linecap:round;stroke-linejoin:round;stroke-miterlimit:4;stroke-dasharray:none;stroke-opacity:1"
       d="m 173.5,748.99962 0,-59.99999 40,0 0,59.99999 -20,-30 -20,30 z"
       id="path3479"
       inkscape:connector-curvature="0" />
    <text
       xml:space="preserve"
       style="font-style:normal;font-weight:normal;font-size:64.85825348px;font-family:Monaco;opacity:1;fill:#000000;fill-opacity:1;stroke:#ffffff;stroke-width:1;stroke-linecap:butt;stroke-linejoin:miter;stroke-miterlimit:4;stroke-dasharray:none;stroke-opacity:1"
       x="175.54373"
       y="882.23737"
       id="text3481"
       transform="scale(1.302426,0.7677979)"><tspan
         sodipodi:role="line"
         id="tspan3483"
         x="175.54373"
         y="882.23737"
         style="stroke-width:1">G</tspan></text>
    <text
       xml:space="preserve"
       style="font-style:normal;font-weight:normal;font-size:64.83191681px;font-family:Monaco;opacity:1;fill:#000000;fill-opacity:1;stroke:#ffffff;stroke-width:1;stroke-linecap:butt;stroke-linejoin:miter;stroke-miterlimit:4;stroke-dasharray:none;stroke-opacity:1"
       x="129.07037"
       y="882.36255"
       id="text3485"
       transform="scale(1.3026546,0.7676632)"><tspan
         sodipodi:role="line"
         id="tspan3487"
         x="129.07037"
         y="882.36255"
         style="stroke-width:1">C</tspan></text>
    <text
       xml:space="preserve"
       style="font-style:normal;font-weight:normal;font-size:64.85825348px;font-family:Monaco;opacity:1;fill:#000000;fill-opacity:1;stroke:#ffffff;stroke-width:1;stroke-linecap:butt;stroke-linejoin:miter;stroke-miterlimit:4;stroke-dasharray:none;stroke-opacity:1"
       x="129.8597"
       y="1091.8976"
       id="text3489"
       transform="scale(1.302426,0.7677979)"><tspan
         sodipodi:role="line"
         id="tspan3491"
         x="129.8597"
         y="1091.8976"
         style="stroke-width:1">G</tspan></text>
    <text
       xml:space="preserve"
       style="font-style:normal;font-weight:normal;font-size:64.83191681px;font-family:Monaco;opacity:1;fill:#000000;fill-opacity:1;stroke:#ffffff;stroke-width:1;stroke-linecap:butt;stroke-linejoin:miter;stroke-miterlimit:4;stroke-dasharray:none;stroke-opacity:1"
       x="175.89783"
       y="1092.0907"
       id="text3493"
       transform="scale(1.3026546,0.7676632)"><tspan
         sodipodi:role="line"
         id="tspan3495"
         x="175.89783"
         y="1092.0907"
         style="stroke-width:1">C</tspan></text>
    <path
       style="opacity:1;fill:#ff0000;fill-rule:evenodd;stroke:#000000;stroke-width:2.5;stroke-linecap:butt;stroke-linejoin:miter;stroke-miterlimit:4;stroke-dasharray:none;stroke-opacity:1"
       d="m 833.25,687.53194 c 0,0 0,30 0,40 0,10 10,20 20,20 10,0 20,-10 20,-20 0,-10 0,-40 0,-40 l -40,0 z"
       id="path3497"
       inkscape:connector-curvature="0" />
    <path
       style="opacity:1;fill:#00ffff;fill-rule:evenodd;stroke:#000000;stroke-width:2.5;stroke-linecap:butt;stroke-linejoin:miter;stroke-miterlimit:4;stroke-dasharray:none;stroke-opacity:1"
       d="m 833.25,787.49975 c 0,0 0,-70 0,-60 0,10 10,20 20,20 10,0 20,-10 20,-20 0,-10 0,60 0,60 l -40,0 z"
       id="path3499"
       inkscape:connector-curvature="0" />
    <text
       xml:space="preserve"
       style="font-style:normal;font-weight:normal;font-size:60.99707413px;font-family:Monaco;opacity:1;fill:#000000;fill-opacity:1;stroke:#ffffff;stroke-width:1;stroke-linecap:butt;stroke-linejoin:miter;stroke-miterlimit:4;stroke-dasharray:none;stroke-opacity:1"
       x="720.61798"
       y="782.37256"
       id="text3501"
       transform="scale(1.1546834,0.8660383)"><tspan
         sodipodi:role="line"
         id="tspan3503"
         x="720.61798"
         y="782.37256"
         style="stroke-width:1">A</tspan></text>
    <text
       xml:space="preserve"
       style="font-style:normal;font-weight:normal;font-size:61.77735138px;font-family:Monaco;opacity:1;fill:#000000;fill-opacity:1;stroke:#ffffff;stroke-width:1;stroke-linecap:butt;stroke-linejoin:miter;stroke-miterlimit:4;stroke-dasharray:none;stroke-opacity:1"
       x="710.92279"
       y="980.20221"
       id="text3505"
       transform="scale(1.1703901,0.854416)"><tspan
         sodipodi:role="line"
         id="tspan3507"
         x="710.92279"
         y="980.20221"
         style="stroke-width:1">T</tspan></text>
    <path
       style="opacity:1;fill:#0000ff;fill-rule:evenodd;stroke:#000000;stroke-width:2.5;stroke-linecap:butt;stroke-linejoin:miter;stroke-miterlimit:4;stroke-dasharray:none;stroke-opacity:1"
       d="m 953.25,746.99973 20,-30 20,30 0,40 -40,0 0,-40 z"
       id="path3509"
       inkscape:connector-curvature="0" />
    <path
       style="opacity:1;fill:#ffff00;fill-rule:evenodd;stroke:#000000;stroke-width:2.5;stroke-linecap:butt;stroke-linejoin:miter;stroke-miterlimit:4;stroke-dasharray:none;stroke-opacity:1"
       d="m 953.25005,746.99973 0,-60 39.99995,0 0,60 -20,-30 -19.99995,30 z"
       id="path3511"
       inkscape:connector-curvature="0" />
    <text
       xml:space="preserve"
       style="font-style:normal;font-weight:normal;font-size:64.83191681px;font-family:Monaco;opacity:1;fill:#000000;fill-opacity:1;stroke:#ffffff;stroke-width:1;stroke-linecap:butt;stroke-linejoin:miter;stroke-miterlimit:4;stroke-dasharray:none;stroke-opacity:1"
       x="727.6554"
       y="879.75739"
       id="text3513"
       transform="scale(1.3026546,0.7676632)"><tspan
         sodipodi:role="line"
         id="tspan3515"
         x="727.6554"
         y="879.75739"
         style="stroke-width:1">C</tspan></text>
    <text
       xml:space="preserve"
       style="font-style:normal;font-weight:normal;font-size:64.85825348px;font-family:Monaco;opacity:1;fill:#000000;fill-opacity:1;stroke:#ffffff;stroke-width:1;stroke-linecap:butt;stroke-linejoin:miter;stroke-miterlimit:4;stroke-dasharray:none;stroke-opacity:1"
       x="728.54852"
       y="1089.2926"
       id="text3517"
       transform="scale(1.302426,0.7677979)"><tspan
         sodipodi:role="line"
         id="tspan3519"
         x="728.54852"
         y="1089.2926"
         style="stroke-width:1">G</tspan></text>
    <path
       style="opacity:1;fill:#0000ff;fill-rule:evenodd;stroke:#000000;stroke-width:2.5;stroke-linecap:butt;stroke-linejoin:miter;stroke-miterlimit:4;stroke-dasharray:none;stroke-opacity:1"
       d="m 893.25005,727.52316 20,30 20,-30 0,-40 -40,0 0,40 z"
       id="path3521"
       inkscape:connector-curvature="0" />
    <path
       style="opacity:1;fill:#ffff00;fill-rule:evenodd;stroke:#000000;stroke-width:2.5;stroke-linecap:butt;stroke-linejoin:miter;stroke-miterlimit:4;stroke-dasharray:none;stroke-opacity:1"
       d="m 893.25,727.52316 0,60 40,0 0,-60 -20,30 -20,-30 z"
       id="path3523"
       inkscape:connector-curvature="0" />
    <text
       xml:space="preserve"
       style="font-style:normal;font-weight:normal;font-size:64.85825348px;font-family:Monaco;opacity:1;fill:#000000;fill-opacity:1;stroke:#ffffff;stroke-width:1;stroke-linecap:butt;stroke-linejoin:miter;stroke-miterlimit:4;stroke-dasharray:none;stroke-opacity:1"
       x="682.09747"
       y="879.63239"
       id="text3525"
       transform="scale(1.302426,0.7677979)"><tspan
         sodipodi:role="line"
         id="tspan3527"
         x="682.09747"
         y="879.63239"
         style="stroke-width:1">G</tspan></text>
    <text
       xml:space="preserve"
       style="font-style:normal;font-weight:normal;font-size:64.83191681px;font-family:Monaco;opacity:1;fill:#000000;fill-opacity:1;stroke:#ffffff;stroke-width:1;stroke-linecap:butt;stroke-linejoin:miter;stroke-miterlimit:4;stroke-dasharray:none;stroke-opacity:1"
       x="682.36328"
       y="1089.4856"
       id="text3529"
       transform="scale(1.3026546,0.7676632)"><tspan
         sodipodi:role="line"
         id="tspan3531"
         x="682.36328"
         y="1089.4856"
         style="stroke-width:1">C</tspan></text>
    <path
       style="opacity:1;fill:#0000ff;fill-rule:evenodd;stroke:#000000;stroke-width:2.5;stroke-linecap:butt;stroke-linejoin:miter;stroke-miterlimit:4;stroke-dasharray:none;stroke-opacity:1"
       d="m 1013.25,746.99996 20,-30 20,30 0,40 -40,0 0,-40 z"
       id="path3533"
       inkscape:connector-curvature="0" />
    <path
       style="opacity:1;fill:#ffff00;fill-rule:evenodd;stroke:#000000;stroke-width:2.5;stroke-linecap:butt;stroke-linejoin:miter;stroke-miterlimit:4;stroke-dasharray:none;stroke-opacity:1"
       d="m 1013.25,746.99996 0,-60 40,0 0,60 -20,-30 -20,30 z"
       id="path3535"
       inkscape:connector-curvature="0" />
    <text
       xml:space="preserve"
       style="font-style:normal;font-weight:normal;font-size:64.83191681px;font-family:Monaco;opacity:1;fill:#000000;fill-opacity:1;stroke:#ffffff;stroke-width:1;stroke-linecap:butt;stroke-linejoin:miter;stroke-miterlimit:4;stroke-dasharray:none;stroke-opacity:1"
       x="773.71521"
       y="879.75769"
       id="text3537"
       transform="scale(1.3026546,0.7676632)"><tspan
         sodipodi:role="line"
         id="tspan3539"
         x="773.71521"
         y="879.75769"
         style="stroke-width:1">C</tspan></text>
    <text
       xml:space="preserve"
       style="font-style:normal;font-weight:normal;font-size:64.85825348px;font-family:Monaco;opacity:1;fill:#000000;fill-opacity:1;stroke:#ffffff;stroke-width:1;stroke-linecap:butt;stroke-linejoin:miter;stroke-miterlimit:4;stroke-dasharray:none;stroke-opacity:1"
       x="774.61633"
       y="1089.2928"
       id="text3541"
       transform="scale(1.302426,0.7677979)"><tspan
         sodipodi:role="line"
         id="tspan3543"
         x="774.61633"
         y="1089.2928"
         style="stroke-width:1">G</tspan></text>
    <path
       style="opacity:1;fill:#0000ff;fill-rule:evenodd;stroke:#000000;stroke-width:2.5;stroke-linecap:butt;stroke-linejoin:miter;stroke-miterlimit:4;stroke-dasharray:none;stroke-opacity:1"
       d="m 1072.2409,747.9997 20,-30 20,30 0,40 -40,0 0,-40 z"
       id="path3545"
       inkscape:connector-curvature="0" />
    <path
       style="opacity:1;fill:#ffff00;fill-rule:evenodd;stroke:#000000;stroke-width:2.5;stroke-linecap:butt;stroke-linejoin:miter;stroke-miterlimit:4;stroke-dasharray:none;stroke-opacity:1"
       d="m 1072.2409,747.9997 0,-60 40,0 0,60 -20,-30 -20,30 z"
       id="path3547"
       inkscape:connector-curvature="0" />
    <text
       xml:space="preserve"
       style="font-style:normal;font-weight:normal;font-size:64.83191681px;font-family:Monaco;opacity:1;fill:#000000;fill-opacity:1;stroke:#ffffff;stroke-width:1;stroke-linecap:butt;stroke-linejoin:miter;stroke-miterlimit:4;stroke-dasharray:none;stroke-opacity:1"
       x="819.00031"
       y="881.06"
       id="text3549"
       transform="scale(1.3026546,0.7676632)"><tspan
         sodipodi:role="line"
         id="tspan3551"
         x="819.00031"
         y="881.06"
         style="stroke-width:1">C</tspan></text>
    <text
       xml:space="preserve"
       style="font-style:normal;font-weight:normal;font-size:64.85825348px;font-family:Monaco;opacity:1;fill:#000000;fill-opacity:1;stroke:#ffffff;stroke-width:1;stroke-linecap:butt;stroke-linejoin:miter;stroke-miterlimit:4;stroke-dasharray:none;stroke-opacity:1"
       x="819.90942"
       y="1090.595"
       id="text3553"
       transform="scale(1.302426,0.7677979)"><tspan
         sodipodi:role="line"
         id="tspan3555"
         x="819.90942"
         y="1090.595"
         style="stroke-width:1">G</tspan></text>
    <path
       style="opacity:1;fill:#ff0000;fill-opacity:1;fill-rule:evenodd;stroke:#000000;stroke-width:2.5;stroke-linecap:butt;stroke-linejoin:miter;stroke-miterlimit:4;stroke-dasharray:none;stroke-opacity:1"
       d="m 1132.2499,687.49963 c 0,0 0,30 0,40 0,10 10,20 20,20 10,0 20,-10 20,-20 0,-10 0,-40 0,-40 l -40,0 z"
       id="path3557"
       inkscape:connector-curvature="0" />
    <path
       style="opacity:1;fill:#00ffff;fill-opacity:1;fill-rule:evenodd;stroke:#000000;stroke-width:2.5;stroke-linecap:butt;stroke-linejoin:miter;stroke-miterlimit:4;stroke-dasharray:none;stroke-opacity:1"
       d="m 1132.2499,787.46744 c 0,0 0,-70 0,-60 0,10 10,20 20,20 10,0 20,-10 20,-20 0,-10 0,60 0,60 l -40,0 z"
       id="path3559"
       inkscape:connector-curvature="0" />
    <text
       xml:space="preserve"
       style="font-style:normal;font-weight:normal;font-size:60.99707413px;font-family:Monaco;opacity:1;fill:#000000;fill-opacity:1;stroke:#ffffff;stroke-width:1;stroke-linecap:butt;stroke-linejoin:miter;stroke-miterlimit:4;stroke-dasharray:none;stroke-opacity:1"
       x="979.56342"
       y="782.33527"
       id="text3561"
       transform="scale(1.1546834,0.8660383)"><tspan
         sodipodi:role="line"
         id="tspan3563"
         x="979.56342"
         y="782.33527"
         style="stroke-width:1">A</tspan></text>
    <text
       xml:space="preserve"
       style="font-style:normal;font-weight:normal;font-size:61.77735138px;font-family:Monaco;opacity:1;fill:#000000;fill-opacity:1;stroke:#ffffff;stroke-width:1;stroke-linecap:butt;stroke-linejoin:miter;stroke-miterlimit:4;stroke-dasharray:none;stroke-opacity:1"
       x="966.39307"
       y="980.16449"
       id="text3565"
       transform="scale(1.1703901,0.854416)"><tspan
         sodipodi:role="line"
         id="tspan3567"
         x="966.39307"
         y="980.16449"
         style="stroke-width:1">T</tspan></text>
    <path
       style="opacity:1;fill:#0000ff;fill-opacity:1;fill-rule:evenodd;stroke:#000000;stroke-width:2.5;stroke-linecap:round;stroke-linejoin:round;stroke-miterlimit:4;stroke-dasharray:none;stroke-opacity:1"
       d="m 114.50005,728.52308 20,30 20,-30 0,-39.99999 -40,0 0,39.99999 z"
       id="path3569"
       inkscape:connector-curvature="0" />
    <path
       style="opacity:1;fill:#ffff00;fill-opacity:1;fill-rule:evenodd;stroke:#000000;stroke-width:2.5;stroke-linecap:round;stroke-linejoin:round;stroke-miterlimit:4;stroke-dasharray:none;stroke-opacity:1"
       d="m 114.5,728.52308 0,60 39.99999,0 0,-60 -19.99999,30 -20,-30 z"
       id="path3571"
       inkscape:connector-curvature="0" />
    <text
       xml:space="preserve"
       style="font-style:normal;font-weight:normal;font-size:64.85825348px;font-family:Monaco;opacity:1;fill:#000000;fill-opacity:1;stroke:#ffffff;stroke-width:1;stroke-linecap:butt;stroke-linejoin:miter;stroke-miterlimit:4;stroke-dasharray:none;stroke-opacity:1"
       x="84.175797"
       y="880.93494"
       id="text3573"
       transform="scale(1.302426,0.7677979)"><tspan
         sodipodi:role="line"
         id="tspan3575"
         x="84.175797"
         y="880.93494"
         style="stroke-width:1">G</tspan></text>
    <text
       xml:space="preserve"
       style="font-style:normal;font-weight:normal;font-size:64.83191681px;font-family:Monaco;opacity:1;fill:#000000;fill-opacity:1;stroke:#ffffff;stroke-width:1;stroke-linecap:butt;stroke-linejoin:miter;stroke-miterlimit:4;stroke-dasharray:none;stroke-opacity:1"
       x="84.545921"
       y="1090.7881"
       id="text3577"
       transform="scale(1.3026546,0.7676632)"><tspan
         sodipodi:role="line"
         id="tspan3579"
         x="84.545921"
         y="1090.7881"
         style="stroke-width:1">C</tspan></text>
    <path
       style="opacity:1;fill:#ff0000;fill-opacity:1;fill-rule:evenodd;stroke:#000000;stroke-width:2.5;stroke-linecap:round;stroke-linejoin:round;stroke-miterlimit:4;stroke-dasharray:none;stroke-opacity:1"
       d="m 54.5,787.99056 c 0,0 0,-30 0,-40 0,-10 10,-20 20,-20 10,0 20,10 20,20 0,10 0,40 0,40 l -40,0 z"
       id="path3581"
       inkscape:connector-curvature="0" />
    <path
       style="opacity:1;fill:#00ffff;fill-opacity:1;fill-rule:evenodd;stroke:#000000;stroke-width:2.5;stroke-linecap:round;stroke-linejoin:round;stroke-miterlimit:4;stroke-dasharray:none;stroke-opacity:1"
       d="m 54.5,688.02278 c 0,0 0,69.99999 0,59.99999 0,-10 10,-20 20,-20 10,0 20,10 20,20 0,10 0,-59.99999 0,-59.99999 l -40,0 z"
       id="path3583"
       inkscape:connector-curvature="0" />
    <text
       xml:space="preserve"
       style="font-style:normal;font-weight:normal;font-size:61.77735138px;font-family:Monaco;opacity:1;fill:#000000;fill-opacity:1;stroke:#ffffff;stroke-width:1;stroke-linecap:butt;stroke-linejoin:miter;stroke-miterlimit:4;stroke-dasharray:none;stroke-opacity:1"
       x="44.69059"
       y="794.13696"
       id="text3585"
       transform="scale(1.1703901,0.854416)"><tspan
         sodipodi:role="line"
         id="tspan3587"
         x="44.69059"
         y="794.13696"
         style="stroke-width:1">T</tspan></text>
    <text
       xml:space="preserve"
       style="font-style:normal;font-weight:normal;font-size:60.99707413px;font-family:Monaco;opacity:1;fill:#000000;fill-opacity:1;stroke:#ffffff;stroke-width:1;stroke-linecap:butt;stroke-linejoin:miter;stroke-miterlimit:4;stroke-dasharray:none;stroke-opacity:1"
       x="46.622574"
       y="968.20209"
       id="text3589"
       transform="scale(1.1546834,0.8660383)"><tspan
         sodipodi:role="line"
         id="tspan3591"
         x="46.622574"
         y="968.20209"
         style="stroke-width:1">A</tspan></text>
    <path
       style="opacity:1;fill:#0000ff;fill-rule:evenodd;stroke:#000000;stroke-width:2.5;stroke-linecap:butt;stroke-linejoin:miter;stroke-miterlimit:4;stroke-dasharray:none;stroke-opacity:1"
       d="m 1192.5091,746.99952 20,-30 20,30 0,40 -40,0 0,-40 z"
       id="path3593"
       inkscape:connector-curvature="0" />
    <path
       style="opacity:1;fill:#ffff00;fill-opacity:1;fill-rule:evenodd;stroke:#000000;stroke-width:2.5;stroke-linecap:butt;stroke-linejoin:miter;stroke-miterlimit:4;stroke-dasharray:none;stroke-opacity:1"
       d="m 1192.5091,746.99952 0,-60 40,0 0,60 -20,-30 -20,30 z"
       id="path3595"
       inkscape:connector-curvature="0" />
    <text
       xml:space="preserve"
       style="font-style:normal;font-weight:normal;font-size:64.83191681px;font-family:Monaco;opacity:1;fill:#000000;fill-opacity:1;stroke:#ffffff;stroke-width:1;stroke-linecap:butt;stroke-linejoin:miter;stroke-miterlimit:4;stroke-dasharray:none;stroke-opacity:1"
       x="911.32587"
       y="879.75714"
       id="text3597"
       transform="scale(1.3026546,0.7676632)"><tspan
         sodipodi:role="line"
         id="tspan3599"
         x="911.32587"
         y="879.75714"
         style="stroke-width:1">C</tspan></text>
    <text
       xml:space="preserve"
       style="font-style:normal;font-weight:normal;font-size:64.85825348px;font-family:Monaco;opacity:1;fill:#000000;fill-opacity:1;stroke:#ffffff;stroke-width:1;stroke-linecap:butt;stroke-linejoin:miter;stroke-miterlimit:4;stroke-dasharray:none;stroke-opacity:1"
       x="912.2511"
       y="1089.2922"
       id="text3601"
       transform="scale(1.302426,0.7677979)"><tspan
         sodipodi:role="line"
         id="tspan3603"
         x="912.2511"
         y="1089.2922"
         style="stroke-width:1">G</tspan></text>
    <path
       style="opacity:1;fill:#0000ff;fill-rule:evenodd;stroke:#000000;stroke-width:2.5;stroke-linecap:butt;stroke-linejoin:miter;stroke-miterlimit:4;stroke-dasharray:none;stroke-opacity:1"
       d="m 1251.4999,747.99926 20,-30 20,30 0,40 -40,0 0,-40 z"
       id="path3605"
       inkscape:connector-curvature="0" />
    <path
       style="opacity:1;fill:#ffff00;fill-rule:evenodd;stroke:#000000;stroke-width:2.5;stroke-linecap:butt;stroke-linejoin:miter;stroke-miterlimit:4;stroke-dasharray:none;stroke-opacity:1"
       d="m 1251.5,747.99926 0,-60 40,0 0,60 -20,-30 -20,30 z"
       id="path3607"
       inkscape:connector-curvature="0" />
    <text
       xml:space="preserve"
       style="font-style:normal;font-weight:normal;font-size:64.83191681px;font-family:Monaco;opacity:1;fill:#000000;fill-opacity:1;stroke:#ffffff;stroke-width:1;stroke-linecap:butt;stroke-linejoin:miter;stroke-miterlimit:4;stroke-dasharray:none;stroke-opacity:1"
       x="956.61096"
       y="881.05945"
       id="text3609"
       transform="scale(1.3026546,0.7676632)"><tspan
         sodipodi:role="line"
         id="tspan3611"
         x="956.61096"
         y="881.05945"
         style="stroke-width:1">C</tspan></text>
    <text
       xml:space="preserve"
       style="font-style:normal;font-weight:normal;font-size:64.85825348px;font-family:Monaco;opacity:1;fill:#000000;fill-opacity:1;stroke:#ffffff;stroke-width:1;stroke-linecap:butt;stroke-linejoin:miter;stroke-miterlimit:4;stroke-dasharray:none;stroke-opacity:1"
       x="957.54419"
       y="1090.5944"
       id="text3613"
       transform="scale(1.302426,0.7677979)"><tspan
         sodipodi:role="line"
         id="tspan3615"
         x="957.54419"
         y="1090.5944"
         style="stroke-width:1">G</tspan></text>
    <path
       style="opacity:1;fill:#ff0000;fill-rule:evenodd;stroke:#000000;stroke-width:2.5;stroke-linecap:round;stroke-linejoin:round;stroke-miterlimit:4;stroke-dasharray:none;stroke-opacity:1"
       d="m 1314,785.49054 c 0,0 0,-30 0,-40 0,-10 10,-20 20,-20 10,0 20,10 20,20 0,10 0,40 0,40 l -40,0 z"
       id="path3617"
       inkscape:connector-curvature="0" />
    <path
       style="opacity:1;fill:#00ffff;fill-rule:evenodd;stroke:#000000;stroke-width:2.5;stroke-linecap:round;stroke-linejoin:round;stroke-miterlimit:4;stroke-dasharray:none;stroke-opacity:1"
       d="m 1314,685.52275 c 0,0 0,70 0,60 0,-10 10,-20 20,-20 10,0 20,10 20,20 0,10 0,-60 0,-60 l -40,0 z"
       id="path3619"
       inkscape:connector-curvature="0" />
    <text
       xml:space="preserve"
       style="font-style:normal;font-weight:normal;font-size:61.77735138px;font-family:Monaco;opacity:1;fill:#000000;fill-opacity:1;stroke:#ffffff;stroke-width:1;stroke-linecap:butt;stroke-linejoin:miter;stroke-miterlimit:4;stroke-dasharray:none;stroke-opacity:1"
       x="1120.8269"
       y="791.21112"
       id="text3621"
       transform="scale(1.1703901,0.854416)"><tspan
         sodipodi:role="line"
         id="tspan3623"
         x="1120.8269"
         y="791.21112"
         style="stroke:#ffffff;stroke-width:1;stroke-miterlimit:4;stroke-dasharray:none;stroke-opacity:1">T</tspan></text>
    <text
       xml:space="preserve"
       style="font-style:normal;font-weight:normal;font-size:60.99707413px;font-family:Monaco;opacity:1;fill:#000000;fill-opacity:1;stroke:#ffffff;stroke-width:1;stroke-linecap:butt;stroke-linejoin:miter;stroke-miterlimit:4;stroke-dasharray:none;stroke-opacity:1"
       x="1137.3987"
       y="965.31555"
       id="text3625"
       transform="scale(1.1546834,0.8660383)"><tspan
         sodipodi:role="line"
         id="tspan3627"
         x="1137.3987"
         y="965.31555"
         style="stroke:#ffffff;stroke-width:1;stroke-miterlimit:4;stroke-dasharray:none;stroke-opacity:1">A</tspan></text>
  </g>
</svg>
