<?xml version="1.0" encoding="UTF-8" standalone="no"?>
<!-- Created with Inkscape (http://www.inkscape.org/) -->

<svg
   xmlns:dc="http://purl.org/dc/elements/1.1/"
   xmlns:cc="http://creativecommons.org/ns#"
   xmlns:rdf="http://www.w3.org/1999/02/22-rdf-syntax-ns#"
   xmlns:svg="http://www.w3.org/2000/svg"
   xmlns="http://www.w3.org/2000/svg"
   xmlns:sodipodi="http://sodipodi.sourceforge.net/DTD/sodipodi-0.dtd"
   xmlns:inkscape="http://www.inkscape.org/namespaces/inkscape"
   width="46.365738mm"
   height="24.495638mm"
   viewBox="0 0 164.28805 86.795567"
   id="svg4200"
   version="1.1"
   inkscape:version="0.91pre3 r13670"
   sodipodi:docname="distance.svg">
  <defs
     id="defs4202" />
  <sodipodi:namedview
     id="base"
     pagecolor="#ffffff"
     bordercolor="#666666"
     borderopacity="1.0"
     inkscape:pageopacity="0.0"
     inkscape:pageshadow="2"
     inkscape:zoom="1.4"
     inkscape:cx="0.12805789"
     inkscape:cy="-50.930647"
     inkscape:document-units="px"
     inkscape:current-layer="layer1"
     showgrid="false"
     inkscape:window-width="1200"
     inkscape:window-height="1898"
     inkscape:window-x="-8"
     inkscape:window-y="-8"
     inkscape:window-maximized="1"
     fit-margin-top="0"
     fit-margin-left="0"
     fit-margin-right="0"
     fit-margin-bottom="0" />
  <metadata
     id="metadata4205">
    <rdf:RDF>
      <cc:Work
         rdf:about="">
        <dc:format>image/svg+xml</dc:format>
        <dc:type
           rdf:resource="http://purl.org/dc/dcmitype/StillImage" />
        <dc:title></dc:title>
      </cc:Work>
    </rdf:RDF>
  </metadata>
  <g
     inkscape:label="Ebene 1"
     inkscape:groupmode="layer"
     id="layer1"
     transform="translate(-28.61549,-54.030235)">
    <g
       id="g4158"
       style="stroke:#4a5c66;stroke-opacity:1"
       transform="translate(-110.91184,-35.404059)">
      <path
         inkscape:connector-curvature="0"
         id="path4152"
         d="m 150.51273,148.27568 0,21.97081"
         style="fill:none;fill-rule:evenodd;stroke:#4a5c66;stroke-width:1px;stroke-linecap:butt;stroke-linejoin:miter;stroke-opacity:1" />
      <path
         style="fill:none;fill-rule:evenodd;stroke:#4a5c66;stroke-width:1px;stroke-linecap:butt;stroke-linejoin:miter;stroke-opacity:1"
         d="m 161.49814,159.26108 -21.97081,0"
         id="path4156"
         inkscape:connector-curvature="0" />
    </g>
    <g
       transform="translate(0.9625523,-94.245445)"
       style="stroke:#4a5c66;stroke-opacity:1"
       id="g4229">
      <path
         style="fill:none;fill-rule:evenodd;stroke:#4a5c66;stroke-width:1px;stroke-linecap:butt;stroke-linejoin:miter;stroke-opacity:1"
         d="m 150.51273,148.27568 0,21.97081"
         id="path4231"
         inkscape:connector-curvature="0" />
      <path
         inkscape:connector-curvature="0"
         id="path4233"
         d="m 161.49814,159.26108 -21.97081,0"
         style="fill:none;fill-rule:evenodd;stroke:#4a5c66;stroke-width:1px;stroke-linecap:butt;stroke-linejoin:miter;stroke-opacity:1" />
    </g>
    <path
       style="fill:none;fill-rule:evenodd;stroke:#4a5c66;stroke-width:1;stroke-linecap:butt;stroke-linejoin:miter;stroke-miterlimit:4;stroke-dasharray:4, 4;stroke-dashoffset:0;stroke-opacity:1"
       d="M 39.648487,124.03201 151.52288,64.433014"
       id="path4235"
       inkscape:connector-curvature="0" />
    <text
       xml:space="preserve"
       style="font-style:normal;font-variant:normal;font-weight:normal;font-stretch:normal;font-size:17.5px;line-height:125%;font-family:'Calligraph421 BT';-inkscape-font-specification:'Calligraph421 BT';letter-spacing:0px;word-spacing:0px;fill:#000000;fill-opacity:1;stroke:none;stroke-width:1px;stroke-linecap:butt;stroke-linejoin:miter;stroke-opacity:1"
       x="89.398499"
       y="88.676674"
       id="text4777"
       sodipodi:linespacing="125%"><tspan
         sodipodi:role="line"
         id="tspan4779"
         x="89.398499"
         y="88.676674"
         style="font-style:normal;font-variant:normal;font-weight:normal;font-stretch:normal;font-size:15px;font-family:Arial;-inkscape-font-specification:Arial">?</tspan></text>
    <text
       sodipodi:linespacing="125%"
       id="text4781"
       y="79.080223"
       x="153.54318"
       style="font-style:normal;font-variant:normal;font-weight:normal;font-stretch:normal;font-size:17.5px;line-height:125%;font-family:'Calligraph421 BT';-inkscape-font-specification:'Calligraph421 BT';letter-spacing:0px;word-spacing:0px;fill:#000000;fill-opacity:1;stroke:none;stroke-width:1px;stroke-linecap:butt;stroke-linejoin:miter;stroke-opacity:1"
       xml:space="preserve"><tspan
         style="font-style:normal;font-variant:normal;font-weight:normal;font-stretch:normal;font-size:15px;font-family:Arial;-inkscape-font-specification:Arial"
         y="79.080223"
         x="153.54318"
         id="tspan4783"
         sodipodi:role="line">(x<tspan
   style="font-size:64.99999762%;baseline-shift:sub"
   id="tspan4799">2</tspan>,y<tspan
   style="font-size:64.99999762%;baseline-shift:sub"
   id="tspan4797">2</tspan>)</tspan></text>
    <text
       xml:space="preserve"
       style="font-style:normal;font-variant:normal;font-weight:normal;font-stretch:normal;font-size:17.5px;line-height:125%;font-family:'Calligraph421 BT';-inkscape-font-specification:'Calligraph421 BT';letter-spacing:0px;word-spacing:0px;fill:#000000;fill-opacity:1;stroke:none;stroke-width:1px;stroke-linecap:butt;stroke-linejoin:miter;stroke-opacity:1"
       x="41.668789"
       y="137.66907"
       id="text4789"
       sodipodi:linespacing="125%"><tspan
         sodipodi:role="line"
         id="tspan4791"
         x="41.668789"
         y="137.66907"
         style="font-style:normal;font-variant:normal;font-weight:normal;font-stretch:normal;font-size:15px;font-family:Arial;-inkscape-font-specification:Arial">(x<tspan
   id="tspan4793"
   style="font-size:64.99999762%;baseline-shift:sub">1</tspan>,y<tspan
   id="tspan4795"
   style="font-size:64.99999762%;baseline-shift:sub">1</tspan>)</tspan></text>
  </g>
</svg>
