<?xml version="1.0" encoding="UTF-8" standalone="no"?>
<!-- Created with Inkscape (http://www.inkscape.org/) -->

<svg
   xmlns:dc="http://purl.org/dc/elements/1.1/"
   xmlns:cc="http://creativecommons.org/ns#"
   xmlns:rdf="http://www.w3.org/1999/02/22-rdf-syntax-ns#"
   xmlns:svg="http://www.w3.org/2000/svg"
   xmlns="http://www.w3.org/2000/svg"
   xmlns:sodipodi="http://sodipodi.sourceforge.net/DTD/sodipodi-0.dtd"
   xmlns:inkscape="http://www.inkscape.org/namespaces/inkscape"
   width="140.50029mm"
   height="158.7655mm"
   viewBox="0 0 497.83567 562.55493"
   id="svg4249"
   version="1.1"
   inkscape:version="0.91pre3 r13670"
   sodipodi:docname="pde_java.svg">
  <defs
     id="defs4251" />
  <sodipodi:namedview
     id="base"
     pagecolor="#ffffff"
     bordercolor="#666666"
     borderopacity="1.0"
     inkscape:pageopacity="0.0"
     inkscape:pageshadow="2"
     inkscape:zoom="0.7"
     inkscape:cx="-169.64966"
     inkscape:cy="390.51596"
     inkscape:document-units="px"
     inkscape:current-layer="layer1"
     showgrid="false"
     fit-margin-top="0"
     fit-margin-left="0"
     fit-margin-right="0"
     fit-margin-bottom="0"
     inkscape:window-width="1600"
     inkscape:window-height="838"
     inkscape:window-x="1192"
     inkscape:window-y="1012"
     inkscape:window-maximized="1" />
  <metadata
     id="metadata4254">
    <rdf:RDF>
      <cc:Work
         rdf:about="">
        <dc:format>image/svg+xml</dc:format>
        <dc:type
           rdf:resource="http://purl.org/dc/dcmitype/StillImage" />
        <dc:title></dc:title>
      </cc:Work>
    </rdf:RDF>
  </metadata>
  <g
     inkscape:label="Ebene 1"
     inkscape:groupmode="layer"
     id="layer1"
     transform="translate(-340,-103.04284)">
    <text
       xml:space="preserve"
       style="font-style:normal;font-variant:normal;font-weight:normal;font-stretch:normal;font-size:17.5px;line-height:125%;font-family:'Calligraph421 BT';-inkscape-font-specification:'Calligraph421 BT';letter-spacing:0px;word-spacing:0px;fill:#000000;fill-opacity:1;stroke:none;stroke-width:1px;stroke-linecap:butt;stroke-linejoin:miter;stroke-opacity:1"
       x="340"
       y="115.21935"
       id="text4797"
       sodipodi:linespacing="125%"><tspan
         sodipodi:role="line"
         x="340"
         y="115.21935"
         id="tspan4823"
         style="font-style:normal;font-variant:normal;font-weight:normal;font-stretch:normal;font-family:consolas;-inkscape-font-specification:consolas;fill:#0000ff;fill-opacity:1">import ...</tspan><tspan
         sodipodi:role="line"
         x="340"
         y="137.09436"
         id="tspan4825"
         style="font-style:normal;font-variant:normal;font-weight:normal;font-stretch:normal;font-family:consolas;-inkscape-font-specification:consolas;fill:#0000ff;fill-opacity:1" /><tspan
         sodipodi:role="line"
         x="340"
         y="158.96936"
         id="tspan4827"
         style="font-style:normal;font-variant:normal;font-weight:normal;font-stretch:normal;font-family:consolas;-inkscape-font-specification:consolas;fill:#0000ff;fill-opacity:1">public class PdeJava extends PApplet {</tspan><tspan
         sodipodi:role="line"
         x="340"
         y="180.84436"
         id="tspan4829"
         style="font-style:normal;font-variant:normal;font-weight:normal;font-stretch:normal;font-family:consolas;-inkscape-font-specification:consolas" /><tspan
         sodipodi:role="line"
         x="340"
         y="202.71936"
         id="tspan4831"
         style="font-style:normal;font-variant:normal;font-weight:normal;font-stretch:normal;font-family:consolas;-inkscape-font-specification:consolas">float x,y;</tspan><tspan
         sodipodi:role="line"
         x="340"
         y="224.59436"
         id="tspan4833"
         style="font-style:normal;font-variant:normal;font-weight:normal;font-stretch:normal;font-family:consolas;-inkscape-font-specification:consolas"><tspan
   style="fill:#0000ff;fill-opacity:1"
   id="tspan5155">public</tspan> void setup() {</tspan><tspan
         sodipodi:role="line"
         x="340"
         y="246.46936"
         id="tspan4835"
         style="font-style:normal;font-variant:normal;font-weight:normal;font-stretch:normal;font-family:consolas;-inkscape-font-specification:consolas">  size(400,300);</tspan><tspan
         sodipodi:role="line"
         x="340"
         y="268.34436"
         id="tspan4837"
         style="font-style:normal;font-variant:normal;font-weight:normal;font-stretch:normal;font-family:consolas;-inkscape-font-specification:consolas">  x = width/2.0<tspan
   style="fill:#0000fd;fill-opacity:1"
   id="tspan4965">f</tspan>;</tspan><tspan
         sodipodi:role="line"
         x="340"
         y="290.21936"
         id="tspan4839"
         style="font-style:normal;font-variant:normal;font-weight:normal;font-stretch:normal;font-family:consolas;-inkscape-font-specification:consolas">  y = height/2.0<tspan
   style="fill:#0000ff;fill-opacity:1"
   id="tspan4983">f</tspan>;</tspan><tspan
         sodipodi:role="line"
         x="340"
         y="312.09436"
         id="tspan4841"
         style="font-style:normal;font-variant:normal;font-weight:normal;font-stretch:normal;font-family:consolas;-inkscape-font-specification:consolas">  background(0);</tspan><tspan
         sodipodi:role="line"
         x="340"
         y="333.96936"
         id="tspan4843"
         style="font-style:normal;font-variant:normal;font-weight:normal;font-stretch:normal;font-family:consolas;-inkscape-font-specification:consolas">  noStroke();</tspan><tspan
         sodipodi:role="line"
         x="340"
         y="355.84436"
         id="tspan4845"
         style="font-style:normal;font-variant:normal;font-weight:normal;font-stretch:normal;font-family:consolas;-inkscape-font-specification:consolas">}</tspan><tspan
         sodipodi:role="line"
         x="340"
         y="377.71936"
         id="tspan4847"
         style="font-style:normal;font-variant:normal;font-weight:normal;font-stretch:normal;font-family:consolas;-inkscape-font-specification:consolas"><tspan
   style="fill:#0000ff;fill-opacity:1"
   id="tspan5145">public</tspan> void draw() {</tspan><tspan
         sodipodi:role="line"
         x="340"
         y="399.59436"
         id="tspan4849"
         style="font-style:normal;font-variant:normal;font-weight:normal;font-stretch:normal;font-family:consolas;-inkscape-font-specification:consolas">  x += (random(1)-0.5<tspan
   style="fill:#0000ff;fill-opacity:1"
   id="tspan5007">f</tspan>);</tspan><tspan
         sodipodi:role="line"
         x="340"
         y="421.46936"
         id="tspan4851"
         style="font-style:normal;font-variant:normal;font-weight:normal;font-stretch:normal;font-family:consolas;-inkscape-font-specification:consolas">  y += (random(1)-0.5<tspan
   style="fill:#0000ff;fill-opacity:1"
   id="tspan5059">f</tspan>);</tspan><tspan
         sodipodi:role="line"
         x="340"
         y="443.34436"
         id="tspan4853"
         style="font-style:normal;font-variant:normal;font-weight:normal;font-stretch:normal;font-family:consolas;-inkscape-font-specification:consolas">  ellipse(x,y,5,5);</tspan><tspan
         sodipodi:role="line"
         x="340"
         y="465.21936"
         id="tspan4855"
         style="font-style:normal;font-variant:normal;font-weight:normal;font-stretch:normal;font-family:consolas;-inkscape-font-specification:consolas">}</tspan><tspan
         sodipodi:role="line"
         x="340"
         y="487.09436"
         id="tspan4857"
         style="font-style:normal;font-variant:normal;font-weight:normal;font-stretch:normal;font-family:consolas;-inkscape-font-specification:consolas;fill:#0000ff;fill-opacity:1">static public void main(String[] passedArgs) {</tspan><tspan
         sodipodi:role="line"
         x="340"
         y="508.96936"
         id="tspan4859"
         style="font-style:normal;font-variant:normal;font-weight:normal;font-stretch:normal;font-family:consolas;-inkscape-font-specification:consolas;fill:#0000ff;fill-opacity:1">  String[] appletArgs = new String[] { &quot;pde_java&quot; };</tspan><tspan
         sodipodi:role="line"
         x="340"
         y="530.84436"
         id="tspan4861"
         style="font-style:normal;font-variant:normal;font-weight:normal;font-stretch:normal;font-family:consolas;-inkscape-font-specification:consolas;fill:#0000ff;fill-opacity:1">  if (passedArgs != null) {</tspan><tspan
         sodipodi:role="line"
         x="340"
         y="552.71936"
         id="tspan4863"
         style="font-style:normal;font-variant:normal;font-weight:normal;font-stretch:normal;font-family:consolas;-inkscape-font-specification:consolas;fill:#0000ff;fill-opacity:1">    PApplet.main(concat(appletArgs, passedArgs));</tspan><tspan
         sodipodi:role="line"
         x="340"
         y="574.59436"
         id="tspan4865"
         style="font-style:normal;font-variant:normal;font-weight:normal;font-stretch:normal;font-family:consolas;-inkscape-font-specification:consolas;fill:#0000ff;fill-opacity:1">  } else {</tspan><tspan
         sodipodi:role="line"
         x="340"
         y="596.46936"
         id="tspan4867"
         style="font-style:normal;font-variant:normal;font-weight:normal;font-stretch:normal;font-family:consolas;-inkscape-font-specification:consolas;fill:#0000ff;fill-opacity:1">    PApplet.main(appletArgs);</tspan><tspan
         sodipodi:role="line"
         x="340"
         y="618.34436"
         id="tspan4869"
         style="font-style:normal;font-variant:normal;font-weight:normal;font-stretch:normal;font-family:consolas;-inkscape-font-specification:consolas;fill:#0000ff;fill-opacity:1">  }</tspan><tspan
         sodipodi:role="line"
         x="340"
         y="640.21936"
         id="tspan4871"
         style="font-style:normal;font-variant:normal;font-weight:normal;font-stretch:normal;font-family:consolas;-inkscape-font-specification:consolas;fill:#0000ff;fill-opacity:1">}</tspan><tspan
         sodipodi:role="line"
         x="340"
         y="662.09436"
         id="tspan4873"
         style="font-style:normal;font-variant:normal;font-weight:normal;font-stretch:normal;font-family:consolas;-inkscape-font-specification:consolas;fill:#0000ff;fill-opacity:1">}</tspan></text>
    <text
       xml:space="preserve"
       style="font-style:normal;font-variant:normal;font-weight:normal;font-stretch:normal;font-size:17.5px;line-height:125%;font-family:'Calligraph421 BT';-inkscape-font-specification:'Calligraph421 BT';letter-spacing:0px;word-spacing:0px;fill:#000000;fill-opacity:1;stroke:none;stroke-width:1px;stroke-linecap:butt;stroke-linejoin:miter;stroke-opacity:1;opacity:1;"
       x="339.99564"
       y="202.59703"
       id="text5091"
       sodipodi:linespacing="125%"><tspan
         sodipodi:role="line"
         id="tspan5093"
         x="339.99564"
         y="202.59703"
         style="font-style:normal;font-variant:normal;font-weight:normal;font-stretch:normal;font-family:Consolas;-inkscape-font-specification:Consolas;fill:#000000;fill-opacity:1;">float x,y;</tspan><tspan
         sodipodi:role="line"
         x="339.99564"
         y="224.47203"
         id="tspan5095"
         style="font-style:normal;font-variant:normal;font-weight:normal;font-stretch:normal;font-family:Consolas;-inkscape-font-specification:Consolas;fill:#000000;fill-opacity:1;">void setup() {</tspan><tspan
         sodipodi:role="line"
         x="339.99564"
         y="246.34703"
         id="tspan5097"
         style="font-style:normal;font-variant:normal;font-weight:normal;font-stretch:normal;font-family:Consolas;-inkscape-font-specification:Consolas;fill:#000000;fill-opacity:1;">  size(400,300);</tspan><tspan
         sodipodi:role="line"
         x="339.99564"
         y="268.22202"
         id="tspan5099"
         style="font-style:normal;font-variant:normal;font-weight:normal;font-stretch:normal;font-family:Consolas;-inkscape-font-specification:Consolas;fill:#000000;fill-opacity:1;">  x = width/2.0;</tspan><tspan
         sodipodi:role="line"
         x="339.99564"
         y="290.09702"
         id="tspan5101"
         style="font-style:normal;font-variant:normal;font-weight:normal;font-stretch:normal;font-family:Consolas;-inkscape-font-specification:Consolas;fill:#000000;fill-opacity:1;">  y = height/2.0;</tspan><tspan
         sodipodi:role="line"
         x="339.99564"
         y="311.97202"
         id="tspan5103"
         style="font-style:normal;font-variant:normal;font-weight:normal;font-stretch:normal;font-family:Consolas;-inkscape-font-specification:Consolas;fill:#000000;fill-opacity:1;">  background(0);</tspan><tspan
         sodipodi:role="line"
         x="339.99564"
         y="333.84702"
         id="tspan5105"
         style="font-style:normal;font-variant:normal;font-weight:normal;font-stretch:normal;font-family:Consolas;-inkscape-font-specification:Consolas;fill:#000000;fill-opacity:1;">  noStroke();</tspan><tspan
         sodipodi:role="line"
         x="339.99564"
         y="355.72202"
         id="tspan5107"
         style="font-style:normal;font-variant:normal;font-weight:normal;font-stretch:normal;font-family:Consolas;-inkscape-font-specification:Consolas;fill:#000000;fill-opacity:1;">}</tspan><tspan
         sodipodi:role="line"
         x="339.99564"
         y="377.59702"
         id="tspan5109"
         style="font-style:normal;font-variant:normal;font-weight:normal;font-stretch:normal;font-family:Consolas;-inkscape-font-specification:Consolas;fill:#000000;fill-opacity:1;">void draw() {</tspan><tspan
         sodipodi:role="line"
         x="339.99564"
         y="399.47202"
         id="tspan5111"
         style="font-style:normal;font-variant:normal;font-weight:normal;font-stretch:normal;font-family:Consolas;-inkscape-font-specification:Consolas;fill:#000000;fill-opacity:1;">  x += (random(1)-0.5);</tspan><tspan
         sodipodi:role="line"
         x="339.99564"
         y="421.34702"
         id="tspan5113"
         style="font-style:normal;font-variant:normal;font-weight:normal;font-stretch:normal;font-family:Consolas;-inkscape-font-specification:Consolas;fill:#000000;fill-opacity:1;">  y += (random(1)-0.5);</tspan><tspan
         sodipodi:role="line"
         x="339.99564"
         y="443.22202"
         id="tspan5115"
         style="font-style:normal;font-variant:normal;font-weight:normal;font-stretch:normal;font-family:Consolas;-inkscape-font-specification:Consolas;fill:#000000;fill-opacity:1;">  ellipse(x,y,5,5);</tspan><tspan
         sodipodi:role="line"
         x="339.99564"
         y="465.09702"
         id="tspan5117"
         style="font-style:normal;font-variant:normal;font-weight:normal;font-stretch:normal;font-family:Consolas;-inkscape-font-specification:Consolas;fill:#000000;fill-opacity:1;">}</tspan></text>
  </g>
</svg>
